EESchema Schematic File Version 2
LIBS:Audio
LIBS:Battery
LIBS:Connectors
LIBS:Displays
LIBS:ESD
LIBS:Interface
LIBS:LEDs
LIBS:LightBlueBean
LIBS:Logic
LIBS:Memory
LIBS:PIC12F
LIBS:PIC16F
LIBS:PIC18F
LIBS:Potentiometers
LIBS:Power
LIBS:PMIC
LIBS:RLC
LIBS:RTC
LIBS:STM32F
LIBS:Switches
LIBS:Tag-Connect
LIBS:Transistors
LIBS:Xilinx
LIBS:power
LIBS:device
LIBS:transistors
LIBS:conn
LIBS:linear
LIBS:regul
LIBS:74xx
LIBS:cmos4000
LIBS:adc-dac
LIBS:memory
LIBS:xilinx
LIBS:microcontrollers
LIBS:dsp
LIBS:microchip
LIBS:analog_switches
LIBS:motorola
LIBS:texas
LIBS:intel
LIBS:audio
LIBS:interface
LIBS:digital-audio
LIBS:philips
LIBS:display
LIBS:cypress
LIBS:siliconi
LIBS:opto
LIBS:atmel
LIBS:contrib
LIBS:valves
LIBS:RL02-USB-controller-cache
EELAYER 25 0
EELAYER END
$Descr B 17000 11000
encoding utf-8
Sheet 5 5
Title "RL02-USB Controller"
Date "2016-10-23"
Rev "v1.0"
Comp "Mark J. Blair <nf6x@nf6x.net>"
Comment1 "https://github.com/NF6X/RL02-USB"
Comment2 ""
Comment3 ""
Comment4 ""
$EndDescr
$Comp
L TE_5102321-9 J4
U 1 1 57FC0378
P 8350 4800
F 0 "J4" H 8350 5950 60  0000 C CNN
F 1 "TE_5102321-9" H 8350 5850 60  0000 C CNN
F 2 "NF6X_Connectors:TE_5102321-9" H 8350 3550 60  0001 C CNN
F 3 "" H 8350 5600 60  0001 C CNN
F 4 "TE" H 8350 3750 60  0001 C CNN "manf"
F 5 "5102321-9" H 8350 3650 60  0001 C CNN "manf#"
	1    8350 4800
	1    0    0    -1  
$EndComp
$Comp
L SN75113NSR U3
U 1 1 57FC0381
P 4350 3400
F 0 "U3" H 4350 3850 60  0000 C CNN
F 1 "SN75113NSR" H 4350 3750 60  0000 C CNN
F 2 "NF6X_SO-Packages:NS-16" H 4350 3950 60  0001 C CNN
F 3 "" H 4350 3400 60  0001 C CNN
F 4 "TI" H 4350 4150 60  0001 C CNN "manf"
F 5 "SN75113NSR" H 4350 4050 60  0001 C CNN "manf#"
	1    4350 3400
	1    0    0    -1  
$EndComp
$Comp
L SN75113NSR U3
U 2 1 57FC038A
P 4350 2350
F 0 "U3" H 4350 2800 60  0000 C CNN
F 1 "SN75113NSR" H 4350 2700 60  0000 C CNN
F 2 "NF6X_SO-Packages:NS-16" H 4350 2900 60  0001 C CNN
F 3 "" H 4350 2350 60  0001 C CNN
F 4 "TI" H 4350 3100 60  0001 C CNN "manf"
F 5 "SN75113NSR" H 4350 3000 60  0001 C CNN "manf#"
	2    4350 2350
	1    0    0    -1  
$EndComp
$Comp
L SN75113NSR U3
U 3 1 57FC0393
P 4350 1250
F 0 "U3" H 4350 1700 60  0000 C CNN
F 1 "SN75113NSR" H 4350 1600 60  0000 C CNN
F 2 "NF6X_SO-Packages:NS-16" H 4350 1800 60  0001 C CNN
F 3 "" H 4350 1250 60  0001 C CNN
F 4 "TI" H 4350 2000 60  0001 C CNN "manf"
F 5 "SN75113NSR" H 4350 1900 60  0001 C CNN "manf#"
	3    4350 1250
	1    0    0    -1  
$EndComp
$Comp
L SN75107BNSR U6
U 1 1 57FC03D2
P 12100 3050
F 0 "U6" H 12100 3400 60  0000 C CNN
F 1 "SN75107BNSR" H 12100 3300 60  0000 C CNN
F 2 "NF6X_SO-Packages:NS-14" H 12100 3500 60  0001 C CNN
F 3 "" H 12100 3050 60  0001 C CNN
F 4 "TI" H 12100 3700 60  0001 C CNN "manf"
F 5 "SN75107BNSR" H 12100 3600 60  0001 C CNN "manf#"
	1    12100 3050
	1    0    0    -1  
$EndComp
$Comp
L SN75107BNSR U6
U 2 1 57FC03DB
P 12100 2200
F 0 "U6" H 12100 2550 60  0000 C CNN
F 1 "SN75107BNSR" H 12100 2450 60  0000 C CNN
F 2 "NF6X_SO-Packages:NS-14" H 12100 2650 60  0001 C CNN
F 3 "" H 12100 2200 60  0001 C CNN
F 4 "TI" H 12100 2850 60  0001 C CNN "manf"
F 5 "SN75107BNSR" H 12100 2750 60  0001 C CNN "manf#"
	2    12100 2200
	1    0    0    -1  
$EndComp
$Comp
L SN75107BNSR U6
U 3 1 57FC03E4
P 12100 1000
F 0 "U6" H 12100 1350 60  0000 C CNN
F 1 "SN75107BNSR" H 12100 1250 60  0000 C CNN
F 2 "NF6X_SO-Packages:NS-14" H 12100 1450 60  0001 C CNN
F 3 "" H 12100 1000 60  0001 C CNN
F 4 "TI" H 12100 1650 60  0001 C CNN "manf"
F 5 "SN75107BNSR" H 12100 1550 60  0001 C CNN "manf#"
	3    12100 1000
	1    0    0    -1  
$EndComp
$Comp
L R R7
U 1 1 57FE4FAE
P 5150 2450
F 0 "R7" V 5230 2450 50  0000 C CNN
F 1 "82" V 5150 2450 50  0000 C CNN
F 2 "Resistors_SMD:R_0805" V 5080 2450 50  0001 C CNN
F 3 "" H 5150 2450 50  0000 C CNN
F 4 "Panasonic" V 5150 2450 60  0001 C CNN "manf"
F 5 "ERJ-P06J820V" V 5150 2450 60  0001 C CNN "manf#"
	1    5150 2450
	0    1    1    0   
$EndComp
$Comp
L GND #PWR0133
U 1 1 57FE5E4C
P 7950 5850
F 0 "#PWR0133" H 7950 5600 50  0001 C CNN
F 1 "GND" H 7950 5700 50  0000 C CNN
F 2 "" H 7950 5850 50  0000 C CNN
F 3 "" H 7950 5850 50  0000 C CNN
	1    7950 5850
	1    0    0    -1  
$EndComp
$Comp
L GND #PWR0134
U 1 1 57FE5E9C
P 8750 5850
F 0 "#PWR0134" H 8750 5600 50  0001 C CNN
F 1 "GND" H 8750 5700 50  0000 C CNN
F 2 "" H 8750 5850 50  0000 C CNN
F 3 "" H 8750 5850 50  0000 C CNN
	1    8750 5850
	1    0    0    -1  
$EndComp
$Comp
L R R12
U 1 1 57FE9335
P 5150 2250
F 0 "R12" V 5230 2250 50  0000 C CNN
F 1 "82" V 5150 2250 50  0000 C CNN
F 2 "Resistors_SMD:R_0805" V 5080 2250 50  0001 C CNN
F 3 "" H 5150 2250 50  0000 C CNN
F 4 "Panasonic" V 5150 2250 60  0001 C CNN "manf"
F 5 "ERJ-P06J820V" V 5150 2250 60  0001 C CNN "manf#"
	1    5150 2250
	0    1    1    0   
$EndComp
$Comp
L GND #PWR0135
U 1 1 57FE9365
P 5400 2250
F 0 "#PWR0135" H 5400 2000 50  0001 C CNN
F 1 "GND" H 5400 2100 50  0000 C CNN
F 2 "" H 5400 2250 50  0000 C CNN
F 3 "" H 5400 2250 50  0000 C CNN
	1    5400 2250
	1    0    0    -1  
$EndComp
$Comp
L +5V #PWR0136
U 1 1 57FE938D
P 4900 2450
F 0 "#PWR0136" H 4900 2300 50  0001 C CNN
F 1 "+5V" H 4900 2590 50  0000 C CNN
F 2 "" H 4900 2450 50  0000 C CNN
F 3 "" H 4900 2450 50  0000 C CNN
	1    4900 2450
	1    0    0    -1  
$EndComp
$Comp
L R R3
U 1 1 57FEA08F
P 5150 3500
F 0 "R3" V 5230 3500 50  0000 C CNN
F 1 "82" V 5150 3500 50  0000 C CNN
F 2 "Resistors_SMD:R_0805" V 5080 3500 50  0001 C CNN
F 3 "" H 5150 3500 50  0000 C CNN
F 4 "Panasonic" V 5150 3500 60  0001 C CNN "manf"
F 5 "ERJ-P06J820V" V 5150 3500 60  0001 C CNN "manf#"
	1    5150 3500
	0    1    1    0   
$EndComp
$Comp
L R R9
U 1 1 57FEA099
P 5150 3300
F 0 "R9" V 5230 3300 50  0000 C CNN
F 1 "82" V 5150 3300 50  0000 C CNN
F 2 "Resistors_SMD:R_0805" V 5080 3300 50  0001 C CNN
F 3 "" H 5150 3300 50  0000 C CNN
F 4 "Panasonic" V 5150 3300 60  0001 C CNN "manf"
F 5 "ERJ-P06J820V" V 5150 3300 60  0001 C CNN "manf#"
	1    5150 3300
	0    1    1    0   
$EndComp
$Comp
L GND #PWR0137
U 1 1 57FEA09F
P 5400 3300
F 0 "#PWR0137" H 5400 3050 50  0001 C CNN
F 1 "GND" H 5400 3150 50  0000 C CNN
F 2 "" H 5400 3300 50  0000 C CNN
F 3 "" H 5400 3300 50  0000 C CNN
	1    5400 3300
	1    0    0    -1  
$EndComp
$Comp
L +5V #PWR0138
U 1 1 57FEA0A5
P 4900 3500
F 0 "#PWR0138" H 4900 3350 50  0001 C CNN
F 1 "+5V" H 4900 3640 50  0000 C CNN
F 2 "" H 4900 3500 50  0000 C CNN
F 3 "" H 4900 3500 50  0000 C CNN
	1    4900 3500
	1    0    0    -1  
$EndComp
$Comp
L +5V #PWR0139
U 1 1 57FEA4BF
P 3450 1050
F 0 "#PWR0139" H 3450 900 50  0001 C CNN
F 1 "+5V" H 3450 1190 50  0000 C CNN
F 2 "" H 3450 1050 50  0000 C CNN
F 3 "" H 3450 1050 50  0000 C CNN
	1    3450 1050
	1    0    0    -1  
$EndComp
$Comp
L GND #PWR0140
U 1 1 57FEA51C
P 4350 1700
F 0 "#PWR0140" H 4350 1450 50  0001 C CNN
F 1 "GND" H 4350 1550 50  0000 C CNN
F 2 "" H 4350 1700 50  0000 C CNN
F 3 "" H 4350 1700 50  0000 C CNN
	1    4350 1700
	1    0    0    -1  
$EndComp
$Comp
L C C3
U 1 1 57FEA651
P 3450 1300
F 0 "C3" H 3475 1400 50  0000 L CNN
F 1 "0.1uF" H 3475 1200 50  0000 L CNN
F 2 "Capacitors_SMD:C_0402" H 3488 1150 50  0001 C CNN
F 3 "" H 3450 1300 50  0000 C CNN
F 4 "Murata" H 3450 1300 60  0001 C CNN "manf"
F 5 "GRM155R71C104KA88J" H 3450 1300 60  0001 C CNN "manf#"
	1    3450 1300
	1    0    0    -1  
$EndComp
$Comp
L R R15
U 1 1 57FEAAB7
P 3750 1300
F 0 "R15" V 3830 1300 50  0000 C CNN
F 1 "1k" V 3750 1300 50  0000 C CNN
F 2 "Resistors_SMD:R_0402" V 3680 1300 50  0001 C CNN
F 3 "" H 3750 1300 50  0000 C CNN
F 4 "TE" V 3750 1300 60  0001 C CNN "manf"
F 5 "CRG0402J1K0" V 3750 1300 60  0001 C CNN "manf#"
	1    3750 1300
	1    0    0    -1  
$EndComp
$Comp
L GND #PWR0141
U 1 1 57FEB4BB
P 3450 1500
F 0 "#PWR0141" H 3450 1250 50  0001 C CNN
F 1 "GND" H 3450 1350 50  0000 C CNN
F 2 "" H 3450 1500 50  0000 C CNN
F 3 "" H 3450 1500 50  0000 C CNN
	1    3450 1500
	1    0    0    -1  
$EndComp
$Comp
L +3V3 #PWR0142
U 1 1 57FEBDA3
P 1850 1600
F 0 "#PWR0142" H 1850 1450 50  0001 C CNN
F 1 "+3V3" H 1850 1740 50  0000 C CNN
F 2 "" H 1850 1600 50  0000 C CNN
F 3 "" H 1850 1600 50  0000 C CNN
	1    1850 1600
	1    0    0    -1  
$EndComp
$Comp
L C C30
U 1 1 58006C49
P 1850 1850
F 0 "C30" H 1875 1950 50  0000 L CNN
F 1 "0.1uF" H 1875 1750 50  0000 L CNN
F 2 "Capacitors_SMD:C_0402" H 1888 1700 50  0001 C CNN
F 3 "" H 1850 1850 50  0000 C CNN
F 4 "Murata" H 1850 1850 60  0001 C CNN "manf"
F 5 "GRM155R71C104KA88J" H 1850 1850 60  0001 C CNN "manf#"
	1    1850 1850
	1    0    0    -1  
$EndComp
$Comp
L GND #PWR0143
U 1 1 58006E5B
P 2700 3050
F 0 "#PWR0143" H 2700 2800 50  0001 C CNN
F 1 "GND" H 2700 2900 50  0000 C CNN
F 2 "" H 2700 3050 50  0000 C CNN
F 3 "" H 2700 3050 50  0000 C CNN
	1    2700 3050
	1    0    0    -1  
$EndComp
$Comp
L GND #PWR0144
U 1 1 58006E93
P 1850 2050
F 0 "#PWR0144" H 1850 1800 50  0001 C CNN
F 1 "GND" H 1850 1900 50  0000 C CNN
F 2 "" H 1850 2050 50  0000 C CNN
F 3 "" H 1850 2050 50  0000 C CNN
	1    1850 2050
	1    0    0    -1  
$EndComp
$Comp
L SN75113NSR U7
U 1 1 58008A3D
P 4350 6500
F 0 "U7" H 4350 6950 60  0000 C CNN
F 1 "SN75113NSR" H 4350 6850 60  0000 C CNN
F 2 "NF6X_SO-Packages:NS-16" H 4350 7050 60  0001 C CNN
F 3 "" H 4350 6500 60  0001 C CNN
F 4 "TI" H 4350 7250 60  0001 C CNN "manf"
F 5 "SN75113NSR" H 4350 7150 60  0001 C CNN "manf#"
	1    4350 6500
	1    0    0    -1  
$EndComp
$Comp
L SN75113NSR U7
U 2 1 58008A45
P 4350 5450
F 0 "U7" H 4350 5900 60  0000 C CNN
F 1 "SN75113NSR" H 4350 5800 60  0000 C CNN
F 2 "NF6X_SO-Packages:NS-16" H 4350 6000 60  0001 C CNN
F 3 "" H 4350 5450 60  0001 C CNN
F 4 "TI" H 4350 6200 60  0001 C CNN "manf"
F 5 "SN75113NSR" H 4350 6100 60  0001 C CNN "manf#"
	2    4350 5450
	1    0    0    -1  
$EndComp
$Comp
L SN75113NSR U7
U 3 1 58008A4D
P 4350 4350
F 0 "U7" H 4350 4800 60  0000 C CNN
F 1 "SN75113NSR" H 4350 4700 60  0000 C CNN
F 2 "NF6X_SO-Packages:NS-16" H 4350 4900 60  0001 C CNN
F 3 "" H 4350 4350 60  0001 C CNN
F 4 "TI" H 4350 5100 60  0001 C CNN "manf"
F 5 "SN75113NSR" H 4350 5000 60  0001 C CNN "manf#"
	3    4350 4350
	1    0    0    -1  
$EndComp
$Comp
L R R23
U 1 1 58008A55
P 5150 5550
F 0 "R23" V 5230 5550 50  0000 C CNN
F 1 "82" V 5150 5550 50  0000 C CNN
F 2 "Resistors_SMD:R_0805" V 5080 5550 50  0001 C CNN
F 3 "" H 5150 5550 50  0000 C CNN
F 4 "Panasonic" V 5150 5550 60  0001 C CNN "manf"
F 5 "ERJ-P06J820V" V 5150 5550 60  0001 C CNN "manf#"
	1    5150 5550
	0    1    1    0   
$EndComp
$Comp
L R R29
U 1 1 58008A61
P 5150 5350
F 0 "R29" V 5230 5350 50  0000 C CNN
F 1 "82" V 5150 5350 50  0000 C CNN
F 2 "Resistors_SMD:R_0805" V 5080 5350 50  0001 C CNN
F 3 "" H 5150 5350 50  0000 C CNN
F 4 "Panasonic" V 5150 5350 60  0001 C CNN "manf"
F 5 "ERJ-P06J820V" V 5150 5350 60  0001 C CNN "manf#"
	1    5150 5350
	0    1    1    0   
$EndComp
$Comp
L GND #PWR0145
U 1 1 58008A67
P 5400 5350
F 0 "#PWR0145" H 5400 5100 50  0001 C CNN
F 1 "GND" H 5400 5200 50  0000 C CNN
F 2 "" H 5400 5350 50  0000 C CNN
F 3 "" H 5400 5350 50  0000 C CNN
	1    5400 5350
	1    0    0    -1  
$EndComp
$Comp
L +5V #PWR0146
U 1 1 58008A6D
P 4900 5550
F 0 "#PWR0146" H 4900 5400 50  0001 C CNN
F 1 "+5V" H 4900 5690 50  0000 C CNN
F 2 "" H 4900 5550 50  0000 C CNN
F 3 "" H 4900 5550 50  0000 C CNN
	1    4900 5550
	1    0    0    -1  
$EndComp
$Comp
L R R18
U 1 1 58008A77
P 5150 6600
F 0 "R18" V 5230 6600 50  0000 C CNN
F 1 "82" V 5150 6600 50  0000 C CNN
F 2 "Resistors_SMD:R_0805" V 5080 6600 50  0001 C CNN
F 3 "" H 5150 6600 50  0000 C CNN
F 4 "Panasonic" V 5150 6600 60  0001 C CNN "manf"
F 5 "ERJ-P06J820V" V 5150 6600 60  0001 C CNN "manf#"
	1    5150 6600
	0    1    1    0   
$EndComp
$Comp
L R R25
U 1 1 58008A7F
P 5150 6400
F 0 "R25" V 5230 6400 50  0000 C CNN
F 1 "82" V 5150 6400 50  0000 C CNN
F 2 "Resistors_SMD:R_0805" V 5080 6400 50  0001 C CNN
F 3 "" H 5150 6400 50  0000 C CNN
F 4 "Panasonic" V 5150 6400 60  0001 C CNN "manf"
F 5 "ERJ-P06J820V" V 5150 6400 60  0001 C CNN "manf#"
	1    5150 6400
	0    1    1    0   
$EndComp
$Comp
L GND #PWR0147
U 1 1 58008A85
P 5400 6400
F 0 "#PWR0147" H 5400 6150 50  0001 C CNN
F 1 "GND" H 5400 6250 50  0000 C CNN
F 2 "" H 5400 6400 50  0000 C CNN
F 3 "" H 5400 6400 50  0000 C CNN
	1    5400 6400
	1    0    0    -1  
$EndComp
$Comp
L +5V #PWR0148
U 1 1 58008A8B
P 4900 6600
F 0 "#PWR0148" H 4900 6450 50  0001 C CNN
F 1 "+5V" H 4900 6740 50  0000 C CNN
F 2 "" H 4900 6600 50  0000 C CNN
F 3 "" H 4900 6600 50  0000 C CNN
	1    4900 6600
	1    0    0    -1  
$EndComp
$Comp
L +5V #PWR0149
U 1 1 58008A97
P 3450 4150
F 0 "#PWR0149" H 3450 4000 50  0001 C CNN
F 1 "+5V" H 3450 4290 50  0000 C CNN
F 2 "" H 3450 4150 50  0000 C CNN
F 3 "" H 3450 4150 50  0000 C CNN
	1    3450 4150
	1    0    0    -1  
$EndComp
$Comp
L GND #PWR0150
U 1 1 58008A9D
P 4350 4800
F 0 "#PWR0150" H 4350 4550 50  0001 C CNN
F 1 "GND" H 4350 4650 50  0000 C CNN
F 2 "" H 4350 4800 50  0000 C CNN
F 3 "" H 4350 4800 50  0000 C CNN
	1    4350 4800
	1    0    0    -1  
$EndComp
$Comp
L C C10
U 1 1 58008AA5
P 3450 4400
F 0 "C10" H 3475 4500 50  0000 L CNN
F 1 "0.1uF" H 3475 4300 50  0000 L CNN
F 2 "Capacitors_SMD:C_0402" H 3488 4250 50  0001 C CNN
F 3 "" H 3450 4400 50  0000 C CNN
F 4 "Murata" H 3450 4400 60  0001 C CNN "manf"
F 5 "GRM155R71C104KA88J" H 3450 4400 60  0001 C CNN "manf#"
	1    3450 4400
	1    0    0    -1  
$EndComp
$Comp
L R R33
U 1 1 58008AAD
P 3750 4400
F 0 "R33" V 3830 4400 50  0000 C CNN
F 1 "1k" V 3750 4400 50  0000 C CNN
F 2 "Resistors_SMD:R_0402" V 3680 4400 50  0001 C CNN
F 3 "" H 3750 4400 50  0000 C CNN
F 4 "TE" V 3750 4400 60  0001 C CNN "manf"
F 5 "CRG0402J1K0" V 3750 4400 60  0001 C CNN "manf#"
	1    3750 4400
	1    0    0    -1  
$EndComp
$Comp
L GND #PWR0151
U 1 1 58008AB3
P 3450 4600
F 0 "#PWR0151" H 3450 4350 50  0001 C CNN
F 1 "GND" H 3450 4450 50  0000 C CNN
F 2 "" H 3450 4600 50  0000 C CNN
F 3 "" H 3450 4600 50  0000 C CNN
	1    3450 4600
	1    0    0    -1  
$EndComp
$Comp
L +3V3 #PWR0152
U 1 1 58008AB9
P 1850 4700
F 0 "#PWR0152" H 1850 4550 50  0001 C CNN
F 1 "+3V3" H 1850 4840 50  0000 C CNN
F 2 "" H 1850 4700 50  0000 C CNN
F 3 "" H 1850 4700 50  0000 C CNN
	1    1850 4700
	1    0    0    -1  
$EndComp
$Comp
L C C27
U 1 1 58008AC9
P 1850 4950
F 0 "C27" H 1875 5050 50  0000 L CNN
F 1 "0.1uF" H 1875 4850 50  0000 L CNN
F 2 "Capacitors_SMD:C_0402" H 1888 4800 50  0001 C CNN
F 3 "" H 1850 4950 50  0000 C CNN
F 4 "Murata" H 1850 4950 60  0001 C CNN "manf"
F 5 "GRM155R71C104KA88J" H 1850 4950 60  0001 C CNN "manf#"
	1    1850 4950
	1    0    0    -1  
$EndComp
$Comp
L GND #PWR0153
U 1 1 58008ACF
P 2700 6150
F 0 "#PWR0153" H 2700 5900 50  0001 C CNN
F 1 "GND" H 2700 6000 50  0000 C CNN
F 2 "" H 2700 6150 50  0000 C CNN
F 3 "" H 2700 6150 50  0000 C CNN
	1    2700 6150
	1    0    0    -1  
$EndComp
$Comp
L GND #PWR0154
U 1 1 58008AD5
P 1850 5150
F 0 "#PWR0154" H 1850 4900 50  0001 C CNN
F 1 "GND" H 1850 5000 50  0000 C CNN
F 2 "" H 1850 5150 50  0000 C CNN
F 3 "" H 1850 5150 50  0000 C CNN
	1    1850 5150
	1    0    0    -1  
$EndComp
$Comp
L SN75113NSR U2
U 1 1 58008D00
P 4350 9600
F 0 "U2" H 4350 10050 60  0000 C CNN
F 1 "SN75113NSR" H 4350 9950 60  0000 C CNN
F 2 "NF6X_SO-Packages:NS-16" H 4350 10150 60  0001 C CNN
F 3 "" H 4350 9600 60  0001 C CNN
F 4 "TI" H 4350 10350 60  0001 C CNN "manf"
F 5 "SN75113NSR" H 4350 10250 60  0001 C CNN "manf#"
	1    4350 9600
	1    0    0    -1  
$EndComp
$Comp
L SN75113NSR U2
U 2 1 58008D08
P 4350 8550
F 0 "U2" H 4350 9000 60  0000 C CNN
F 1 "SN75113NSR" H 4350 8900 60  0000 C CNN
F 2 "NF6X_SO-Packages:NS-16" H 4350 9100 60  0001 C CNN
F 3 "" H 4350 8550 60  0001 C CNN
F 4 "TI" H 4350 9300 60  0001 C CNN "manf"
F 5 "SN75113NSR" H 4350 9200 60  0001 C CNN "manf#"
	2    4350 8550
	1    0    0    -1  
$EndComp
$Comp
L SN75113NSR U2
U 3 1 58008D10
P 4350 7450
F 0 "U2" H 4350 7900 60  0000 C CNN
F 1 "SN75113NSR" H 4350 7800 60  0000 C CNN
F 2 "NF6X_SO-Packages:NS-16" H 4350 8000 60  0001 C CNN
F 3 "" H 4350 7450 60  0001 C CNN
F 4 "TI" H 4350 8200 60  0001 C CNN "manf"
F 5 "SN75113NSR" H 4350 8100 60  0001 C CNN "manf#"
	3    4350 7450
	1    0    0    -1  
$EndComp
$Comp
L R R6
U 1 1 58008D18
P 5150 8650
F 0 "R6" V 5230 8650 50  0000 C CNN
F 1 "82" V 5150 8650 50  0000 C CNN
F 2 "Resistors_SMD:R_0805" V 5080 8650 50  0001 C CNN
F 3 "" H 5150 8650 50  0000 C CNN
F 4 "Panasonic" V 5150 8650 60  0001 C CNN "manf"
F 5 "ERJ-P06J820V" V 5150 8650 60  0001 C CNN "manf#"
	1    5150 8650
	0    1    1    0   
$EndComp
$Comp
L R R11
U 1 1 58008D24
P 5150 8450
F 0 "R11" V 5230 8450 50  0000 C CNN
F 1 "82" V 5150 8450 50  0000 C CNN
F 2 "Resistors_SMD:R_0805" V 5080 8450 50  0001 C CNN
F 3 "" H 5150 8450 50  0000 C CNN
F 4 "Panasonic" V 5150 8450 60  0001 C CNN "manf"
F 5 "ERJ-P06J820V" V 5150 8450 60  0001 C CNN "manf#"
	1    5150 8450
	0    1    1    0   
$EndComp
$Comp
L GND #PWR0155
U 1 1 58008D2A
P 5400 8450
F 0 "#PWR0155" H 5400 8200 50  0001 C CNN
F 1 "GND" H 5400 8300 50  0000 C CNN
F 2 "" H 5400 8450 50  0000 C CNN
F 3 "" H 5400 8450 50  0000 C CNN
	1    5400 8450
	1    0    0    -1  
$EndComp
$Comp
L +5V #PWR0156
U 1 1 58008D30
P 4900 8650
F 0 "#PWR0156" H 4900 8500 50  0001 C CNN
F 1 "+5V" H 4900 8790 50  0000 C CNN
F 2 "" H 4900 8650 50  0000 C CNN
F 3 "" H 4900 8650 50  0000 C CNN
	1    4900 8650
	1    0    0    -1  
$EndComp
$Comp
L R R2
U 1 1 58008D3A
P 5150 9700
F 0 "R2" V 5230 9700 50  0000 C CNN
F 1 "82" V 5150 9700 50  0000 C CNN
F 2 "Resistors_SMD:R_0805" V 5080 9700 50  0001 C CNN
F 3 "" H 5150 9700 50  0000 C CNN
F 4 "Panasonic" V 5150 9700 60  0001 C CNN "manf"
F 5 "ERJ-P06J820V" V 5150 9700 60  0001 C CNN "manf#"
	1    5150 9700
	0    1    1    0   
$EndComp
$Comp
L R R8
U 1 1 58008D42
P 5150 9500
F 0 "R8" V 5230 9500 50  0000 C CNN
F 1 "82" V 5150 9500 50  0000 C CNN
F 2 "Resistors_SMD:R_0805" V 5080 9500 50  0001 C CNN
F 3 "" H 5150 9500 50  0000 C CNN
F 4 "Panasonic" V 5150 9500 60  0001 C CNN "manf"
F 5 "ERJ-P06J820V" V 5150 9500 60  0001 C CNN "manf#"
	1    5150 9500
	0    1    1    0   
$EndComp
$Comp
L GND #PWR0157
U 1 1 58008D48
P 5400 9500
F 0 "#PWR0157" H 5400 9250 50  0001 C CNN
F 1 "GND" H 5400 9350 50  0000 C CNN
F 2 "" H 5400 9500 50  0000 C CNN
F 3 "" H 5400 9500 50  0000 C CNN
	1    5400 9500
	1    0    0    -1  
$EndComp
$Comp
L +5V #PWR0158
U 1 1 58008D4E
P 4900 9700
F 0 "#PWR0158" H 4900 9550 50  0001 C CNN
F 1 "+5V" H 4900 9840 50  0000 C CNN
F 2 "" H 4900 9700 50  0000 C CNN
F 3 "" H 4900 9700 50  0000 C CNN
	1    4900 9700
	1    0    0    -1  
$EndComp
$Comp
L +5V #PWR0159
U 1 1 58008D5A
P 3450 7250
F 0 "#PWR0159" H 3450 7100 50  0001 C CNN
F 1 "+5V" H 3450 7390 50  0000 C CNN
F 2 "" H 3450 7250 50  0000 C CNN
F 3 "" H 3450 7250 50  0000 C CNN
	1    3450 7250
	1    0    0    -1  
$EndComp
$Comp
L GND #PWR0160
U 1 1 58008D60
P 4350 7900
F 0 "#PWR0160" H 4350 7650 50  0001 C CNN
F 1 "GND" H 4350 7750 50  0000 C CNN
F 2 "" H 4350 7900 50  0000 C CNN
F 3 "" H 4350 7900 50  0000 C CNN
	1    4350 7900
	1    0    0    -1  
$EndComp
$Comp
L C C2
U 1 1 58008D68
P 3450 7500
F 0 "C2" H 3475 7600 50  0000 L CNN
F 1 "0.1uF" H 3475 7400 50  0000 L CNN
F 2 "Capacitors_SMD:C_0402" H 3488 7350 50  0001 C CNN
F 3 "" H 3450 7500 50  0000 C CNN
F 4 "Murata" H 3450 7500 60  0001 C CNN "manf"
F 5 "GRM155R71C104KA88J" H 3450 7500 60  0001 C CNN "manf#"
	1    3450 7500
	1    0    0    -1  
$EndComp
$Comp
L R R14
U 1 1 58008D70
P 3750 7500
F 0 "R14" V 3830 7500 50  0000 C CNN
F 1 "1k" V 3750 7500 50  0000 C CNN
F 2 "Resistors_SMD:R_0402" V 3680 7500 50  0001 C CNN
F 3 "" H 3750 7500 50  0000 C CNN
F 4 "TE" V 3750 7500 60  0001 C CNN "manf"
F 5 "CRG0402J1K0" V 3750 7500 60  0001 C CNN "manf#"
	1    3750 7500
	1    0    0    -1  
$EndComp
$Comp
L GND #PWR0161
U 1 1 58008D76
P 3450 7700
F 0 "#PWR0161" H 3450 7450 50  0001 C CNN
F 1 "GND" H 3450 7550 50  0000 C CNN
F 2 "" H 3450 7700 50  0000 C CNN
F 3 "" H 3450 7700 50  0000 C CNN
	1    3450 7700
	1    0    0    -1  
$EndComp
$Comp
L +3V3 #PWR0162
U 1 1 58008D7C
P 1850 7800
F 0 "#PWR0162" H 1850 7650 50  0001 C CNN
F 1 "+3V3" H 1850 7940 50  0000 C CNN
F 2 "" H 1850 7800 50  0000 C CNN
F 3 "" H 1850 7800 50  0000 C CNN
	1    1850 7800
	1    0    0    -1  
$EndComp
$Comp
L C C29
U 1 1 58008D8C
P 1850 8050
F 0 "C29" H 1875 8150 50  0000 L CNN
F 1 "0.1uF" H 1875 7950 50  0000 L CNN
F 2 "Capacitors_SMD:C_0402" H 1888 7900 50  0001 C CNN
F 3 "" H 1850 8050 50  0000 C CNN
F 4 "Murata" H 1850 8050 60  0001 C CNN "manf"
F 5 "GRM155R71C104KA88J" H 1850 8050 60  0001 C CNN "manf#"
	1    1850 8050
	1    0    0    -1  
$EndComp
$Comp
L GND #PWR0163
U 1 1 58008D92
P 2700 9250
F 0 "#PWR0163" H 2700 9000 50  0001 C CNN
F 1 "GND" H 2700 9100 50  0000 C CNN
F 2 "" H 2700 9250 50  0000 C CNN
F 3 "" H 2700 9250 50  0000 C CNN
	1    2700 9250
	1    0    0    -1  
$EndComp
$Comp
L GND #PWR0164
U 1 1 58008D98
P 1850 8250
F 0 "#PWR0164" H 1850 8000 50  0001 C CNN
F 1 "GND" H 1850 8100 50  0000 C CNN
F 2 "" H 1850 8250 50  0000 C CNN
F 3 "" H 1850 8250 50  0000 C CNN
	1    1850 8250
	1    0    0    -1  
$EndComp
$Comp
L R R22
U 1 1 5800B97B
P 11350 2100
F 0 "R22" V 11430 2100 50  0000 C CNN
F 1 "82" V 11350 2100 50  0000 C CNN
F 2 "Resistors_SMD:R_0805" V 11280 2100 50  0001 C CNN
F 3 "" H 11350 2100 50  0000 C CNN
F 4 "Panasonic" V 11350 2100 60  0001 C CNN "manf"
F 5 "ERJ-P06J820V" V 11350 2100 60  0001 C CNN "manf#"
	1    11350 2100
	0    1    1    0   
$EndComp
$Comp
L R R32
U 1 1 5800BD1A
P 11450 1400
F 0 "R32" V 11530 1400 50  0000 C CNN
F 1 "1k" V 11450 1400 50  0000 C CNN
F 2 "Resistors_SMD:R_0402" V 11380 1400 50  0001 C CNN
F 3 "" H 11450 1400 50  0000 C CNN
F 4 "TE" V 11450 1400 60  0001 C CNN "manf"
F 5 "CRG0402J1K0" V 11450 1400 60  0001 C CNN "manf#"
	1    11450 1400
	1    0    0    -1  
$EndComp
$Comp
L C C12
U 1 1 5800C0D4
P 11150 1400
F 0 "C12" H 11175 1500 50  0000 L CNN
F 1 "0.1uF" H 11175 1300 50  0000 L CNN
F 2 "Capacitors_SMD:C_0402" H 11188 1250 50  0001 C CNN
F 3 "" H 11150 1400 50  0000 C CNN
F 4 "Murata" H 11150 1400 60  0001 C CNN "manf"
F 5 "GRM155R71C104KA88J" H 11150 1400 60  0001 C CNN "manf#"
	1    11150 1400
	1    0    0    -1  
$EndComp
$Comp
L GND #PWR0165
U 1 1 5800CB7C
P 12100 1450
F 0 "#PWR0165" H 12100 1200 50  0001 C CNN
F 1 "GND" H 12100 1300 50  0000 C CNN
F 2 "" H 12100 1450 50  0000 C CNN
F 3 "" H 12100 1450 50  0000 C CNN
	1    12100 1450
	1    0    0    -1  
$EndComp
$Comp
L -5V #PWR0166
U 1 1 5800F475
P 11150 1100
F 0 "#PWR0166" H 11150 950 50  0001 C CNN
F 1 "-5V" H 11150 1240 50  0000 C CNN
F 2 "" H 11150 1100 50  0000 C CNN
F 3 "" H 11150 1100 50  0000 C CNN
	1    11150 1100
	1    0    0    -1  
$EndComp
$Comp
L +5V #PWR0167
U 1 1 5800FB6A
P 10850 800
F 0 "#PWR0167" H 10850 650 50  0001 C CNN
F 1 "+5V" H 10850 940 50  0000 C CNN
F 2 "" H 10850 800 50  0000 C CNN
F 3 "" H 10850 800 50  0000 C CNN
	1    10850 800 
	1    0    0    -1  
$EndComp
$Comp
L +3V3 #PWR0168
U 1 1 580103A0
P 14000 1350
F 0 "#PWR0168" H 14000 1200 50  0001 C CNN
F 1 "+3V3" H 14000 1490 50  0000 C CNN
F 2 "" H 14000 1350 50  0000 C CNN
F 3 "" H 14000 1350 50  0000 C CNN
	1    14000 1350
	1    0    0    -1  
$EndComp
$Comp
L R R28
U 1 1 58011EF3
P 11350 2300
F 0 "R28" V 11430 2300 50  0000 C CNN
F 1 "82" V 11350 2300 50  0000 C CNN
F 2 "Resistors_SMD:R_0805" V 11280 2300 50  0001 C CNN
F 3 "" H 11350 2300 50  0000 C CNN
F 4 "Panasonic" V 11350 2300 60  0001 C CNN "manf"
F 5 "ERJ-P06J820V" V 11350 2300 60  0001 C CNN "manf#"
	1    11350 2300
	0    1    1    0   
$EndComp
$Comp
L +5V #PWR0169
U 1 1 580137E1
P 10900 2300
F 0 "#PWR0169" H 10900 2150 50  0001 C CNN
F 1 "+5V" H 10900 2440 50  0000 C CNN
F 2 "" H 10900 2300 50  0000 C CNN
F 3 "" H 10900 2300 50  0000 C CNN
	1    10900 2300
	1    0    0    -1  
$EndComp
$Comp
L GND #PWR0170
U 1 1 5801386A
P 11100 2100
F 0 "#PWR0170" H 11100 1850 50  0001 C CNN
F 1 "GND" H 11100 1950 50  0000 C CNN
F 2 "" H 11100 2100 50  0000 C CNN
F 3 "" H 11100 2100 50  0000 C CNN
	1    11100 2100
	1    0    0    -1  
$EndComp
$Comp
L R R17
U 1 1 580152CF
P 11350 2950
F 0 "R17" V 11430 2950 50  0000 C CNN
F 1 "82" V 11350 2950 50  0000 C CNN
F 2 "Resistors_SMD:R_0805" V 11280 2950 50  0001 C CNN
F 3 "" H 11350 2950 50  0000 C CNN
F 4 "Panasonic" V 11350 2950 60  0001 C CNN "manf"
F 5 "ERJ-P06J820V" V 11350 2950 60  0001 C CNN "manf#"
	1    11350 2950
	0    1    1    0   
$EndComp
$Comp
L R R21
U 1 1 580152D7
P 11350 3150
F 0 "R21" V 11430 3150 50  0000 C CNN
F 1 "82" V 11350 3150 50  0000 C CNN
F 2 "Resistors_SMD:R_0805" V 11280 3150 50  0001 C CNN
F 3 "" H 11350 3150 50  0000 C CNN
F 4 "Panasonic" V 11350 3150 60  0001 C CNN "manf"
F 5 "ERJ-P06J820V" V 11350 3150 60  0001 C CNN "manf#"
	1    11350 3150
	0    1    1    0   
$EndComp
$Comp
L +5V #PWR0171
U 1 1 580152DF
P 10900 3150
F 0 "#PWR0171" H 10900 3000 50  0001 C CNN
F 1 "+5V" H 10900 3290 50  0000 C CNN
F 2 "" H 10900 3150 50  0000 C CNN
F 3 "" H 10900 3150 50  0000 C CNN
	1    10900 3150
	1    0    0    -1  
$EndComp
$Comp
L GND #PWR0172
U 1 1 580152E5
P 11100 2950
F 0 "#PWR0172" H 11100 2700 50  0001 C CNN
F 1 "GND" H 11100 2800 50  0000 C CNN
F 2 "" H 11100 2950 50  0000 C CNN
F 3 "" H 11100 2950 50  0000 C CNN
	1    11100 2950
	1    0    0    -1  
$EndComp
$Comp
L C C9
U 1 1 58016A05
P 10850 1400
F 0 "C9" H 10875 1500 50  0000 L CNN
F 1 "0.1uF" H 10875 1300 50  0000 L CNN
F 2 "Capacitors_SMD:C_0402" H 10888 1250 50  0001 C CNN
F 3 "" H 10850 1400 50  0000 C CNN
F 4 "Murata" H 10850 1400 60  0001 C CNN "manf"
F 5 "GRM155R71C104KA88J" H 10850 1400 60  0001 C CNN "manf#"
	1    10850 1400
	1    0    0    -1  
$EndComp
$Comp
L GND #PWR0173
U 1 1 5801755E
P 10850 1600
F 0 "#PWR0173" H 10850 1350 50  0001 C CNN
F 1 "GND" H 10850 1450 50  0000 C CNN
F 2 "" H 10850 1600 50  0000 C CNN
F 3 "" H 10850 1600 50  0000 C CNN
	1    10850 1600
	1    0    0    -1  
$EndComp
$Comp
L GND #PWR0174
U 1 1 580175F0
P 11150 1600
F 0 "#PWR0174" H 11150 1350 50  0001 C CNN
F 1 "GND" H 11150 1450 50  0000 C CNN
F 2 "" H 11150 1600 50  0000 C CNN
F 3 "" H 11150 1600 50  0000 C CNN
	1    11150 1600
	1    0    0    -1  
$EndComp
$Comp
L C C26
U 1 1 5801853B
P 14000 1700
F 0 "C26" H 14025 1800 50  0000 L CNN
F 1 "0.1uF" H 14025 1600 50  0000 L CNN
F 2 "Capacitors_SMD:C_0402" H 14038 1550 50  0001 C CNN
F 3 "" H 14000 1700 50  0000 C CNN
F 4 "Murata" H 14000 1700 60  0001 C CNN "manf"
F 5 "GRM155R71C104KA88J" H 14000 1700 60  0001 C CNN "manf#"
	1    14000 1700
	1    0    0    -1  
$EndComp
$Comp
L GND #PWR0175
U 1 1 580197DD
P 14000 1900
F 0 "#PWR0175" H 14000 1650 50  0001 C CNN
F 1 "GND" H 14000 1750 50  0000 C CNN
F 2 "" H 14000 1900 50  0000 C CNN
F 3 "" H 14000 1900 50  0000 C CNN
	1    14000 1900
	1    0    0    -1  
$EndComp
$Comp
L GND #PWR0176
U 1 1 58019A7C
P 13450 2950
F 0 "#PWR0176" H 13450 2700 50  0001 C CNN
F 1 "GND" H 13450 2800 50  0000 C CNN
F 2 "" H 13450 2950 50  0000 C CNN
F 3 "" H 13450 2950 50  0000 C CNN
	1    13450 2950
	1    0    0    -1  
$EndComp
$Comp
L +5V #PWR0177
U 1 1 5801A456
P 13300 1350
F 0 "#PWR0177" H 13300 1200 50  0001 C CNN
F 1 "+5V" H 13300 1490 50  0000 C CNN
F 2 "" H 13300 1350 50  0000 C CNN
F 3 "" H 13300 1350 50  0000 C CNN
	1    13300 1350
	1    0    0    -1  
$EndComp
$Comp
L SN75107BNSR U1
U 1 1 5801D628
P 12100 5900
F 0 "U1" H 12100 6250 60  0000 C CNN
F 1 "SN75107BNSR" H 12100 6150 60  0000 C CNN
F 2 "NF6X_SO-Packages:NS-14" H 12100 6350 60  0001 C CNN
F 3 "" H 12100 5900 60  0001 C CNN
F 4 "TI" H 12100 6550 60  0001 C CNN "manf"
F 5 "SN75107BNSR" H 12100 6450 60  0001 C CNN "manf#"
	1    12100 5900
	1    0    0    -1  
$EndComp
$Comp
L SN75107BNSR U1
U 2 1 5801D630
P 12100 5050
F 0 "U1" H 12100 5400 60  0000 C CNN
F 1 "SN75107BNSR" H 12100 5300 60  0000 C CNN
F 2 "NF6X_SO-Packages:NS-14" H 12100 5500 60  0001 C CNN
F 3 "" H 12100 5050 60  0001 C CNN
F 4 "TI" H 12100 5700 60  0001 C CNN "manf"
F 5 "SN75107BNSR" H 12100 5600 60  0001 C CNN "manf#"
	2    12100 5050
	1    0    0    -1  
$EndComp
$Comp
L SN75107BNSR U1
U 3 1 5801D638
P 12100 3850
F 0 "U1" H 12100 4200 60  0000 C CNN
F 1 "SN75107BNSR" H 12100 4100 60  0000 C CNN
F 2 "NF6X_SO-Packages:NS-14" H 12100 4300 60  0001 C CNN
F 3 "" H 12100 3850 60  0001 C CNN
F 4 "TI" H 12100 4500 60  0001 C CNN "manf"
F 5 "SN75107BNSR" H 12100 4400 60  0001 C CNN "manf#"
	3    12100 3850
	1    0    0    -1  
$EndComp
$Comp
L R R5
U 1 1 5801D644
P 11350 4950
F 0 "R5" V 11430 4950 50  0000 C CNN
F 1 "82" V 11350 4950 50  0000 C CNN
F 2 "Resistors_SMD:R_0805" V 11280 4950 50  0001 C CNN
F 3 "" H 11350 4950 50  0000 C CNN
F 4 "Panasonic" V 11350 4950 60  0001 C CNN "manf"
F 5 "ERJ-P06J820V" V 11350 4950 60  0001 C CNN "manf#"
	1    11350 4950
	0    1    1    0   
$EndComp
$Comp
L R R13
U 1 1 5801D64C
P 11450 4250
F 0 "R13" V 11530 4250 50  0000 C CNN
F 1 "1k" V 11450 4250 50  0000 C CNN
F 2 "Resistors_SMD:R_0402" V 11380 4250 50  0001 C CNN
F 3 "" H 11450 4250 50  0000 C CNN
F 4 "TE" V 11450 4250 60  0001 C CNN "manf"
F 5 "CRG0402J1K0" V 11450 4250 60  0001 C CNN "manf#"
	1    11450 4250
	1    0    0    -1  
$EndComp
$Comp
L C C4
U 1 1 5801D654
P 11150 4250
F 0 "C4" H 11175 4350 50  0000 L CNN
F 1 "0.1uF" H 11175 4150 50  0000 L CNN
F 2 "Capacitors_SMD:C_0402" H 11188 4100 50  0001 C CNN
F 3 "" H 11150 4250 50  0000 C CNN
F 4 "Murata" H 11150 4250 60  0001 C CNN "manf"
F 5 "GRM155R71C104KA88J" H 11150 4250 60  0001 C CNN "manf#"
	1    11150 4250
	1    0    0    -1  
$EndComp
$Comp
L GND #PWR0178
U 1 1 5801D662
P 12100 4300
F 0 "#PWR0178" H 12100 4050 50  0001 C CNN
F 1 "GND" H 12100 4150 50  0000 C CNN
F 2 "" H 12100 4300 50  0000 C CNN
F 3 "" H 12100 4300 50  0000 C CNN
	1    12100 4300
	1    0    0    -1  
$EndComp
$Comp
L -5V #PWR0179
U 1 1 5801D668
P 11150 3950
F 0 "#PWR0179" H 11150 3800 50  0001 C CNN
F 1 "-5V" H 11150 4090 50  0000 C CNN
F 2 "" H 11150 3950 50  0000 C CNN
F 3 "" H 11150 3950 50  0000 C CNN
	1    11150 3950
	1    0    0    -1  
$EndComp
$Comp
L +5V #PWR0180
U 1 1 5801D66E
P 10850 3650
F 0 "#PWR0180" H 10850 3500 50  0001 C CNN
F 1 "+5V" H 10850 3790 50  0000 C CNN
F 2 "" H 10850 3650 50  0000 C CNN
F 3 "" H 10850 3650 50  0000 C CNN
	1    10850 3650
	1    0    0    -1  
$EndComp
$Comp
L +3V3 #PWR0181
U 1 1 5801D674
P 14000 4200
F 0 "#PWR0181" H 14000 4050 50  0001 C CNN
F 1 "+3V3" H 14000 4340 50  0000 C CNN
F 2 "" H 14000 4200 50  0000 C CNN
F 3 "" H 14000 4200 50  0000 C CNN
	1    14000 4200
	1    0    0    -1  
$EndComp
$Comp
L R R10
U 1 1 5801D67C
P 11350 5150
F 0 "R10" V 11430 5150 50  0000 C CNN
F 1 "82" V 11350 5150 50  0000 C CNN
F 2 "Resistors_SMD:R_0805" V 11280 5150 50  0001 C CNN
F 3 "" H 11350 5150 50  0000 C CNN
F 4 "Panasonic" V 11350 5150 60  0001 C CNN "manf"
F 5 "ERJ-P06J820V" V 11350 5150 60  0001 C CNN "manf#"
	1    11350 5150
	0    1    1    0   
$EndComp
$Comp
L +5V #PWR0182
U 1 1 5801D682
P 10900 5150
F 0 "#PWR0182" H 10900 5000 50  0001 C CNN
F 1 "+5V" H 10900 5290 50  0000 C CNN
F 2 "" H 10900 5150 50  0000 C CNN
F 3 "" H 10900 5150 50  0000 C CNN
	1    10900 5150
	1    0    0    -1  
$EndComp
$Comp
L GND #PWR0183
U 1 1 5801D688
P 11100 4950
F 0 "#PWR0183" H 11100 4700 50  0001 C CNN
F 1 "GND" H 11100 4800 50  0000 C CNN
F 2 "" H 11100 4950 50  0000 C CNN
F 3 "" H 11100 4950 50  0000 C CNN
	1    11100 4950
	1    0    0    -1  
$EndComp
$Comp
L R R1
U 1 1 5801D692
P 11350 5800
F 0 "R1" V 11430 5800 50  0000 C CNN
F 1 "82" V 11350 5800 50  0000 C CNN
F 2 "Resistors_SMD:R_0805" V 11280 5800 50  0001 C CNN
F 3 "" H 11350 5800 50  0000 C CNN
F 4 "Panasonic" V 11350 5800 60  0001 C CNN "manf"
F 5 "ERJ-P06J820V" V 11350 5800 60  0001 C CNN "manf#"
	1    11350 5800
	0    1    1    0   
$EndComp
$Comp
L R R4
U 1 1 5801D69A
P 11350 6000
F 0 "R4" V 11430 6000 50  0000 C CNN
F 1 "82" V 11350 6000 50  0000 C CNN
F 2 "Resistors_SMD:R_0805" V 11280 6000 50  0001 C CNN
F 3 "" H 11350 6000 50  0000 C CNN
F 4 "Panasonic" V 11350 6000 60  0001 C CNN "manf"
F 5 "ERJ-P06J820V" V 11350 6000 60  0001 C CNN "manf#"
	1    11350 6000
	0    1    1    0   
$EndComp
$Comp
L +5V #PWR0184
U 1 1 5801D6A0
P 10900 6000
F 0 "#PWR0184" H 10900 5850 50  0001 C CNN
F 1 "+5V" H 10900 6140 50  0000 C CNN
F 2 "" H 10900 6000 50  0000 C CNN
F 3 "" H 10900 6000 50  0000 C CNN
	1    10900 6000
	1    0    0    -1  
$EndComp
$Comp
L GND #PWR0185
U 1 1 5801D6A6
P 11100 5800
F 0 "#PWR0185" H 11100 5550 50  0001 C CNN
F 1 "GND" H 11100 5650 50  0000 C CNN
F 2 "" H 11100 5800 50  0000 C CNN
F 3 "" H 11100 5800 50  0000 C CNN
	1    11100 5800
	1    0    0    -1  
$EndComp
$Comp
L C C1
U 1 1 5801D6B0
P 10850 4250
F 0 "C1" H 10875 4350 50  0000 L CNN
F 1 "0.1uF" H 10875 4150 50  0000 L CNN
F 2 "Capacitors_SMD:C_0402" H 10888 4100 50  0001 C CNN
F 3 "" H 10850 4250 50  0000 C CNN
F 4 "Murata" H 10850 4250 60  0001 C CNN "manf"
F 5 "GRM155R71C104KA88J" H 10850 4250 60  0001 C CNN "manf#"
	1    10850 4250
	1    0    0    -1  
$EndComp
$Comp
L GND #PWR0186
U 1 1 5801D6B6
P 10850 4450
F 0 "#PWR0186" H 10850 4200 50  0001 C CNN
F 1 "GND" H 10850 4300 50  0000 C CNN
F 2 "" H 10850 4450 50  0000 C CNN
F 3 "" H 10850 4450 50  0000 C CNN
	1    10850 4450
	1    0    0    -1  
$EndComp
$Comp
L GND #PWR0187
U 1 1 5801D6BC
P 11150 4450
F 0 "#PWR0187" H 11150 4200 50  0001 C CNN
F 1 "GND" H 11150 4300 50  0000 C CNN
F 2 "" H 11150 4450 50  0000 C CNN
F 3 "" H 11150 4450 50  0000 C CNN
	1    11150 4450
	1    0    0    -1  
$EndComp
$Comp
L C C28
U 1 1 5801D6C4
P 14000 4550
F 0 "C28" H 14025 4650 50  0000 L CNN
F 1 "0.1uF" H 14025 4450 50  0000 L CNN
F 2 "Capacitors_SMD:C_0402" H 14038 4400 50  0001 C CNN
F 3 "" H 14000 4550 50  0000 C CNN
F 4 "Murata" H 14000 4550 60  0001 C CNN "manf"
F 5 "GRM155R71C104KA88J" H 14000 4550 60  0001 C CNN "manf#"
	1    14000 4550
	1    0    0    -1  
$EndComp
$Comp
L GND #PWR0188
U 1 1 5801D6CA
P 14000 4750
F 0 "#PWR0188" H 14000 4500 50  0001 C CNN
F 1 "GND" H 14000 4600 50  0000 C CNN
F 2 "" H 14000 4750 50  0000 C CNN
F 3 "" H 14000 4750 50  0000 C CNN
	1    14000 4750
	1    0    0    -1  
$EndComp
$Comp
L GND #PWR0189
U 1 1 5801D6D0
P 13450 5800
F 0 "#PWR0189" H 13450 5550 50  0001 C CNN
F 1 "GND" H 13450 5650 50  0000 C CNN
F 2 "" H 13450 5800 50  0000 C CNN
F 3 "" H 13450 5800 50  0000 C CNN
	1    13450 5800
	1    0    0    -1  
$EndComp
$Comp
L +5V #PWR0190
U 1 1 5801D703
P 13300 4200
F 0 "#PWR0190" H 13300 4050 50  0001 C CNN
F 1 "+5V" H 13300 4340 50  0000 C CNN
F 2 "" H 13300 4200 50  0000 C CNN
F 3 "" H 13300 4200 50  0000 C CNN
	1    13300 4200
	1    0    0    -1  
$EndComp
$Comp
L SN75107BNSR U5
U 1 1 5801EAB6
P 12100 8750
F 0 "U5" H 12100 9100 60  0000 C CNN
F 1 "SN75107BNSR" H 12100 9000 60  0000 C CNN
F 2 "NF6X_SO-Packages:NS-14" H 12100 9200 60  0001 C CNN
F 3 "" H 12100 8750 60  0001 C CNN
F 4 "TI" H 12100 9400 60  0001 C CNN "manf"
F 5 "SN75107BNSR" H 12100 9300 60  0001 C CNN "manf#"
	1    12100 8750
	1    0    0    -1  
$EndComp
$Comp
L SN75107BNSR U5
U 2 1 5801EABE
P 12100 7900
F 0 "U5" H 12100 8250 60  0000 C CNN
F 1 "SN75107BNSR" H 12100 8150 60  0000 C CNN
F 2 "NF6X_SO-Packages:NS-14" H 12100 8350 60  0001 C CNN
F 3 "" H 12100 7900 60  0001 C CNN
F 4 "TI" H 12100 8550 60  0001 C CNN "manf"
F 5 "SN75107BNSR" H 12100 8450 60  0001 C CNN "manf#"
	2    12100 7900
	1    0    0    -1  
$EndComp
$Comp
L SN75107BNSR U5
U 3 1 5801EAC6
P 12100 6700
F 0 "U5" H 12100 7050 60  0000 C CNN
F 1 "SN75107BNSR" H 12100 6950 60  0000 C CNN
F 2 "NF6X_SO-Packages:NS-14" H 12100 7150 60  0001 C CNN
F 3 "" H 12100 6700 60  0001 C CNN
F 4 "TI" H 12100 7350 60  0001 C CNN "manf"
F 5 "SN75107BNSR" H 12100 7250 60  0001 C CNN "manf#"
	3    12100 6700
	1    0    0    -1  
$EndComp
$Comp
L R R20
U 1 1 5801EAD2
P 11350 7800
F 0 "R20" V 11430 7800 50  0000 C CNN
F 1 "82" V 11350 7800 50  0000 C CNN
F 2 "Resistors_SMD:R_0805" V 11280 7800 50  0001 C CNN
F 3 "" H 11350 7800 50  0000 C CNN
F 4 "Panasonic" V 11350 7800 60  0001 C CNN "manf"
F 5 "ERJ-P06J820V" V 11350 7800 60  0001 C CNN "manf#"
	1    11350 7800
	0    1    1    0   
$EndComp
$Comp
L R R31
U 1 1 5801EADA
P 11450 7100
F 0 "R31" V 11530 7100 50  0000 C CNN
F 1 "1k" V 11450 7100 50  0000 C CNN
F 2 "Resistors_SMD:R_0402" V 11380 7100 50  0001 C CNN
F 3 "" H 11450 7100 50  0000 C CNN
F 4 "TE" V 11450 7100 60  0001 C CNN "manf"
F 5 "CRG0402J1K0" V 11450 7100 60  0001 C CNN "manf#"
	1    11450 7100
	1    0    0    -1  
$EndComp
$Comp
L C C11
U 1 1 5801EAE2
P 11150 7100
F 0 "C11" H 11175 7200 50  0000 L CNN
F 1 "0.1uF" H 11175 7000 50  0000 L CNN
F 2 "Capacitors_SMD:C_0402" H 11188 6950 50  0001 C CNN
F 3 "" H 11150 7100 50  0000 C CNN
F 4 "Murata" H 11150 7100 60  0001 C CNN "manf"
F 5 "GRM155R71C104KA88J" H 11150 7100 60  0001 C CNN "manf#"
	1    11150 7100
	1    0    0    -1  
$EndComp
$Comp
L GND #PWR0191
U 1 1 5801EAF0
P 12100 7150
F 0 "#PWR0191" H 12100 6900 50  0001 C CNN
F 1 "GND" H 12100 7000 50  0000 C CNN
F 2 "" H 12100 7150 50  0000 C CNN
F 3 "" H 12100 7150 50  0000 C CNN
	1    12100 7150
	1    0    0    -1  
$EndComp
$Comp
L -5V #PWR0192
U 1 1 5801EAF6
P 11150 6800
F 0 "#PWR0192" H 11150 6650 50  0001 C CNN
F 1 "-5V" H 11150 6940 50  0000 C CNN
F 2 "" H 11150 6800 50  0000 C CNN
F 3 "" H 11150 6800 50  0000 C CNN
	1    11150 6800
	1    0    0    -1  
$EndComp
$Comp
L +5V #PWR0193
U 1 1 5801EAFC
P 10850 6500
F 0 "#PWR0193" H 10850 6350 50  0001 C CNN
F 1 "+5V" H 10850 6640 50  0000 C CNN
F 2 "" H 10850 6500 50  0000 C CNN
F 3 "" H 10850 6500 50  0000 C CNN
	1    10850 6500
	1    0    0    -1  
$EndComp
$Comp
L +3V3 #PWR0194
U 1 1 5801EB02
P 14000 7050
F 0 "#PWR0194" H 14000 6900 50  0001 C CNN
F 1 "+3V3" H 14000 7190 50  0000 C CNN
F 2 "" H 14000 7050 50  0000 C CNN
F 3 "" H 14000 7050 50  0000 C CNN
	1    14000 7050
	1    0    0    -1  
$EndComp
$Comp
L R R27
U 1 1 5801EB0A
P 11350 8000
F 0 "R27" V 11430 8000 50  0000 C CNN
F 1 "82" V 11350 8000 50  0000 C CNN
F 2 "Resistors_SMD:R_0805" V 11280 8000 50  0001 C CNN
F 3 "" H 11350 8000 50  0000 C CNN
F 4 "Panasonic" V 11350 8000 60  0001 C CNN "manf"
F 5 "ERJ-P06J820V" V 11350 8000 60  0001 C CNN "manf#"
	1    11350 8000
	0    1    1    0   
$EndComp
$Comp
L +5V #PWR0195
U 1 1 5801EB10
P 10900 8000
F 0 "#PWR0195" H 10900 7850 50  0001 C CNN
F 1 "+5V" H 10900 8140 50  0000 C CNN
F 2 "" H 10900 8000 50  0000 C CNN
F 3 "" H 10900 8000 50  0000 C CNN
	1    10900 8000
	1    0    0    -1  
$EndComp
$Comp
L GND #PWR0196
U 1 1 5801EB16
P 11100 7800
F 0 "#PWR0196" H 11100 7550 50  0001 C CNN
F 1 "GND" H 11100 7650 50  0000 C CNN
F 2 "" H 11100 7800 50  0000 C CNN
F 3 "" H 11100 7800 50  0000 C CNN
	1    11100 7800
	1    0    0    -1  
$EndComp
$Comp
L R R16
U 1 1 5801EB20
P 11350 8650
F 0 "R16" V 11430 8650 50  0000 C CNN
F 1 "82" V 11350 8650 50  0000 C CNN
F 2 "Resistors_SMD:R_0805" V 11280 8650 50  0001 C CNN
F 3 "" H 11350 8650 50  0000 C CNN
F 4 "Panasonic" V 11350 8650 60  0001 C CNN "manf"
F 5 "ERJ-P06J820V" V 11350 8650 60  0001 C CNN "manf#"
	1    11350 8650
	0    1    1    0   
$EndComp
$Comp
L R R19
U 1 1 5801EB28
P 11350 8850
F 0 "R19" V 11430 8850 50  0000 C CNN
F 1 "82" V 11350 8850 50  0000 C CNN
F 2 "Resistors_SMD:R_0805" V 11280 8850 50  0001 C CNN
F 3 "" H 11350 8850 50  0000 C CNN
F 4 "Panasonic" V 11350 8850 60  0001 C CNN "manf"
F 5 "ERJ-P06J820V" V 11350 8850 60  0001 C CNN "manf#"
	1    11350 8850
	0    1    1    0   
$EndComp
$Comp
L +5V #PWR0197
U 1 1 5801EB2E
P 10900 8850
F 0 "#PWR0197" H 10900 8700 50  0001 C CNN
F 1 "+5V" H 10900 8990 50  0000 C CNN
F 2 "" H 10900 8850 50  0000 C CNN
F 3 "" H 10900 8850 50  0000 C CNN
	1    10900 8850
	1    0    0    -1  
$EndComp
$Comp
L GND #PWR0198
U 1 1 5801EB34
P 11100 8650
F 0 "#PWR0198" H 11100 8400 50  0001 C CNN
F 1 "GND" H 11100 8500 50  0000 C CNN
F 2 "" H 11100 8650 50  0000 C CNN
F 3 "" H 11100 8650 50  0000 C CNN
	1    11100 8650
	1    0    0    -1  
$EndComp
$Comp
L C C8
U 1 1 5801EB3E
P 10850 7100
F 0 "C8" H 10875 7200 50  0000 L CNN
F 1 "0.1uF" H 10875 7000 50  0000 L CNN
F 2 "Capacitors_SMD:C_0402" H 10888 6950 50  0001 C CNN
F 3 "" H 10850 7100 50  0000 C CNN
F 4 "Murata" H 10850 7100 60  0001 C CNN "manf"
F 5 "GRM155R71C104KA88J" H 10850 7100 60  0001 C CNN "manf#"
	1    10850 7100
	1    0    0    -1  
$EndComp
$Comp
L GND #PWR0199
U 1 1 5801EB44
P 10850 7300
F 0 "#PWR0199" H 10850 7050 50  0001 C CNN
F 1 "GND" H 10850 7150 50  0000 C CNN
F 2 "" H 10850 7300 50  0000 C CNN
F 3 "" H 10850 7300 50  0000 C CNN
	1    10850 7300
	1    0    0    -1  
$EndComp
$Comp
L GND #PWR0200
U 1 1 5801EB4A
P 11150 7300
F 0 "#PWR0200" H 11150 7050 50  0001 C CNN
F 1 "GND" H 11150 7150 50  0000 C CNN
F 2 "" H 11150 7300 50  0000 C CNN
F 3 "" H 11150 7300 50  0000 C CNN
	1    11150 7300
	1    0    0    -1  
$EndComp
$Comp
L C C25
U 1 1 5801EB52
P 14000 7400
F 0 "C25" H 14025 7500 50  0000 L CNN
F 1 "0.1uF" H 14025 7300 50  0000 L CNN
F 2 "Capacitors_SMD:C_0402" H 14038 7250 50  0001 C CNN
F 3 "" H 14000 7400 50  0000 C CNN
F 4 "Murata" H 14000 7400 60  0001 C CNN "manf"
F 5 "GRM155R71C104KA88J" H 14000 7400 60  0001 C CNN "manf#"
	1    14000 7400
	1    0    0    -1  
$EndComp
$Comp
L GND #PWR0201
U 1 1 5801EB58
P 14000 7600
F 0 "#PWR0201" H 14000 7350 50  0001 C CNN
F 1 "GND" H 14000 7450 50  0000 C CNN
F 2 "" H 14000 7600 50  0000 C CNN
F 3 "" H 14000 7600 50  0000 C CNN
	1    14000 7600
	1    0    0    -1  
$EndComp
$Comp
L GND #PWR0202
U 1 1 5801EB5E
P 13450 8650
F 0 "#PWR0202" H 13450 8400 50  0001 C CNN
F 1 "GND" H 13450 8500 50  0000 C CNN
F 2 "" H 13450 8650 50  0000 C CNN
F 3 "" H 13450 8650 50  0000 C CNN
	1    13450 8650
	1    0    0    -1  
$EndComp
$Comp
L +5V #PWR0203
U 1 1 5801EB91
P 13300 7050
F 0 "#PWR0203" H 13300 6900 50  0001 C CNN
F 1 "+5V" H 13300 7190 50  0000 C CNN
F 2 "" H 13300 7050 50  0000 C CNN
F 3 "" H 13300 7050 50  0000 C CNN
	1    13300 7050
	1    0    0    -1  
$EndComp
$Comp
L MMBT2907ALT1G Q1
U 1 1 58023F59
P 8450 7300
F 0 "Q1" H 8650 7350 50  0000 L CNN
F 1 "MMBT2907ALT1G" H 8650 7250 50  0000 L CNN
F 2 "TO_SOT_Packages_SMD:SOT-23" H 8650 6950 50  0001 L CNN
F 3 "" H 8450 7300 50  0000 C CNN
F 4 "On Semiconductor" H 8650 7150 60  0001 L CNN "manf"
F 5 "MMBT2907ALT1G" H 8650 7050 60  0001 L CNN "manf#"
	1    8450 7300
	1    0    0    -1  
$EndComp
$Comp
L +5V #PWR0204
U 1 1 580241D6
P 8550 6850
F 0 "#PWR0204" H 8550 6700 50  0001 C CNN
F 1 "+5V" H 8550 6990 50  0000 C CNN
F 2 "" H 8550 6850 50  0000 C CNN
F 3 "" H 8550 6850 50  0000 C CNN
	1    8550 6850
	1    0    0    -1  
$EndComp
$Comp
L MMBT2222ALT1G Q2
U 1 1 580256F3
P 7700 7550
F 0 "Q2" H 7900 7600 40  0000 L CNN
F 1 "MMBT2222ALT1G" H 7900 7500 40  0000 L CNN
F 2 "TO_SOT_Packages_SMD:SOT-23" H 7900 7200 60  0001 L CNN
F 3 "" H 7700 7550 60  0000 C CNN
F 4 "On Semiconductor" H 7900 7400 60  0001 L CNN "manf"
F 5 "MMBT2222ALT1G" H 7900 7300 60  0001 L CNN "manf#"
	1    7700 7550
	1    0    0    -1  
$EndComp
$Comp
L R R24
U 1 1 5802777D
P 8200 7100
F 0 "R24" V 8280 7100 50  0000 C CNN
F 1 "1k" V 8200 7100 50  0000 C CNN
F 2 "Resistors_SMD:R_0402" V 8130 7100 50  0001 C CNN
F 3 "" H 8200 7100 50  0000 C CNN
F 4 "TE" V 8200 7100 60  0001 C CNN "manf"
F 5 "CRG0402J1K0" V 8200 7100 60  0001 C CNN "manf#"
	1    8200 7100
	1    0    0    -1  
$EndComp
$Comp
L GND #PWR0205
U 1 1 58028E99
P 7800 7800
F 0 "#PWR0205" H 7800 7550 50  0001 C CNN
F 1 "GND" H 7800 7650 50  0000 C CNN
F 2 "" H 7800 7800 50  0000 C CNN
F 3 "" H 7800 7800 50  0000 C CNN
	1    7800 7800
	1    0    0    -1  
$EndComp
$Comp
L R R26
U 1 1 5802A10F
P 8000 7300
F 0 "R26" V 8080 7300 50  0000 C CNN
F 1 "4.7k" V 8000 7300 50  0000 C CNN
F 2 "Resistors_SMD:R_0402" V 7930 7300 50  0001 C CNN
F 3 "" H 8000 7300 50  0000 C CNN
F 4 "Yageo" V 8000 7300 60  0001 C CNN "manf"
F 5 "RC0402JR-074K7L" V 8000 7300 60  0001 C CNN "manf#"
	1    8000 7300
	0    1    1    0   
$EndComp
$Comp
L R R30
U 1 1 5802F68F
P 7250 7550
F 0 "R30" V 7330 7550 50  0000 C CNN
F 1 "4.7k" V 7250 7550 50  0000 C CNN
F 2 "Resistors_SMD:R_0402" V 7180 7550 50  0001 C CNN
F 3 "" H 7250 7550 50  0000 C CNN
F 4 "Yageo" V 7250 7550 60  0001 C CNN "manf"
F 5 "RC0402JR-074K7L" V 7250 7550 60  0001 C CNN "manf#"
	1    7250 7550
	0    1    1    0   
$EndComp
$Comp
L C C19
U 1 1 580C5BB9
P 3150 1850
F 0 "C19" H 3175 1950 50  0000 L CNN
F 1 "0.1uF" H 3175 1750 50  0000 L CNN
F 2 "Capacitors_SMD:C_0402" H 3188 1700 50  0001 C CNN
F 3 "" H 3150 1850 50  0000 C CNN
F 4 "Murata" H 3150 1850 60  0001 C CNN "manf"
F 5 "GRM155R71C104KA88J" H 3150 1850 60  0001 C CNN "manf#"
	1    3150 1850
	1    0    0    -1  
$EndComp
$Comp
L GND #PWR0206
U 1 1 580C5BBF
P 3150 2050
F 0 "#PWR0206" H 3150 1800 50  0001 C CNN
F 1 "GND" H 3150 1900 50  0000 C CNN
F 2 "" H 3150 2050 50  0000 C CNN
F 3 "" H 3150 2050 50  0000 C CNN
	1    3150 2050
	1    0    0    -1  
$EndComp
$Comp
L C C14
U 1 1 580C643B
P 13000 7400
F 0 "C14" H 13025 7500 50  0000 L CNN
F 1 "0.1uF" H 13025 7300 50  0000 L CNN
F 2 "Capacitors_SMD:C_0402" H 13038 7250 50  0001 C CNN
F 3 "" H 13000 7400 50  0000 C CNN
F 4 "Murata" H 13000 7400 60  0001 C CNN "manf"
F 5 "GRM155R71C104KA88J" H 13000 7400 60  0001 C CNN "manf#"
	1    13000 7400
	1    0    0    -1  
$EndComp
$Comp
L GND #PWR0207
U 1 1 580C65E3
P 13000 7600
F 0 "#PWR0207" H 13000 7350 50  0001 C CNN
F 1 "GND" H 13000 7450 50  0000 C CNN
F 2 "" H 13000 7600 50  0000 C CNN
F 3 "" H 13000 7600 50  0000 C CNN
	1    13000 7600
	1    0    0    -1  
$EndComp
$Comp
L C C16
U 1 1 580C8241
P 3150 4950
F 0 "C16" H 3175 5050 50  0000 L CNN
F 1 "0.1uF" H 3175 4850 50  0000 L CNN
F 2 "Capacitors_SMD:C_0402" H 3188 4800 50  0001 C CNN
F 3 "" H 3150 4950 50  0000 C CNN
F 4 "Murata" H 3150 4950 60  0001 C CNN "manf"
F 5 "GRM155R71C104KA88J" H 3150 4950 60  0001 C CNN "manf#"
	1    3150 4950
	1    0    0    -1  
$EndComp
$Comp
L GND #PWR0208
U 1 1 580C8247
P 3150 5150
F 0 "#PWR0208" H 3150 4900 50  0001 C CNN
F 1 "GND" H 3150 5000 50  0000 C CNN
F 2 "" H 3150 5150 50  0000 C CNN
F 3 "" H 3150 5150 50  0000 C CNN
	1    3150 5150
	1    0    0    -1  
$EndComp
$Comp
L C C18
U 1 1 580C859A
P 3150 8050
F 0 "C18" H 3175 8150 50  0000 L CNN
F 1 "0.1uF" H 3175 7950 50  0000 L CNN
F 2 "Capacitors_SMD:C_0402" H 3188 7900 50  0001 C CNN
F 3 "" H 3150 8050 50  0000 C CNN
F 4 "Murata" H 3150 8050 60  0001 C CNN "manf"
F 5 "GRM155R71C104KA88J" H 3150 8050 60  0001 C CNN "manf#"
	1    3150 8050
	1    0    0    -1  
$EndComp
$Comp
L GND #PWR0209
U 1 1 580C85A0
P 3150 8250
F 0 "#PWR0209" H 3150 8000 50  0001 C CNN
F 1 "GND" H 3150 8100 50  0000 C CNN
F 2 "" H 3150 8250 50  0000 C CNN
F 3 "" H 3150 8250 50  0000 C CNN
	1    3150 8250
	1    0    0    -1  
$EndComp
$Comp
L C C15
U 1 1 580C9151
P 13000 1700
F 0 "C15" H 13025 1800 50  0000 L CNN
F 1 "0.1uF" H 13025 1600 50  0000 L CNN
F 2 "Capacitors_SMD:C_0402" H 13038 1550 50  0001 C CNN
F 3 "" H 13000 1700 50  0000 C CNN
F 4 "Murata" H 13000 1700 60  0001 C CNN "manf"
F 5 "GRM155R71C104KA88J" H 13000 1700 60  0001 C CNN "manf#"
	1    13000 1700
	1    0    0    -1  
$EndComp
$Comp
L GND #PWR0210
U 1 1 580C9157
P 13000 1900
F 0 "#PWR0210" H 13000 1650 50  0001 C CNN
F 1 "GND" H 13000 1750 50  0000 C CNN
F 2 "" H 13000 1900 50  0000 C CNN
F 3 "" H 13000 1900 50  0000 C CNN
	1    13000 1900
	1    0    0    -1  
$EndComp
$Comp
L C C17
U 1 1 580C9B17
P 13000 4550
F 0 "C17" H 13025 4650 50  0000 L CNN
F 1 "0.1uF" H 13025 4450 50  0000 L CNN
F 2 "Capacitors_SMD:C_0402" H 13038 4400 50  0001 C CNN
F 3 "" H 13000 4550 50  0000 C CNN
F 4 "Murata" H 13000 4550 60  0001 C CNN "manf"
F 5 "GRM155R71C104KA88J" H 13000 4550 60  0001 C CNN "manf#"
	1    13000 4550
	1    0    0    -1  
$EndComp
$Comp
L GND #PWR0211
U 1 1 580C9B1D
P 13000 4750
F 0 "#PWR0211" H 13000 4500 50  0001 C CNN
F 1 "GND" H 13000 4600 50  0000 C CNN
F 2 "" H 13000 4750 50  0000 C CNN
F 3 "" H 13000 4750 50  0000 C CNN
	1    13000 4750
	1    0    0    -1  
$EndComp
$Comp
L SN74LVC2T45DCTR_PinSwap U15
U 1 1 580CE153
P 2700 2350
F 0 "U15" H 2750 1850 50  0000 L CNN
F 1 "SN74LVC2T45DCTR_PinSwap" H 2750 1750 50  0000 L CNN
F 2 "NF6X_SO-Packages:SM8" H 2750 1450 50  0001 L CNN
F 3 "" H 2700 2350 50  0000 C CNN
F 4 "TI" H 2750 1650 60  0001 L CNN "manf"
F 5 "SN74LVC2T45DCTR" H 2750 1550 60  0001 L CNN "manf#"
	1    2700 2350
	1    0    0    -1  
$EndComp
$Comp
L SN74LVC2T45DCTR_PinSwap U12
U 1 1 580CEAA7
P 2700 5450
F 0 "U12" H 2750 4950 50  0000 L CNN
F 1 "SN74LVC2T45DCTR_PinSwap" H 2750 4850 50  0000 L CNN
F 2 "NF6X_SO-Packages:SM8" H 2750 4550 50  0001 L CNN
F 3 "" H 2700 5450 50  0000 C CNN
F 4 "TI" H 2750 4750 60  0001 L CNN "manf"
F 5 "SN74LVC2T45DCTR" H 2750 4650 60  0001 L CNN "manf#"
	1    2700 5450
	1    0    0    -1  
$EndComp
$Comp
L SN74LVC2T45DCTR_PinSwap U14
U 1 1 580CF652
P 2700 8550
F 0 "U14" H 2750 8050 50  0000 L CNN
F 1 "SN74LVC2T45DCTR_PinSwap" H 2750 7950 50  0000 L CNN
F 2 "NF6X_SO-Packages:SM8" H 2750 7650 50  0001 L CNN
F 3 "" H 2700 8550 50  0000 C CNN
F 4 "TI" H 2750 7850 60  0001 L CNN "manf"
F 5 "SN74LVC2T45DCTR" H 2750 7750 60  0001 L CNN "manf#"
	1    2700 8550
	1    0    0    -1  
$EndComp
$Comp
L SN74LVC2T45DCTR_PinSwap U11
U 1 1 580D05A3
P 13450 2200
F 0 "U11" H 13650 1700 50  0000 L CNN
F 1 "SN74LVC2T45DCTR_PinSwap" H 12950 1200 50  0000 L CNN
F 2 "NF6X_SO-Packages:SM8" H 13500 1300 50  0001 L CNN
F 3 "" H 13450 2200 50  0000 C CNN
F 4 "TI" H 13500 1500 60  0001 L CNN "manf"
F 5 "SN74LVC2T45DCTR" H 13500 1400 60  0001 L CNN "manf#"
	1    13450 2200
	-1   0    0    -1  
$EndComp
$Comp
L SN74LVC2T45DCTR_PinSwap U13
U 1 1 580D1736
P 13450 5050
F 0 "U13" H 13650 4550 50  0000 L CNN
F 1 "SN74LVC2T45DCTR_PinSwap" H 12950 4050 50  0000 L CNN
F 2 "NF6X_SO-Packages:SM8" H 13500 4150 50  0001 L CNN
F 3 "" H 13450 5050 50  0000 C CNN
F 4 "TI" H 13500 4350 60  0001 L CNN "manf"
F 5 "SN74LVC2T45DCTR" H 13500 4250 60  0001 L CNN "manf#"
	1    13450 5050
	-1   0    0    -1  
$EndComp
$Comp
L SN74LVC2T45DCTR_PinSwap U10
U 1 1 580D1EB2
P 13450 7900
F 0 "U10" H 13650 7400 50  0000 L CNN
F 1 "SN74LVC2T45DCTR_PinSwap" H 12950 6900 50  0000 L CNN
F 2 "NF6X_SO-Packages:SM8" H 13500 7000 50  0001 L CNN
F 3 "" H 13450 7900 50  0000 C CNN
F 4 "TI" H 13500 7200 60  0001 L CNN "manf"
F 5 "SN74LVC2T45DCTR" H 13500 7100 60  0001 L CNN "manf#"
	1    13450 7900
	-1   0    0    -1  
$EndComp
Text Label 8850 3850 0    60   ~ 0
ACLO_L
Text Label 8850 3950 0    60   ~ 0
DS0_L
Text Label 8850 4050 0    60   ~ 0
DS1_L
Text Label 8850 4150 0    60   ~ 0
WG_L
Text Label 8850 4350 0    60   ~ 0
SYSCLK_L
Text Label 8850 4550 0    60   ~ 0
WDATA_L
Text Label 8850 4750 0    60   ~ 0
DRVCMD_H
Text Label 8850 4850 0    60   ~ 0
RDATA_H
Text Label 8850 5050 0    60   ~ 0
STATIN_H
Text Label 8850 5250 0    60   ~ 0
STATCLK_H
Text Label 8850 5450 0    60   ~ 0
SECPLS_H
Text Label 8850 5550 0    60   ~ 0
DRVRDY_H
Text Label 8850 5650 0    60   ~ 0
DRVERR_H
Text Label 7350 3950 0    60   ~ 0
DS0_H
Text Label 7350 4050 0    60   ~ 0
DS1_H
Text Label 7350 4150 0    60   ~ 0
WG_H
Text Label 7350 4350 0    60   ~ 0
SYSCLK_H
Text Label 7350 4550 0    60   ~ 0
WDATA_H
Text Label 7350 4750 0    60   ~ 0
DRVCMD_L
Text Label 7350 4850 0    60   ~ 0
RDATA_L
Text Label 7350 5050 0    60   ~ 0
STATIN_L
Text Label 7350 5250 0    60   ~ 0
STATCLK_L
Text Label 7350 5450 0    60   ~ 0
SECPLS_L
Text Label 7350 5550 0    60   ~ 0
DRVRDY_L
Text Label 7350 5650 0    60   ~ 0
DRVERR_L
Text Label 5350 2100 0    60   ~ 0
DS0_H
Text Label 5400 3150 0    60   ~ 0
DS1_H
Text Label 5400 5200 0    60   ~ 0
WG_H
Text Label 5400 6250 0    60   ~ 0
SYSCLK_H
Text Label 5400 8300 0    60   ~ 0
WDATA_H
Text Label 5400 9850 0    60   ~ 0
DRVCMD_L
Text Label 10750 2450 0    60   ~ 0
RDATA_L
Text Label 10750 3300 0    60   ~ 0
STATIN_L
Text Label 10750 5300 0    60   ~ 0
STATCLK_L
Text Label 10750 6150 0    60   ~ 0
SECPLS_L
Text Label 10750 8150 0    60   ~ 0
DRVRDY_L
Text Label 10750 9000 0    60   ~ 0
DRVERR_L
Text Label 8700 7600 0    60   ~ 0
ACLO_L
Text Label 5350 2600 0    60   ~ 0
DS0_L
Text Label 5400 3650 0    60   ~ 0
DS1_L
Text Label 5400 5700 0    60   ~ 0
WG_L
Text Label 5400 6750 0    60   ~ 0
SYSCLK_L
Text Label 5400 8800 0    60   ~ 0
WDATA_L
Text Label 5400 9350 0    60   ~ 0
DRVCMD_H
Text Label 10750 1950 0    60   ~ 0
RDATA_H
Text Label 10750 2800 0    60   ~ 0
STATIN_H
Text Label 10750 4800 0    60   ~ 0
STATCLK_H
Text Label 10750 5650 0    60   ~ 0
SECPLS_H
Text Label 10750 7650 0    60   ~ 0
DRVRDY_H
Text Label 10750 8500 0    60   ~ 0
DRVERR_H
Text Label 1600 2350 0    60   ~ 0
DS0
Text Label 1600 2450 0    60   ~ 0
DS1
Text Label 1600 5450 0    60   ~ 0
WG
Text Label 1600 5550 0    60   ~ 0
SYSCLK
Text Label 1600 8550 0    60   ~ 0
WDATA
Text Label 1600 8650 0    60   ~ 0
DRVCMD
Text Label 14150 2200 0    60   ~ 0
RDATA
Text Label 14150 2300 0    60   ~ 0
STATIN
Text Label 14150 5050 0    60   ~ 0
STATCLK
Text Label 14150 5150 0    60   ~ 0
SECPLS
Text Label 14150 7900 0    60   ~ 0
DRVRDY
Text Label 14150 8000 0    60   ~ 0
DRVERR
Text Label 6800 7550 0    60   ~ 0
ACLO
Text Notes 7200 1150 0    100  ~ 0
RL02 Drive Bus: 5V Differential
Text Notes 7900 10250 0    100  ~ 0
3.3V Logic Level
Text Notes 7400 3550 0    100  ~ 0
To RL02 Logic Card J12
Text Label 9750 8000 0    60   ~ 0
DS0
Text Label 9750 8100 0    60   ~ 0
DS1
Text Label 9750 8200 0    60   ~ 0
WG
Text Label 9750 8300 0    60   ~ 0
SYSCLK
Text Label 9750 8400 0    60   ~ 0
WDATA
Text Label 9750 8500 0    60   ~ 0
DRVCMD
Text Label 9750 7900 0    60   ~ 0
ACLO
Text Label 9750 8600 0    60   ~ 0
RDATA
Text Label 9750 8700 0    60   ~ 0
STATIN
Text Label 9750 8800 0    60   ~ 0
STATCLK
Text Label 9750 8900 0    60   ~ 0
SECPLS
Text Label 9750 9000 0    60   ~ 0
DRVRDY
Text Label 9750 9100 0    60   ~ 0
DRVERR
Text HLabel 9650 7900 0    60   Input ~ 0
ACLO
Text HLabel 9650 8000 0    60   Input ~ 0
DS0
Text HLabel 9650 8100 0    60   Input ~ 0
DS1
Text HLabel 9650 8200 0    60   Input ~ 0
WG
Text HLabel 9650 8300 0    60   Input ~ 0
SYSCLK
Text HLabel 9650 8400 0    60   Input ~ 0
WDATA
Text HLabel 9650 8500 0    60   Input ~ 0
DRVCMD
Text HLabel 9650 8600 0    60   Output ~ 0
RDATA
Text HLabel 9650 8700 0    60   Output ~ 0
STATIN
Text HLabel 9650 8800 0    60   Output ~ 0
STATCLK
Text HLabel 9650 8900 0    60   Output ~ 0
SECPLS
Text HLabel 9650 9000 0    60   Output ~ 0
DRVRDY
Text HLabel 9650 9100 0    60   Output ~ 0
DRVERR
Wire Wire Line
	7950 3850 7950 5850
Wire Wire Line
	7950 3850 8050 3850
Wire Wire Line
	8050 4250 7950 4250
Wire Wire Line
	8050 4450 7950 4450
Wire Wire Line
	8050 4650 7950 4650
Wire Wire Line
	8050 4950 7950 4950
Wire Wire Line
	8050 5150 7950 5150
Wire Wire Line
	8050 5350 7950 5350
Wire Wire Line
	8050 5750 7950 5750
Wire Wire Line
	8650 4250 8750 4250
Wire Wire Line
	8750 4250 8750 5850
Wire Wire Line
	8650 4450 8750 4450
Wire Wire Line
	8650 4650 8750 4650
Wire Wire Line
	8650 4950 8750 4950
Wire Wire Line
	8650 5150 8750 5150
Wire Wire Line
	8650 5350 8750 5350
Wire Wire Line
	8650 5750 8750 5750
Wire Wire Line
	8650 5250 9450 5250
Wire Wire Line
	8650 5450 9450 5450
Wire Wire Line
	8650 5550 9450 5550
Wire Wire Line
	8650 5650 9450 5650
Wire Wire Line
	8650 5050 9450 5050
Wire Wire Line
	8650 4850 9450 4850
Wire Wire Line
	8650 4750 9450 4750
Wire Wire Line
	8650 4550 9450 4550
Wire Wire Line
	8650 4350 9450 4350
Wire Wire Line
	8650 4150 9450 4150
Wire Wire Line
	8650 4050 9450 4050
Wire Wire Line
	8650 3950 9450 3950
Wire Wire Line
	8650 3850 9450 3850
Wire Wire Line
	8050 5650 7250 5650
Wire Wire Line
	8050 5550 7250 5550
Wire Wire Line
	8050 5450 7250 5450
Wire Wire Line
	8050 5250 7250 5250
Wire Wire Line
	8050 5050 7250 5050
Wire Wire Line
	8050 4850 7250 4850
Wire Wire Line
	8050 4750 7250 4750
Wire Wire Line
	8050 4550 7250 4550
Wire Wire Line
	8050 4350 7250 4350
Wire Wire Line
	8050 4150 7250 4150
Wire Wire Line
	8050 4050 7250 4050
Wire Wire Line
	8050 3950 7250 3950
Wire Wire Line
	5000 2450 4900 2450
Wire Wire Line
	5300 2250 5400 2250
Wire Wire Line
	4750 2100 5850 2100
Wire Wire Line
	4750 2600 5850 2600
Wire Wire Line
	5000 2250 5000 2100
Wire Wire Line
	5300 2450 5300 2600
Wire Wire Line
	5000 3500 4900 3500
Wire Wire Line
	5300 3300 5400 3300
Wire Wire Line
	4750 3150 5850 3150
Wire Wire Line
	4750 3650 5850 3650
Wire Wire Line
	5000 3300 5000 3150
Wire Wire Line
	5300 3500 5300 3650
Wire Wire Line
	4350 1700 4350 1650
Wire Wire Line
	3450 1050 3450 1150
Wire Wire Line
	2850 1100 3950 1100
Wire Wire Line
	3750 1150 3750 1100
Wire Wire Line
	3450 1500 3450 1450
Wire Wire Line
	3750 1450 3750 3700
Wire Wire Line
	3950 1250 3950 1550
Wire Wire Line
	3950 1550 3750 1550
Wire Wire Line
	2850 1800 2850 1100
Wire Wire Line
	1850 1600 1850 1700
Wire Wire Line
	1850 2000 1850 2050
Wire Wire Line
	2200 2650 2150 2650
Wire Wire Line
	2150 2650 2150 1650
Wire Wire Line
	1850 1650 2550 1650
Wire Wire Line
	2550 1650 2550 1800
Wire Wire Line
	2200 2350 1500 2350
Wire Wire Line
	2200 2450 1500 2450
Wire Wire Line
	5000 5550 4900 5550
Wire Wire Line
	5300 5350 5400 5350
Wire Wire Line
	4750 5200 5850 5200
Wire Wire Line
	4750 5700 5850 5700
Wire Wire Line
	5000 5350 5000 5200
Wire Wire Line
	5300 5550 5300 5700
Wire Wire Line
	5000 6600 4900 6600
Wire Wire Line
	5300 6400 5400 6400
Wire Wire Line
	4750 6250 5850 6250
Wire Wire Line
	4750 6750 5850 6750
Wire Wire Line
	5000 6400 5000 6250
Wire Wire Line
	5300 6600 5300 6750
Wire Wire Line
	4350 4800 4350 4750
Wire Wire Line
	3450 4150 3450 4250
Wire Wire Line
	2850 4200 3950 4200
Wire Wire Line
	3750 4250 3750 4200
Wire Wire Line
	3450 4600 3450 4550
Wire Wire Line
	3750 4550 3750 6800
Wire Wire Line
	3950 4350 3950 4650
Wire Wire Line
	3950 4650 3750 4650
Wire Wire Line
	2850 4900 2850 4200
Wire Wire Line
	1850 4700 1850 4800
Wire Wire Line
	1850 5100 1850 5150
Wire Wire Line
	2200 5750 2150 5750
Wire Wire Line
	2150 5750 2150 4750
Wire Wire Line
	1850 4750 2550 4750
Wire Wire Line
	2550 4750 2550 4900
Wire Wire Line
	3200 5450 3950 5450
Wire Wire Line
	3200 5550 3550 5550
Wire Wire Line
	3550 5550 3550 6400
Wire Wire Line
	3550 6400 3950 6400
Wire Wire Line
	2200 5450 1500 5450
Wire Wire Line
	2200 5550 1500 5550
Wire Wire Line
	5000 8650 4900 8650
Wire Wire Line
	5300 8450 5400 8450
Wire Wire Line
	4750 8300 5850 8300
Wire Wire Line
	4750 8800 5850 8800
Wire Wire Line
	5000 8450 5000 8300
Wire Wire Line
	5300 8650 5300 8800
Wire Wire Line
	5000 9700 4900 9700
Wire Wire Line
	5300 9500 5400 9500
Wire Wire Line
	4750 9350 5850 9350
Wire Wire Line
	4750 9850 5850 9850
Wire Wire Line
	5000 9500 5000 9350
Wire Wire Line
	5300 9700 5300 9850
Wire Wire Line
	4350 7900 4350 7850
Wire Wire Line
	3450 7250 3450 7350
Wire Wire Line
	2850 7300 3950 7300
Wire Wire Line
	3750 7350 3750 7300
Wire Wire Line
	3450 7700 3450 7650
Wire Wire Line
	3950 7450 3950 7750
Wire Wire Line
	3950 7750 3750 7750
Wire Wire Line
	2850 8000 2850 7300
Wire Wire Line
	1850 7800 1850 7900
Wire Wire Line
	1850 8200 1850 8250
Wire Wire Line
	2200 8850 2150 8850
Wire Wire Line
	2150 8850 2150 7850
Wire Wire Line
	1850 7850 2550 7850
Wire Wire Line
	2550 7850 2550 8000
Wire Wire Line
	3200 8550 3950 8550
Wire Wire Line
	3200 8650 3550 8650
Wire Wire Line
	3550 8650 3550 9500
Wire Wire Line
	3550 9500 3950 9500
Wire Wire Line
	2200 8550 1500 8550
Wire Wire Line
	2200 8650 1500 8650
Wire Wire Line
	11500 2100 11700 2100
Wire Wire Line
	11500 2300 11700 2300
Wire Wire Line
	11200 2300 10900 2300
Wire Wire Line
	11200 2100 11100 2100
Wire Wire Line
	11550 2100 11550 1950
Wire Wire Line
	11550 1950 10700 1950
Wire Wire Line
	11550 2300 11550 2450
Wire Wire Line
	11550 2450 10700 2450
Wire Wire Line
	11500 2950 11700 2950
Wire Wire Line
	11500 3150 11700 3150
Wire Wire Line
	11200 3150 10900 3150
Wire Wire Line
	11200 2950 11100 2950
Wire Wire Line
	11550 2950 11550 2800
Wire Wire Line
	11550 2800 10700 2800
Wire Wire Line
	11550 3150 11550 3300
Wire Wire Line
	11550 3300 10700 3300
Wire Wire Line
	12100 1450 12100 1400
Wire Wire Line
	11150 1600 11150 1550
Wire Wire Line
	10850 1600 10850 1550
Wire Wire Line
	11150 1100 11150 1250
Wire Wire Line
	11150 1150 11700 1150
Wire Wire Line
	11700 850  10850 850 
Wire Wire Line
	10850 800  10850 1250
Wire Wire Line
	11450 1250 11450 850 
Wire Wire Line
	11700 1000 11650 1000
Wire Wire Line
	11650 1000 11650 3350
Wire Wire Line
	11650 3350 11700 3350
Wire Wire Line
	11700 2500 11650 2500
Wire Wire Line
	11450 1550 11450 1650
Wire Wire Line
	11450 1650 11650 1650
Wire Wire Line
	13450 2850 13450 2950
Wire Wire Line
	12950 2200 12500 2200
Wire Wire Line
	13600 1650 13600 1450
Wire Wire Line
	13600 1450 14000 1450
Wire Wire Line
	14000 1350 14000 1550
Wire Wire Line
	13300 1350 13300 1650
Wire Wire Line
	12500 3050 12650 3050
Wire Wire Line
	12650 3050 12650 2300
Wire Wire Line
	12650 2300 12950 2300
Wire Wire Line
	13950 2200 14850 2200
Wire Wire Line
	13950 2300 14850 2300
Wire Wire Line
	11500 4950 11700 4950
Wire Wire Line
	11500 5150 11700 5150
Wire Wire Line
	11200 5150 10900 5150
Wire Wire Line
	11200 4950 11100 4950
Wire Wire Line
	11550 4950 11550 4800
Wire Wire Line
	11550 4800 10700 4800
Wire Wire Line
	11550 5150 11550 5300
Wire Wire Line
	11550 5300 10700 5300
Wire Wire Line
	11500 5800 11700 5800
Wire Wire Line
	11500 6000 11700 6000
Wire Wire Line
	11200 6000 10900 6000
Wire Wire Line
	11200 5800 11100 5800
Wire Wire Line
	11550 5800 11550 5650
Wire Wire Line
	11550 5650 10700 5650
Wire Wire Line
	11550 6000 11550 6150
Wire Wire Line
	11550 6150 10700 6150
Wire Wire Line
	12100 4300 12100 4250
Wire Wire Line
	11150 4450 11150 4400
Wire Wire Line
	10850 4450 10850 4400
Wire Wire Line
	11150 3950 11150 4100
Wire Wire Line
	11150 4000 11700 4000
Wire Wire Line
	11700 3700 10850 3700
Wire Wire Line
	10850 3650 10850 4100
Wire Wire Line
	11450 4100 11450 3700
Wire Wire Line
	11700 3850 11650 3850
Wire Wire Line
	11650 3850 11650 6200
Wire Wire Line
	11650 6200 11700 6200
Wire Wire Line
	11700 5350 11650 5350
Wire Wire Line
	11450 4400 11450 4500
Wire Wire Line
	11450 4500 11650 4500
Wire Wire Line
	13450 5700 13450 5800
Wire Wire Line
	12950 5050 12500 5050
Wire Wire Line
	13600 4500 13600 4300
Wire Wire Line
	13600 4300 14000 4300
Wire Wire Line
	14000 4200 14000 4400
Wire Wire Line
	13300 4200 13300 4500
Wire Wire Line
	12500 5900 12650 5900
Wire Wire Line
	12650 5900 12650 5150
Wire Wire Line
	12650 5150 12950 5150
Wire Wire Line
	13950 5050 14850 5050
Wire Wire Line
	13950 5150 14850 5150
Wire Wire Line
	11500 7800 11700 7800
Wire Wire Line
	11500 8000 11700 8000
Wire Wire Line
	11200 8000 10900 8000
Wire Wire Line
	11200 7800 11100 7800
Wire Wire Line
	11550 7800 11550 7650
Wire Wire Line
	11550 7650 10700 7650
Wire Wire Line
	11550 8000 11550 8150
Wire Wire Line
	11550 8150 10700 8150
Wire Wire Line
	11500 8650 11700 8650
Wire Wire Line
	11500 8850 11700 8850
Wire Wire Line
	11200 8850 10900 8850
Wire Wire Line
	11200 8650 11100 8650
Wire Wire Line
	11550 8650 11550 8500
Wire Wire Line
	11550 8500 10700 8500
Wire Wire Line
	11550 8850 11550 9000
Wire Wire Line
	11550 9000 10700 9000
Wire Wire Line
	12100 7150 12100 7100
Wire Wire Line
	11150 7300 11150 7250
Wire Wire Line
	10850 7300 10850 7250
Wire Wire Line
	11150 6800 11150 6950
Wire Wire Line
	11150 6850 11700 6850
Wire Wire Line
	11700 6550 10850 6550
Wire Wire Line
	10850 6500 10850 6950
Wire Wire Line
	11450 6950 11450 6550
Wire Wire Line
	11700 6700 11650 6700
Wire Wire Line
	11650 6700 11650 9050
Wire Wire Line
	11650 9050 11700 9050
Wire Wire Line
	11700 8200 11650 8200
Wire Wire Line
	11450 7250 11450 7350
Wire Wire Line
	11450 7350 11650 7350
Wire Wire Line
	13450 8550 13450 8650
Wire Wire Line
	12950 7900 12500 7900
Wire Wire Line
	13600 7350 13600 7150
Wire Wire Line
	13600 7150 14000 7150
Wire Wire Line
	14000 7050 14000 7250
Wire Wire Line
	13300 7050 13300 7350
Wire Wire Line
	12500 8750 12650 8750
Wire Wire Line
	12650 8750 12650 8000
Wire Wire Line
	12650 8000 12950 8000
Wire Wire Line
	13950 7900 14850 7900
Wire Wire Line
	13950 8000 14850 8000
Wire Wire Line
	2700 3050 2700 3000
Wire Wire Line
	2700 6150 2700 6100
Wire Wire Line
	2700 9250 2700 9200
Wire Wire Line
	8550 6850 8550 7100
Wire Wire Line
	8200 6950 8200 6900
Wire Wire Line
	8200 6900 8550 6900
Wire Wire Line
	7800 7800 7800 7750
Wire Wire Line
	8550 7500 8550 7600
Wire Wire Line
	8550 7600 9450 7600
Wire Wire Line
	7800 7350 7800 7300
Wire Wire Line
	7800 7300 7850 7300
Wire Wire Line
	8150 7300 8250 7300
Wire Wire Line
	8200 7250 8200 7300
Wire Bus Line
	5950 10000 5950 1200
Wire Bus Line
	5950 1200 10600 1200
Wire Bus Line
	10600 1200 10600 9250
Wire Bus Line
	7150 5700 7150 3400
Wire Bus Line
	7150 3400 5950 3400
Wire Bus Line
	9550 3400 9550 7800
Wire Bus Line
	9550 3400 10600 3400
Wire Bus Line
	1400 2000 1400 10300
Wire Bus Line
	1400 10300 11700 10300
Wire Bus Line
	11700 10300 11700 9200
Wire Bus Line
	11700 9200 14950 9200
Wire Bus Line
	14950 9200 14950 1950
Wire Wire Line
	7400 7550 7500 7550
Wire Wire Line
	7100 7550 6700 7550
Wire Bus Line
	6600 7350 6600 10300
Wire Wire Line
	10500 7900 9650 7900
Wire Wire Line
	10500 8000 9650 8000
Wire Wire Line
	10500 8100 9650 8100
Wire Wire Line
	10500 8200 9650 8200
Wire Wire Line
	10500 8300 9650 8300
Wire Wire Line
	10500 8400 9650 8400
Wire Wire Line
	10500 8500 9650 8500
Wire Wire Line
	10500 8600 9650 8600
Wire Wire Line
	10500 8700 9650 8700
Wire Wire Line
	10500 8800 9650 8800
Wire Wire Line
	10500 8900 9650 8900
Wire Wire Line
	10500 9000 9650 9000
Wire Wire Line
	10500 9100 9650 9100
Wire Wire Line
	14000 1850 14000 1900
Wire Wire Line
	14000 4700 14000 4750
Wire Wire Line
	14000 7550 14000 7600
Wire Wire Line
	3200 2450 3550 2450
Wire Wire Line
	3200 2350 3950 2350
Wire Wire Line
	3550 2450 3550 3300
Wire Wire Line
	3550 3300 3950 3300
Wire Wire Line
	3750 3700 3950 3700
Wire Wire Line
	3950 3500 3750 3500
Wire Wire Line
	3950 2650 3750 2650
Wire Wire Line
	3950 5750 3750 5750
Wire Wire Line
	3750 6800 3950 6800
Wire Wire Line
	3950 6600 3750 6600
Wire Wire Line
	3750 7650 3750 9900
Wire Wire Line
	3950 8850 3750 8850
Wire Wire Line
	3750 9900 3950 9900
Wire Wire Line
	3950 9700 3750 9700
Wire Wire Line
	13950 2500 13950 2900
Wire Wire Line
	13950 2900 13450 2900
Wire Wire Line
	13950 5350 13950 5750
Wire Wire Line
	13950 5750 13450 5750
Wire Wire Line
	13950 8200 13950 8600
Wire Wire Line
	13950 8600 13450 8600
Wire Wire Line
	3150 2000 3150 2050
Wire Wire Line
	3150 1700 3150 1650
Wire Wire Line
	3150 1650 2850 1650
Wire Wire Line
	13000 7600 13000 7550
Wire Wire Line
	3150 5150 3150 5100
Wire Wire Line
	3150 8250 3150 8200
Wire Wire Line
	3150 7900 3150 7850
Wire Wire Line
	3150 7850 2850 7850
Wire Wire Line
	3150 4800 3150 4750
Wire Wire Line
	3150 4750 2850 4750
Wire Wire Line
	13000 1900 13000 1850
Wire Wire Line
	13000 1550 13000 1450
Wire Wire Line
	13000 1450 13300 1450
Wire Wire Line
	13000 4750 13000 4700
Wire Wire Line
	13000 4400 13000 4300
Wire Wire Line
	13000 4300 13300 4300
Wire Wire Line
	13000 7250 13000 7150
Wire Wire Line
	13000 7150 13300 7150
Entry Wire Line
	9450 3850 9550 3950
Entry Wire Line
	9450 3950 9550 4050
Entry Wire Line
	9450 4050 9550 4150
Entry Wire Line
	9450 4150 9550 4250
Entry Wire Line
	9450 4350 9550 4450
Entry Wire Line
	9450 4550 9550 4650
Entry Wire Line
	9450 4750 9550 4850
Entry Wire Line
	9450 4850 9550 4950
Entry Wire Line
	9450 5050 9550 5150
Entry Wire Line
	9450 5250 9550 5350
Entry Wire Line
	9450 5450 9550 5550
Entry Wire Line
	9450 5550 9550 5650
Entry Wire Line
	9450 5650 9550 5750
Entry Wire Line
	7150 5550 7250 5650
Entry Wire Line
	7150 5450 7250 5550
Entry Wire Line
	7150 5150 7250 5250
Entry Wire Line
	7150 4950 7250 5050
Entry Wire Line
	7150 3850 7250 3950
Entry Wire Line
	7150 3950 7250 4050
Entry Wire Line
	7150 4050 7250 4150
Entry Wire Line
	7150 4250 7250 4350
Entry Wire Line
	7150 4450 7250 4550
Entry Wire Line
	7150 4650 7250 4750
Entry Wire Line
	7150 4750 7250 4850
Entry Wire Line
	7150 5350 7250 5450
Entry Wire Line
	5850 2100 5950 2200
Entry Wire Line
	5850 2600 5950 2700
Entry Wire Line
	5850 3150 5950 3250
Entry Wire Line
	5850 3650 5950 3750
Entry Wire Line
	1400 2250 1500 2350
Entry Wire Line
	1400 2350 1500 2450
Entry Wire Line
	5850 5200 5950 5300
Entry Wire Line
	5850 5700 5950 5800
Entry Wire Line
	5850 6250 5950 6350
Entry Wire Line
	5850 6750 5950 6850
Entry Wire Line
	1400 5350 1500 5450
Entry Wire Line
	1400 5450 1500 5550
Entry Wire Line
	5850 8300 5950 8400
Entry Wire Line
	5850 8800 5950 8900
Entry Wire Line
	5850 9350 5950 9450
Entry Wire Line
	5850 9850 5950 9950
Entry Wire Line
	1400 8450 1500 8550
Entry Wire Line
	1400 8550 1500 8650
Entry Wire Line
	10600 1850 10700 1950
Entry Wire Line
	10600 2350 10700 2450
Entry Wire Line
	10600 2700 10700 2800
Entry Wire Line
	10600 3200 10700 3300
Entry Wire Line
	14850 2200 14950 2300
Entry Wire Line
	14850 2300 14950 2400
Entry Wire Line
	10600 4700 10700 4800
Entry Wire Line
	10600 5200 10700 5300
Entry Wire Line
	10600 5550 10700 5650
Entry Wire Line
	10600 6050 10700 6150
Entry Wire Line
	14850 5050 14950 5150
Entry Wire Line
	14850 5150 14950 5250
Entry Wire Line
	10600 7550 10700 7650
Entry Wire Line
	10600 8050 10700 8150
Entry Wire Line
	10600 8400 10700 8500
Entry Wire Line
	10600 8900 10700 9000
Entry Wire Line
	14850 7900 14950 8000
Entry Wire Line
	14850 8000 14950 8100
Entry Wire Line
	9450 7600 9550 7700
Entry Wire Line
	6600 7450 6700 7550
Entry Wire Line
	10500 7900 10600 8000
Entry Wire Line
	10500 8000 10600 8100
Entry Wire Line
	10500 8100 10600 8200
Entry Wire Line
	10500 8200 10600 8300
Entry Wire Line
	10500 8300 10600 8400
Entry Wire Line
	10500 8400 10600 8500
Entry Wire Line
	10500 8500 10600 8600
Entry Wire Line
	10500 8600 10600 8700
Entry Wire Line
	10500 8700 10600 8800
Entry Wire Line
	10500 8800 10600 8900
Entry Wire Line
	10500 8900 10600 9000
Entry Wire Line
	10500 9000 10600 9100
Entry Wire Line
	10500 9100 10600 9200
Connection ~ 7950 4250
Connection ~ 7950 4450
Connection ~ 7950 4650
Connection ~ 7950 4950
Connection ~ 7950 5150
Connection ~ 7950 5350
Connection ~ 7950 5750
Connection ~ 8750 4450
Connection ~ 8750 4650
Connection ~ 8750 4950
Connection ~ 8750 5150
Connection ~ 8750 5350
Connection ~ 8750 5750
Connection ~ 5000 2100
Connection ~ 5300 2600
Connection ~ 5000 3150
Connection ~ 5300 3650
Connection ~ 3450 1100
Connection ~ 3750 1100
Connection ~ 3750 1550
Connection ~ 1850 1650
Connection ~ 2150 1650
Connection ~ 5000 5200
Connection ~ 5300 5700
Connection ~ 5000 6250
Connection ~ 5300 6750
Connection ~ 3450 4200
Connection ~ 3750 4200
Connection ~ 3750 4650
Connection ~ 1850 4750
Connection ~ 2150 4750
Connection ~ 5000 8300
Connection ~ 5300 8800
Connection ~ 5000 9350
Connection ~ 5300 9850
Connection ~ 3450 7300
Connection ~ 3750 7300
Connection ~ 3750 7750
Connection ~ 1850 7850
Connection ~ 2150 7850
Connection ~ 11550 2100
Connection ~ 11550 2300
Connection ~ 11550 2950
Connection ~ 11550 3150
Connection ~ 10850 850 
Connection ~ 11150 1150
Connection ~ 11450 850 
Connection ~ 11650 2500
Connection ~ 11650 1650
Connection ~ 14000 1450
Connection ~ 11550 4950
Connection ~ 11550 5150
Connection ~ 11550 5800
Connection ~ 11550 6000
Connection ~ 10850 3700
Connection ~ 11150 4000
Connection ~ 11450 3700
Connection ~ 11650 5350
Connection ~ 11650 4500
Connection ~ 14000 4300
Connection ~ 11550 7800
Connection ~ 11550 8000
Connection ~ 11550 8650
Connection ~ 11550 8850
Connection ~ 10850 6550
Connection ~ 11150 6850
Connection ~ 11450 6550
Connection ~ 11650 8200
Connection ~ 11650 7350
Connection ~ 14000 7150
Connection ~ 13300 7150
Connection ~ 8550 6900
Connection ~ 8200 7300
Connection ~ 3750 3500
Connection ~ 3750 2650
Connection ~ 3750 5750
Connection ~ 3750 6600
Connection ~ 3750 8850
Connection ~ 3750 9700
Connection ~ 13450 2900
Connection ~ 13450 5750
Connection ~ 13450 8600
Connection ~ 2850 1650
Connection ~ 2850 7850
Connection ~ 2850 4750
Connection ~ 13300 1450
Connection ~ 13300 4300
NoConn ~ 4750 2450
NoConn ~ 4750 2250
NoConn ~ 4750 3500
NoConn ~ 4750 3300
NoConn ~ 4750 5550
NoConn ~ 4750 5350
NoConn ~ 4750 6600
NoConn ~ 4750 6400
NoConn ~ 4750 8650
NoConn ~ 4750 8450
NoConn ~ 4750 9700
NoConn ~ 4750 9500
$EndSCHEMATC
