EESchema Schematic File Version 2
LIBS:Audio
LIBS:Battery
LIBS:Connectors
LIBS:Displays
LIBS:ESD
LIBS:Interface
LIBS:LEDs
LIBS:LightBlueBean
LIBS:Logic
LIBS:Memory
LIBS:PIC12F
LIBS:PIC16F
LIBS:PIC18F
LIBS:Potentiometers
LIBS:Power
LIBS:PMIC
LIBS:RLC
LIBS:RTC
LIBS:STM32F
LIBS:Switches
LIBS:Tag-Connect
LIBS:Transistors
LIBS:Xilinx
LIBS:power
LIBS:device
LIBS:transistors
LIBS:conn
LIBS:linear
LIBS:regul
LIBS:74xx
LIBS:cmos4000
LIBS:adc-dac
LIBS:memory
LIBS:xilinx
LIBS:microcontrollers
LIBS:dsp
LIBS:microchip
LIBS:analog_switches
LIBS:motorola
LIBS:texas
LIBS:intel
LIBS:audio
LIBS:interface
LIBS:digital-audio
LIBS:philips
LIBS:display
LIBS:cypress
LIBS:siliconi
LIBS:opto
LIBS:atmel
LIBS:contrib
LIBS:valves
LIBS:RL02-USB-controller-cache
EELAYER 25 0
EELAYER END
$Descr B 17000 11000
encoding utf-8
Sheet 4 5
Title "RL02-USB Controller"
Date "2016-10-23"
Rev "v1.0"
Comp "Mark J. Blair <nf6x@nf6x.net>"
Comment1 "https://github.com/NF6X/RL02-USB"
Comment2 ""
Comment3 ""
Comment4 ""
$EndDescr
$Comp
L Xilinx-JTAG-Through-RA J2
U 1 1 57FBF99E
P 6700 9300
F 0 "J2" H 6700 9700 60  0000 C CNN
F 1 "Xilinx-JTAG-Through-RA" H 6700 8900 60  0001 C CNN
F 2 "NF6X_Connectors:Molex_87833-1420" H 6700 8800 60  0001 C CNN
F 3 "" H 6750 9350 60  0001 C CNN
F 4 "Molex" H 6700 8700 60  0001 C CNN "manf"
F 5 "87833-1420" H 6700 8600 60  0001 C CNN "manf#"
	1    6700 9300
	1    0    0    -1  
$EndComp
$Comp
L M25P40-VMN6TPBTR U16
U 1 1 57FBF9D4
P 11000 7750
F 0 "U16" H 11450 7950 60  0000 C CNN
F 1 "M25P40-VMN6TPBTR" H 11450 7850 60  0000 C CNN
F 2 "SMD_Packages:SOIC-8-N" H 11450 7150 60  0001 C CNN
F 3 "" H 11000 7750 60  0001 C CNN
F 4 "Numonyx" H 11450 7350 60  0001 C CNN "manf"
F 5 "M25P40-VMN6TPBTR" H 11450 7250 60  0001 C CNN "manf#"
	1    11000 7750
	1    0    0    -1  
$EndComp
$Comp
L +3V3 #PWR080
U 1 1 5802867F
P 1300 1000
F 0 "#PWR080" H 1300 850 50  0001 C CNN
F 1 "+3V3" H 1300 1140 50  0000 C CNN
F 2 "" H 1300 1000 50  0000 C CNN
F 3 "" H 1300 1000 50  0000 C CNN
	1    1300 1000
	1    0    0    -1  
$EndComp
$Comp
L C C34
U 1 1 58028690
P 1300 1250
F 0 "C34" H 1325 1350 50  0000 L CNN
F 1 "0.1uF" H 1325 1150 50  0000 L CNN
F 2 "Capacitors_SMD:C_0402" H 1338 1100 50  0001 C CNN
F 3 "" H 1300 1250 50  0000 C CNN
F 4 "Murata" H 1300 1250 60  0001 C CNN "manf"
F 5 "GRM155R71C104KA88J" H 1300 1250 60  0001 C CNN "manf#"
	1    1300 1250
	1    0    0    -1  
$EndComp
$Comp
L GND #PWR081
U 1 1 58028697
P 1300 1450
F 0 "#PWR081" H 1300 1200 50  0001 C CNN
F 1 "GND" H 1300 1300 50  0000 C CNN
F 2 "" H 1300 1450 50  0000 C CNN
F 3 "" H 1300 1450 50  0000 C CNN
	1    1300 1450
	1    0    0    -1  
$EndComp
$Comp
L GND #PWR082
U 1 1 5804A170
P 6150 9700
F 0 "#PWR082" H 6150 9450 50  0001 C CNN
F 1 "GND" H 6150 9550 50  0000 C CNN
F 2 "" H 6150 9700 50  0000 C CNN
F 3 "" H 6150 9700 50  0000 C CNN
	1    6150 9700
	1    0    0    -1  
$EndComp
$Comp
L +3V3 #PWR083
U 1 1 5804A36A
P 7250 8900
F 0 "#PWR083" H 7250 8750 50  0001 C CNN
F 1 "+3V3" H 7250 9040 50  0000 C CNN
F 2 "" H 7250 8900 50  0000 C CNN
F 3 "" H 7250 8900 50  0000 C CNN
	1    7250 8900
	1    0    0    -1  
$EndComp
$Comp
L +3V3 #PWR084
U 1 1 5804AA03
P 12150 7500
F 0 "#PWR084" H 12150 7350 50  0001 C CNN
F 1 "+3V3" H 12150 7640 50  0000 C CNN
F 2 "" H 12150 7500 50  0000 C CNN
F 3 "" H 12150 7500 50  0000 C CNN
	1    12150 7500
	1    0    0    -1  
$EndComp
$Comp
L GND #PWR085
U 1 1 5804AAA6
P 10900 8150
F 0 "#PWR085" H 10900 7900 50  0001 C CNN
F 1 "GND" H 10900 8000 50  0000 C CNN
F 2 "" H 10900 8150 50  0000 C CNN
F 3 "" H 10900 8150 50  0000 C CNN
	1    10900 8150
	1    0    0    -1  
$EndComp
$Comp
L +3V3 #PWR086
U 1 1 5804AD10
P 8050 8550
F 0 "#PWR086" H 8050 8400 50  0001 C CNN
F 1 "+3V3" H 8050 8690 50  0000 C CNN
F 2 "" H 8050 8550 50  0000 C CNN
F 3 "" H 8050 8550 50  0000 C CNN
	1    8050 8550
	1    0    0    -1  
$EndComp
$Comp
L GND #PWR087
U 1 1 5804AD6B
P 8100 9600
F 0 "#PWR087" H 8100 9350 50  0001 C CNN
F 1 "GND" H 8100 9450 50  0000 C CNN
F 2 "" H 8100 9600 50  0000 C CNN
F 3 "" H 8100 9600 50  0000 C CNN
	1    8100 9600
	1    0    0    -1  
$EndComp
$Comp
L +1V2 #PWR088
U 1 1 5804C065
P 7750 8550
F 0 "#PWR088" H 7750 8400 50  0001 C CNN
F 1 "+1V2" H 7750 8690 50  0000 C CNN
F 2 "" H 7750 8550 50  0000 C CNN
F 3 "" H 7750 8550 50  0000 C CNN
	1    7750 8550
	1    0    0    -1  
$EndComp
$Comp
L +3V3 #PWR089
U 1 1 5804C51F
P 12750 3350
F 0 "#PWR089" H 12750 3200 50  0001 C CNN
F 1 "+3V3" H 12750 3490 50  0000 C CNN
F 2 "" H 12750 3350 50  0000 C CNN
F 3 "" H 12750 3350 50  0000 C CNN
	1    12750 3350
	1    0    0    -1  
$EndComp
$Comp
L +3V3 #PWR090
U 1 1 5804C5D2
P 9250 3350
F 0 "#PWR090" H 9250 3200 50  0001 C CNN
F 1 "+3V3" H 9250 3490 50  0000 C CNN
F 2 "" H 9250 3350 50  0000 C CNN
F 3 "" H 9250 3350 50  0000 C CNN
	1    9250 3350
	1    0    0    -1  
$EndComp
$Comp
L +3V3 #PWR091
U 1 1 5804C5F5
P 5850 3350
F 0 "#PWR091" H 5850 3200 50  0001 C CNN
F 1 "+3V3" H 5850 3490 50  0000 C CNN
F 2 "" H 5850 3350 50  0000 C CNN
F 3 "" H 5850 3350 50  0000 C CNN
	1    5850 3350
	1    0    0    -1  
$EndComp
$Comp
L +3V3 #PWR092
U 1 1 5804C660
P 2800 3350
F 0 "#PWR092" H 2800 3200 50  0001 C CNN
F 1 "+3V3" H 2800 3490 50  0000 C CNN
F 2 "" H 2800 3350 50  0000 C CNN
F 3 "" H 2800 3350 50  0000 C CNN
	1    2800 3350
	1    0    0    -1  
$EndComp
$Comp
L GND #PWR093
U 1 1 5804E745
P 9150 6450
F 0 "#PWR093" H 9150 6200 50  0001 C CNN
F 1 "GND" H 9150 6300 50  0000 C CNN
F 2 "" H 9150 6450 50  0000 C CNN
F 3 "" H 9150 6450 50  0000 C CNN
	1    9150 6450
	1    0    0    -1  
$EndComp
$Comp
L GND #PWR094
U 1 1 5804E935
P 2700 6150
F 0 "#PWR094" H 2700 5900 50  0001 C CNN
F 1 "GND" H 2700 6000 50  0000 C CNN
F 2 "" H 2700 6150 50  0000 C CNN
F 3 "" H 2700 6150 50  0000 C CNN
	1    2700 6150
	1    0    0    -1  
$EndComp
$Comp
L XC6SLX9-2TQG144C U20
U 1 1 5804F154
P 2900 3450
F 0 "U20" H 3100 3700 60  0000 L CNN
F 1 "XC6SLX9-2TQG144C" H 3100 3600 60  0000 L CNN
F 2 "Housings_QFP:TQFP-144_20x20mm_Pitch0.5mm" H 3100 3800 60  0001 L CNN
F 3 "" H 2900 2850 60  0001 C CNN
F 4 "Xilinx" H 3100 4000 60  0001 L CNN "manf"
F 5 "XC6SLX9-2TQG144C" H 3100 3900 60  0001 L CNN "manf#"
	1    2900 3450
	1    0    0    -1  
$EndComp
$Comp
L XC6SLX9-2TQG144C U20
U 2 1 5804F19F
P 5950 3450
F 0 "U20" H 6150 3700 60  0000 L CNN
F 1 "XC6SLX9-2TQG144C" H 6150 3600 60  0000 L CNN
F 2 "Housings_QFP:TQFP-144_20x20mm_Pitch0.5mm" H 6150 3800 60  0001 L CNN
F 3 "" H 5950 2850 60  0001 C CNN
F 4 "Xilinx" H 6150 4000 60  0001 L CNN "manf"
F 5 "XC6SLX9-2TQG144C" H 6150 3900 60  0001 L CNN "manf#"
	2    5950 3450
	1    0    0    -1  
$EndComp
$Comp
L XC6SLX9-2TQG144C U20
U 3 1 5804F228
P 9350 3450
F 0 "U20" H 9550 3700 60  0000 L CNN
F 1 "XC6SLX9-2TQG144C" H 9550 3600 60  0000 L CNN
F 2 "Housings_QFP:TQFP-144_20x20mm_Pitch0.5mm" H 9550 3800 60  0001 L CNN
F 3 "" H 9350 2850 60  0001 C CNN
F 4 "Xilinx" H 9550 4000 60  0001 L CNN "manf"
F 5 "XC6SLX9-2TQG144C" H 9550 3900 60  0001 L CNN "manf#"
	3    9350 3450
	1    0    0    -1  
$EndComp
$Comp
L XC6SLX9-2TQG144C U20
U 4 1 5804F2B9
P 12850 3450
F 0 "U20" H 13050 3700 60  0000 L CNN
F 1 "XC6SLX9-2TQG144C" H 13050 3600 60  0000 L CNN
F 2 "Housings_QFP:TQFP-144_20x20mm_Pitch0.5mm" H 13050 3800 60  0001 L CNN
F 3 "" H 12850 2850 60  0001 C CNN
F 4 "Xilinx" H 13050 4000 60  0001 L CNN "manf"
F 5 "XC6SLX9-2TQG144C" H 13050 3900 60  0001 L CNN "manf#"
	4    12850 3450
	1    0    0    -1  
$EndComp
$Comp
L XC6SLX9-2TQG144C U20
U 5 1 5804F3B2
P 8200 8800
F 0 "U20" H 8400 9050 60  0000 L CNN
F 1 "XC6SLX9-2TQG144C" H 8400 8950 60  0000 L CNN
F 2 "Housings_QFP:TQFP-144_20x20mm_Pitch0.5mm" H 8400 9150 60  0001 L CNN
F 3 "" H 8200 8200 60  0001 C CNN
F 4 "Xilinx" H 8400 9350 60  0001 L CNN "manf"
F 5 "XC6SLX9-2TQG144C" H 8400 9250 60  0001 L CNN "manf#"
	5    8200 8800
	1    0    0    -1  
$EndComp
$Comp
L R R47
U 1 1 5804FD6F
P 8100 3350
F 0 "R47" V 8180 3350 50  0000 C CNN
F 1 "4.7k" V 8100 3350 50  0000 C CNN
F 2 "Resistors_SMD:R_0402" V 8030 3350 50  0001 C CNN
F 3 "" H 8100 3350 50  0000 C CNN
F 4 "Yageo" V 8100 3350 60  0001 C CNN "manf"
F 5 "RC0402JR-074K7L" V 8100 3350 60  0001 C CNN "manf#"
	1    8100 3350
	-1   0    0    1   
$EndComp
$Comp
L R R43
U 1 1 5804FDE5
P 10900 7500
F 0 "R43" V 10980 7500 50  0000 C CNN
F 1 "2.4k" V 10900 7500 50  0000 C CNN
F 2 "Resistors_SMD:R_0402" V 10830 7500 50  0001 C CNN
F 3 "" H 10900 7500 50  0000 C CNN
F 4 "Yageo" V 10900 7500 60  0001 C CNN "manf"
F 5 "RC0402JR-072K4L" V 10900 7500 60  0001 C CNN "manf#"
	1    10900 7500
	-1   0    0    1   
$EndComp
$Comp
L R R49
U 1 1 5804FE73
P 8950 3350
F 0 "R49" V 9030 3350 50  0000 C CNN
F 1 "330" V 8950 3350 50  0000 C CNN
F 2 "Resistors_SMD:R_0402" V 8880 3350 50  0001 C CNN
F 3 "" H 8950 3350 50  0000 C CNN
F 4 "Yageo" V 8950 3350 60  0001 C CNN "manf"
F 5 "RC0402JR-07330RL" V 8950 3350 60  0001 C CNN "manf#"
	1    8950 3350
	-1   0    0    1   
$EndComp
$Comp
L R R44
U 1 1 580503CB
P 10400 7850
F 0 "R44" V 10480 7850 50  0000 C CNN
F 1 "100" V 10400 7850 50  0000 C CNN
F 2 "Resistors_SMD:R_0402" V 10330 7850 50  0001 C CNN
F 3 "" H 10400 7850 50  0000 C CNN
F 4 "Yageo" V 10400 7850 60  0001 C CNN "manf"
F 5 "RC0402JR-07100RL" V 10400 7850 60  0001 C CNN "manf#"
	1    10400 7850
	0    1    1    0   
$EndComp
$Comp
L R R48
U 1 1 58050BC3
P 8750 3350
F 0 "R48" V 8830 3350 50  0000 C CNN
F 1 "4.7k" V 8750 3350 50  0000 C CNN
F 2 "Resistors_SMD:R_0402" V 8680 3350 50  0001 C CNN
F 3 "" H 8750 3350 50  0000 C CNN
F 4 "Yageo" V 8750 3350 60  0001 C CNN "manf"
F 5 "RC0402JR-074K7L" V 8750 3350 60  0001 C CNN "manf#"
	1    8750 3350
	-1   0    0    1   
$EndComp
$Comp
L +3V3 #PWR095
U 1 1 58050D36
P 8950 3100
F 0 "#PWR095" H 8950 2950 50  0001 C CNN
F 1 "+3V3" H 8950 3240 50  0000 C CNN
F 2 "" H 8950 3100 50  0000 C CNN
F 3 "" H 8950 3100 50  0000 C CNN
	1    8950 3100
	1    0    0    -1  
$EndComp
$Comp
L +3V3 #PWR096
U 1 1 58050D68
P 8750 3100
F 0 "#PWR096" H 8750 2950 50  0001 C CNN
F 1 "+3V3" H 8750 3240 50  0000 C CNN
F 2 "" H 8750 3100 50  0000 C CNN
F 3 "" H 8750 3100 50  0000 C CNN
	1    8750 3100
	1    0    0    -1  
$EndComp
$Comp
L +3V3 #PWR097
U 1 1 58051C41
P 8100 3100
F 0 "#PWR097" H 8100 2950 50  0001 C CNN
F 1 "+3V3" H 8100 3240 50  0000 C CNN
F 2 "" H 8100 3100 50  0000 C CNN
F 3 "" H 8100 3100 50  0000 C CNN
	1    8100 3100
	1    0    0    -1  
$EndComp
$Comp
L R R46
U 1 1 580529FA
P 12150 8300
F 0 "R46" V 12230 8300 50  0000 C CNN
F 1 "100" V 12150 8300 50  0000 C CNN
F 2 "Resistors_SMD:R_0402" V 12080 8300 50  0001 C CNN
F 3 "" H 12150 8300 50  0000 C CNN
F 4 "Yageo" V 12150 8300 60  0001 C CNN "manf"
F 5 "RC0402JR-07100RL" V 12150 8300 60  0001 C CNN "manf#"
	1    12150 8300
	-1   0    0    1   
$EndComp
$Comp
L R R45
U 1 1 58052A46
P 12150 7750
F 0 "R45" V 12230 7750 50  0000 C CNN
F 1 "100" V 12150 7750 50  0000 C CNN
F 2 "Resistors_SMD:R_0402" V 12080 7750 50  0001 C CNN
F 3 "" H 12150 7750 50  0000 C CNN
F 4 "Yageo" V 12150 7750 60  0001 C CNN "manf"
F 5 "RC0402JR-07100RL" V 12150 7750 60  0001 C CNN "manf#"
	1    12150 7750
	-1   0    0    1   
$EndComp
$Comp
L GND #PWR098
U 1 1 5805304B
P 12150 8550
F 0 "#PWR098" H 12150 8300 50  0001 C CNN
F 1 "GND" H 12150 8400 50  0000 C CNN
F 2 "" H 12150 8550 50  0000 C CNN
F 3 "" H 12150 8550 50  0000 C CNN
	1    12150 8550
	1    0    0    -1  
$EndComp
$Comp
L +3V3 #PWR099
U 1 1 58053269
P 10700 7250
F 0 "#PWR099" H 10700 7100 50  0001 C CNN
F 1 "+3V3" H 10700 7390 50  0000 C CNN
F 2 "" H 10700 7250 50  0000 C CNN
F 3 "" H 10700 7250 50  0000 C CNN
	1    10700 7250
	1    0    0    -1  
$EndComp
$Comp
L +3V3 #PWR0100
U 1 1 58057FA5
P 1650 1000
F 0 "#PWR0100" H 1650 850 50  0001 C CNN
F 1 "+3V3" H 1650 1140 50  0000 C CNN
F 2 "" H 1650 1000 50  0000 C CNN
F 3 "" H 1650 1000 50  0000 C CNN
	1    1650 1000
	1    0    0    -1  
$EndComp
$Comp
L C C44
U 1 1 58057FAD
P 1650 1250
F 0 "C44" H 1675 1350 50  0000 L CNN
F 1 "0.1uF" H 1675 1150 50  0000 L CNN
F 2 "Capacitors_SMD:C_0402" H 1688 1100 50  0001 C CNN
F 3 "" H 1650 1250 50  0000 C CNN
F 4 "Murata" H 1650 1250 60  0001 C CNN "manf"
F 5 "GRM155R71C104KA88J" H 1650 1250 60  0001 C CNN "manf#"
	1    1650 1250
	1    0    0    -1  
$EndComp
$Comp
L GND #PWR0101
U 1 1 58057FB3
P 1650 1450
F 0 "#PWR0101" H 1650 1200 50  0001 C CNN
F 1 "GND" H 1650 1300 50  0000 C CNN
F 2 "" H 1650 1450 50  0000 C CNN
F 3 "" H 1650 1450 50  0000 C CNN
	1    1650 1450
	1    0    0    -1  
$EndComp
$Comp
L +3V3 #PWR0102
U 1 1 58058003
P 2000 1000
F 0 "#PWR0102" H 2000 850 50  0001 C CNN
F 1 "+3V3" H 2000 1140 50  0000 C CNN
F 2 "" H 2000 1000 50  0000 C CNN
F 3 "" H 2000 1000 50  0000 C CNN
	1    2000 1000
	1    0    0    -1  
$EndComp
$Comp
L C C39
U 1 1 5805800B
P 2000 1250
F 0 "C39" H 2025 1350 50  0000 L CNN
F 1 "0.1uF" H 2025 1150 50  0000 L CNN
F 2 "Capacitors_SMD:C_0402" H 2038 1100 50  0001 C CNN
F 3 "" H 2000 1250 50  0000 C CNN
F 4 "Murata" H 2000 1250 60  0001 C CNN "manf"
F 5 "GRM155R71C104KA88J" H 2000 1250 60  0001 C CNN "manf#"
	1    2000 1250
	1    0    0    -1  
$EndComp
$Comp
L GND #PWR0103
U 1 1 58058011
P 2000 1450
F 0 "#PWR0103" H 2000 1200 50  0001 C CNN
F 1 "GND" H 2000 1300 50  0000 C CNN
F 2 "" H 2000 1450 50  0000 C CNN
F 3 "" H 2000 1450 50  0000 C CNN
	1    2000 1450
	1    0    0    -1  
$EndComp
$Comp
L +3V3 #PWR0104
U 1 1 58058019
P 2350 1000
F 0 "#PWR0104" H 2350 850 50  0001 C CNN
F 1 "+3V3" H 2350 1140 50  0000 C CNN
F 2 "" H 2350 1000 50  0000 C CNN
F 3 "" H 2350 1000 50  0000 C CNN
	1    2350 1000
	1    0    0    -1  
$EndComp
$Comp
L C C68
U 1 1 58058021
P 2350 1250
F 0 "C68" H 2375 1350 50  0000 L CNN
F 1 "0.1uF" H 2375 1150 50  0000 L CNN
F 2 "Capacitors_SMD:C_0402" H 2388 1100 50  0001 C CNN
F 3 "" H 2350 1250 50  0000 C CNN
F 4 "Murata" H 2350 1250 60  0001 C CNN "manf"
F 5 "GRM155R71C104KA88J" H 2350 1250 60  0001 C CNN "manf#"
	1    2350 1250
	1    0    0    -1  
$EndComp
$Comp
L GND #PWR0105
U 1 1 58058027
P 2350 1450
F 0 "#PWR0105" H 2350 1200 50  0001 C CNN
F 1 "GND" H 2350 1300 50  0000 C CNN
F 2 "" H 2350 1450 50  0000 C CNN
F 3 "" H 2350 1450 50  0000 C CNN
	1    2350 1450
	1    0    0    -1  
$EndComp
$Comp
L +3V3 #PWR0106
U 1 1 580580AF
P 2700 1000
F 0 "#PWR0106" H 2700 850 50  0001 C CNN
F 1 "+3V3" H 2700 1140 50  0000 C CNN
F 2 "" H 2700 1000 50  0000 C CNN
F 3 "" H 2700 1000 50  0000 C CNN
	1    2700 1000
	1    0    0    -1  
$EndComp
$Comp
L C C41
U 1 1 580580B7
P 2700 1250
F 0 "C41" H 2725 1350 50  0000 L CNN
F 1 "0.1uF" H 2725 1150 50  0000 L CNN
F 2 "Capacitors_SMD:C_0402" H 2738 1100 50  0001 C CNN
F 3 "" H 2700 1250 50  0000 C CNN
F 4 "Murata" H 2700 1250 60  0001 C CNN "manf"
F 5 "GRM155R71C104KA88J" H 2700 1250 60  0001 C CNN "manf#"
	1    2700 1250
	1    0    0    -1  
$EndComp
$Comp
L GND #PWR0107
U 1 1 580580BD
P 2700 1450
F 0 "#PWR0107" H 2700 1200 50  0001 C CNN
F 1 "GND" H 2700 1300 50  0000 C CNN
F 2 "" H 2700 1450 50  0000 C CNN
F 3 "" H 2700 1450 50  0000 C CNN
	1    2700 1450
	1    0    0    -1  
$EndComp
$Comp
L +3V3 #PWR0108
U 1 1 580580C5
P 3050 1000
F 0 "#PWR0108" H 3050 850 50  0001 C CNN
F 1 "+3V3" H 3050 1140 50  0000 C CNN
F 2 "" H 3050 1000 50  0000 C CNN
F 3 "" H 3050 1000 50  0000 C CNN
	1    3050 1000
	1    0    0    -1  
$EndComp
$Comp
L C C53
U 1 1 580580CD
P 3050 1250
F 0 "C53" H 3075 1350 50  0000 L CNN
F 1 "0.1uF" H 3075 1150 50  0000 L CNN
F 2 "Capacitors_SMD:C_0402" H 3088 1100 50  0001 C CNN
F 3 "" H 3050 1250 50  0000 C CNN
F 4 "Murata" H 3050 1250 60  0001 C CNN "manf"
F 5 "GRM155R71C104KA88J" H 3050 1250 60  0001 C CNN "manf#"
	1    3050 1250
	1    0    0    -1  
$EndComp
$Comp
L GND #PWR0109
U 1 1 580580D3
P 3050 1450
F 0 "#PWR0109" H 3050 1200 50  0001 C CNN
F 1 "GND" H 3050 1300 50  0000 C CNN
F 2 "" H 3050 1450 50  0000 C CNN
F 3 "" H 3050 1450 50  0000 C CNN
	1    3050 1450
	1    0    0    -1  
$EndComp
$Comp
L +3V3 #PWR0110
U 1 1 580580DB
P 3400 1000
F 0 "#PWR0110" H 3400 850 50  0001 C CNN
F 1 "+3V3" H 3400 1140 50  0000 C CNN
F 2 "" H 3400 1000 50  0000 C CNN
F 3 "" H 3400 1000 50  0000 C CNN
	1    3400 1000
	1    0    0    -1  
$EndComp
$Comp
L C C61
U 1 1 580580E3
P 3400 1250
F 0 "C61" H 3425 1350 50  0000 L CNN
F 1 "0.1uF" H 3425 1150 50  0000 L CNN
F 2 "Capacitors_SMD:C_0402" H 3438 1100 50  0001 C CNN
F 3 "" H 3400 1250 50  0000 C CNN
F 4 "Murata" H 3400 1250 60  0001 C CNN "manf"
F 5 "GRM155R71C104KA88J" H 3400 1250 60  0001 C CNN "manf#"
	1    3400 1250
	1    0    0    -1  
$EndComp
$Comp
L GND #PWR0111
U 1 1 580580E9
P 3400 1450
F 0 "#PWR0111" H 3400 1200 50  0001 C CNN
F 1 "GND" H 3400 1300 50  0000 C CNN
F 2 "" H 3400 1450 50  0000 C CNN
F 3 "" H 3400 1450 50  0000 C CNN
	1    3400 1450
	1    0    0    -1  
$EndComp
$Comp
L +3V3 #PWR0112
U 1 1 580580F1
P 3750 1000
F 0 "#PWR0112" H 3750 850 50  0001 C CNN
F 1 "+3V3" H 3750 1140 50  0000 C CNN
F 2 "" H 3750 1000 50  0000 C CNN
F 3 "" H 3750 1000 50  0000 C CNN
	1    3750 1000
	1    0    0    -1  
$EndComp
$Comp
L C C54
U 1 1 580580F9
P 3750 1250
F 0 "C54" H 3775 1350 50  0000 L CNN
F 1 "0.1uF" H 3775 1150 50  0000 L CNN
F 2 "Capacitors_SMD:C_0402" H 3788 1100 50  0001 C CNN
F 3 "" H 3750 1250 50  0000 C CNN
F 4 "Murata" H 3750 1250 60  0001 C CNN "manf"
F 5 "GRM155R71C104KA88J" H 3750 1250 60  0001 C CNN "manf#"
	1    3750 1250
	1    0    0    -1  
$EndComp
$Comp
L GND #PWR0113
U 1 1 580580FF
P 3750 1450
F 0 "#PWR0113" H 3750 1200 50  0001 C CNN
F 1 "GND" H 3750 1300 50  0000 C CNN
F 2 "" H 3750 1450 50  0000 C CNN
F 3 "" H 3750 1450 50  0000 C CNN
	1    3750 1450
	1    0    0    -1  
$EndComp
$Comp
L +3V3 #PWR0114
U 1 1 58058621
P 4100 1000
F 0 "#PWR0114" H 4100 850 50  0001 C CNN
F 1 "+3V3" H 4100 1140 50  0000 C CNN
F 2 "" H 4100 1000 50  0000 C CNN
F 3 "" H 4100 1000 50  0000 C CNN
	1    4100 1000
	1    0    0    -1  
$EndComp
$Comp
L C C70
U 1 1 58058629
P 4100 1250
F 0 "C70" H 4125 1350 50  0000 L CNN
F 1 "0.1uF" H 4125 1150 50  0000 L CNN
F 2 "Capacitors_SMD:C_0402" H 4138 1100 50  0001 C CNN
F 3 "" H 4100 1250 50  0000 C CNN
F 4 "Murata" H 4100 1250 60  0001 C CNN "manf"
F 5 "GRM155R71C104KA88J" H 4100 1250 60  0001 C CNN "manf#"
	1    4100 1250
	1    0    0    -1  
$EndComp
$Comp
L GND #PWR0115
U 1 1 5805862F
P 4100 1450
F 0 "#PWR0115" H 4100 1200 50  0001 C CNN
F 1 "GND" H 4100 1300 50  0000 C CNN
F 2 "" H 4100 1450 50  0000 C CNN
F 3 "" H 4100 1450 50  0000 C CNN
	1    4100 1450
	1    0    0    -1  
$EndComp
$Comp
L +3V3 #PWR0116
U 1 1 58058637
P 4450 1000
F 0 "#PWR0116" H 4450 850 50  0001 C CNN
F 1 "+3V3" H 4450 1140 50  0000 C CNN
F 2 "" H 4450 1000 50  0000 C CNN
F 3 "" H 4450 1000 50  0000 C CNN
	1    4450 1000
	1    0    0    -1  
$EndComp
$Comp
L C C47
U 1 1 5805863F
P 4450 1250
F 0 "C47" H 4475 1350 50  0000 L CNN
F 1 "0.1uF" H 4475 1150 50  0000 L CNN
F 2 "Capacitors_SMD:C_0402" H 4488 1100 50  0001 C CNN
F 3 "" H 4450 1250 50  0000 C CNN
F 4 "Murata" H 4450 1250 60  0001 C CNN "manf"
F 5 "GRM155R71C104KA88J" H 4450 1250 60  0001 C CNN "manf#"
	1    4450 1250
	1    0    0    -1  
$EndComp
$Comp
L GND #PWR0117
U 1 1 58058645
P 4450 1450
F 0 "#PWR0117" H 4450 1200 50  0001 C CNN
F 1 "GND" H 4450 1300 50  0000 C CNN
F 2 "" H 4450 1450 50  0000 C CNN
F 3 "" H 4450 1450 50  0000 C CNN
	1    4450 1450
	1    0    0    -1  
$EndComp
$Comp
L +3V3 #PWR0118
U 1 1 5805864D
P 4800 1000
F 0 "#PWR0118" H 4800 850 50  0001 C CNN
F 1 "+3V3" H 4800 1140 50  0000 C CNN
F 2 "" H 4800 1000 50  0000 C CNN
F 3 "" H 4800 1000 50  0000 C CNN
	1    4800 1000
	1    0    0    -1  
$EndComp
$Comp
L C C50
U 1 1 58058655
P 4800 1250
F 0 "C50" H 4825 1350 50  0000 L CNN
F 1 "0.1uF" H 4825 1150 50  0000 L CNN
F 2 "Capacitors_SMD:C_0402" H 4838 1100 50  0001 C CNN
F 3 "" H 4800 1250 50  0000 C CNN
F 4 "Murata" H 4800 1250 60  0001 C CNN "manf"
F 5 "GRM155R71C104KA88J" H 4800 1250 60  0001 C CNN "manf#"
	1    4800 1250
	1    0    0    -1  
$EndComp
$Comp
L GND #PWR0119
U 1 1 5805865B
P 4800 1450
F 0 "#PWR0119" H 4800 1200 50  0001 C CNN
F 1 "GND" H 4800 1300 50  0000 C CNN
F 2 "" H 4800 1450 50  0000 C CNN
F 3 "" H 4800 1450 50  0000 C CNN
	1    4800 1450
	1    0    0    -1  
$EndComp
$Comp
L C C51
U 1 1 5805866B
P 5150 1250
F 0 "C51" H 5175 1350 50  0000 L CNN
F 1 "0.1uF" H 5175 1150 50  0000 L CNN
F 2 "Capacitors_SMD:C_0402" H 5188 1100 50  0001 C CNN
F 3 "" H 5150 1250 50  0000 C CNN
F 4 "Murata" H 5150 1250 60  0001 C CNN "manf"
F 5 "GRM155R71C104KA88J" H 5150 1250 60  0001 C CNN "manf#"
	1    5150 1250
	1    0    0    -1  
$EndComp
$Comp
L GND #PWR0120
U 1 1 58058671
P 5150 1450
F 0 "#PWR0120" H 5150 1200 50  0001 C CNN
F 1 "GND" H 5150 1300 50  0000 C CNN
F 2 "" H 5150 1450 50  0000 C CNN
F 3 "" H 5150 1450 50  0000 C CNN
	1    5150 1450
	1    0    0    -1  
$EndComp
$Comp
L C C56
U 1 1 58058681
P 5500 1250
F 0 "C56" H 5525 1350 50  0000 L CNN
F 1 "0.1uF" H 5525 1150 50  0000 L CNN
F 2 "Capacitors_SMD:C_0402" H 5538 1100 50  0001 C CNN
F 3 "" H 5500 1250 50  0000 C CNN
F 4 "Murata" H 5500 1250 60  0001 C CNN "manf"
F 5 "GRM155R71C104KA88J" H 5500 1250 60  0001 C CNN "manf#"
	1    5500 1250
	1    0    0    -1  
$EndComp
$Comp
L GND #PWR0121
U 1 1 58058687
P 5500 1450
F 0 "#PWR0121" H 5500 1200 50  0001 C CNN
F 1 "GND" H 5500 1300 50  0000 C CNN
F 2 "" H 5500 1450 50  0000 C CNN
F 3 "" H 5500 1450 50  0000 C CNN
	1    5500 1450
	1    0    0    -1  
$EndComp
$Comp
L C C40
U 1 1 58058697
P 5850 1250
F 0 "C40" H 5875 1350 50  0000 L CNN
F 1 "0.1uF" H 5875 1150 50  0000 L CNN
F 2 "Capacitors_SMD:C_0402" H 5888 1100 50  0001 C CNN
F 3 "" H 5850 1250 50  0000 C CNN
F 4 "Murata" H 5850 1250 60  0001 C CNN "manf"
F 5 "GRM155R71C104KA88J" H 5850 1250 60  0001 C CNN "manf#"
	1    5850 1250
	1    0    0    -1  
$EndComp
$Comp
L GND #PWR0122
U 1 1 5805869D
P 5850 1450
F 0 "#PWR0122" H 5850 1200 50  0001 C CNN
F 1 "GND" H 5850 1300 50  0000 C CNN
F 2 "" H 5850 1450 50  0000 C CNN
F 3 "" H 5850 1450 50  0000 C CNN
	1    5850 1450
	1    0    0    -1  
$EndComp
$Comp
L C C57
U 1 1 580586AD
P 6200 1250
F 0 "C57" H 6225 1350 50  0000 L CNN
F 1 "0.1uF" H 6225 1150 50  0000 L CNN
F 2 "Capacitors_SMD:C_0402" H 6238 1100 50  0001 C CNN
F 3 "" H 6200 1250 50  0000 C CNN
F 4 "Murata" H 6200 1250 60  0001 C CNN "manf"
F 5 "GRM155R71C104KA88J" H 6200 1250 60  0001 C CNN "manf#"
	1    6200 1250
	1    0    0    -1  
$EndComp
$Comp
L GND #PWR0123
U 1 1 580586B3
P 6200 1450
F 0 "#PWR0123" H 6200 1200 50  0001 C CNN
F 1 "GND" H 6200 1300 50  0000 C CNN
F 2 "" H 6200 1450 50  0000 C CNN
F 3 "" H 6200 1450 50  0000 C CNN
	1    6200 1450
	1    0    0    -1  
$EndComp
$Comp
L C C69
U 1 1 580586C3
P 6550 1250
F 0 "C69" H 6575 1350 50  0000 L CNN
F 1 "0.1uF" H 6575 1150 50  0000 L CNN
F 2 "Capacitors_SMD:C_0402" H 6588 1100 50  0001 C CNN
F 3 "" H 6550 1250 50  0000 C CNN
F 4 "Murata" H 6550 1250 60  0001 C CNN "manf"
F 5 "GRM155R71C104KA88J" H 6550 1250 60  0001 C CNN "manf#"
	1    6550 1250
	1    0    0    -1  
$EndComp
$Comp
L GND #PWR0124
U 1 1 580586C9
P 6550 1450
F 0 "#PWR0124" H 6550 1200 50  0001 C CNN
F 1 "GND" H 6550 1300 50  0000 C CNN
F 2 "" H 6550 1450 50  0000 C CNN
F 3 "" H 6550 1450 50  0000 C CNN
	1    6550 1450
	1    0    0    -1  
$EndComp
$Comp
L +1V2 #PWR0125
U 1 1 58058A69
P 5150 1000
F 0 "#PWR0125" H 5150 850 50  0001 C CNN
F 1 "+1V2" H 5150 1140 50  0000 C CNN
F 2 "" H 5150 1000 50  0000 C CNN
F 3 "" H 5150 1000 50  0000 C CNN
	1    5150 1000
	1    0    0    -1  
$EndComp
$Comp
L +1V2 #PWR0126
U 1 1 58058D08
P 5500 1000
F 0 "#PWR0126" H 5500 850 50  0001 C CNN
F 1 "+1V2" H 5500 1140 50  0000 C CNN
F 2 "" H 5500 1000 50  0000 C CNN
F 3 "" H 5500 1000 50  0000 C CNN
	1    5500 1000
	1    0    0    -1  
$EndComp
$Comp
L +1V2 #PWR0127
U 1 1 58058D6D
P 5850 1000
F 0 "#PWR0127" H 5850 850 50  0001 C CNN
F 1 "+1V2" H 5850 1140 50  0000 C CNN
F 2 "" H 5850 1000 50  0000 C CNN
F 3 "" H 5850 1000 50  0000 C CNN
	1    5850 1000
	1    0    0    -1  
$EndComp
$Comp
L +1V2 #PWR0128
U 1 1 58058DD2
P 6200 1000
F 0 "#PWR0128" H 6200 850 50  0001 C CNN
F 1 "+1V2" H 6200 1140 50  0000 C CNN
F 2 "" H 6200 1000 50  0000 C CNN
F 3 "" H 6200 1000 50  0000 C CNN
	1    6200 1000
	1    0    0    -1  
$EndComp
$Comp
L +1V2 #PWR0129
U 1 1 58058E37
P 6550 1000
F 0 "#PWR0129" H 6550 850 50  0001 C CNN
F 1 "+1V2" H 6550 1140 50  0000 C CNN
F 2 "" H 6550 1000 50  0000 C CNN
F 3 "" H 6550 1000 50  0000 C CNN
	1    6550 1000
	1    0    0    -1  
$EndComp
$Comp
L CONN_02X08 TP10
U 1 1 5805F9A1
P 7200 7300
F 0 "TP10" H 7200 7750 50  0000 C CNN
F 1 "CONN_02X08" V 7200 7300 50  0000 C CNN
F 2 "Pin_Headers:Pin_Header_Straight_2x08" H 7200 6100 50  0001 C CNN
F 3 "" H 7200 6100 50  0000 C CNN
F 4 "Sullins" H 7200 7300 60  0001 C CNN "manf"
F 5 "PRPC008DAAN-RC" H 7200 7300 60  0001 C CNN "manf#"
	1    7200 7300
	1    0    0    -1  
$EndComp
$Comp
L GND #PWR0130
U 1 1 5805FAFB
P 6850 7750
F 0 "#PWR0130" H 6850 7500 50  0001 C CNN
F 1 "GND" H 6850 7600 50  0000 C CNN
F 2 "" H 6850 7750 50  0000 C CNN
F 3 "" H 6850 7750 50  0000 C CNN
	1    6850 7750
	1    0    0    -1  
$EndComp
$Comp
L +3V3 #PWR0131
U 1 1 580BDEE5
P 900 1000
F 0 "#PWR0131" H 900 850 50  0001 C CNN
F 1 "+3V3" H 900 1140 50  0000 C CNN
F 2 "" H 900 1000 50  0000 C CNN
F 3 "" H 900 1000 50  0000 C CNN
	1    900  1000
	1    0    0    -1  
$EndComp
$Comp
L C C63
U 1 1 580BDEED
P 900 1250
F 0 "C63" H 925 1350 50  0000 L CNN
F 1 "0.1uF" H 925 1150 50  0000 L CNN
F 2 "Capacitors_SMD:C_0402" H 938 1100 50  0001 C CNN
F 3 "" H 900 1250 50  0000 C CNN
F 4 "Murata" H 900 1250 60  0001 C CNN "manf"
F 5 "GRM155R71C104KA88J" H 900 1250 60  0001 C CNN "manf#"
	1    900  1250
	1    0    0    -1  
$EndComp
$Comp
L GND #PWR0132
U 1 1 580BDEF3
P 900 1450
F 0 "#PWR0132" H 900 1200 50  0001 C CNN
F 1 "GND" H 900 1300 50  0000 C CNN
F 2 "" H 900 1450 50  0000 C CNN
F 3 "" H 900 1450 50  0000 C CNN
	1    900  1450
	1    0    0    -1  
$EndComp
Text Label 8600 5850 0    60   ~ 0
DS0
Text Label 8600 5950 0    60   ~ 0
DS1
Text Label 8600 5250 0    60   ~ 0
WG
Text Label 8600 5350 0    60   ~ 0
SYSCLK
Text Label 8600 5650 0    60   ~ 0
WDATA
Text Label 8600 5750 0    60   ~ 0
DRVCMD
Text Label 5250 4750 0    60   ~ 0
REFCLK
Text Label 8600 6150 0    60   ~ 0
ACLO
Text Label 8600 5050 0    60   ~ 0
RDATA
Text Label 8600 5150 0    60   ~ 0
STATIN
Text Label 8600 5450 0    60   ~ 0
STATCLK
Text Label 8600 5550 0    60   ~ 0
SECPLS
Text Label 8600 4850 0    60   ~ 0
DRVRDY
Text Label 8600 4950 0    60   ~ 0
DRVERR
Text Label 5450 3950 0    60   ~ 0
A6
Text Label 5450 3750 0    60   ~ 0
A7
Text Label 5450 3850 0    60   ~ 0
A8
Text Label 5450 3550 0    60   ~ 0
A9
Text Label 5450 3650 0    60   ~ 0
A10
Text Label 2400 5950 0    60   ~ 0
A11
Text Label 5450 4150 0    60   ~ 0
A12
Text Label 5450 4450 0    60   ~ 0
A13
Text Label 5450 4350 0    60   ~ 0
A14
Text Label 5450 4650 0    60   ~ 0
A15
Text Label 5450 4050 0    60   ~ 0
D0
Text Label 5450 4250 0    60   ~ 0
D1
Text Label 5450 5650 0    60   ~ 0
D2
Text Label 5450 5550 0    60   ~ 0
D3
Text Label 2400 6050 0    60   ~ 0
D4
Text Label 2400 5750 0    60   ~ 0
D5
Text Label 2400 5850 0    60   ~ 0
D6
Text Label 2400 5550 0    60   ~ 0
D7
Text Label 5450 5150 0    60   ~ 0
A0
Text Label 5450 5250 0    60   ~ 0
A1
Text Label 5450 4950 0    60   ~ 0
A2
Text Label 5450 5050 0    60   ~ 0
A3
Text Label 5450 4850 0    60   ~ 0
A4
Text Label 5450 4550 0    60   ~ 0
A5
Text Label 5250 5750 0    60   ~ 0
~WE
Text Label 5250 5850 0    60   ~ 0
~OE
Text Label 5250 5350 0    60   ~ 0
~CS1
Text Label 5250 5450 0    60   ~ 0
~CS2
Text Label 12250 8050 0    50   ~ 0
MOSI
Text Label 9950 7850 0    50   ~ 0
DIN
Text Label 12250 7950 0    50   ~ 0
CCLK
Text Label 9950 7750 0    50   ~ 0
CSO_B
Text Label 8700 6250 0    50   ~ 0
CSO_B
Text Label 8700 4350 0    50   ~ 0
DIN
Text Label 8700 4050 0    50   ~ 0
CCLK
Text Label 8700 3950 0    50   ~ 0
MOSI
Text Notes 10900 8450 0    50   ~ 0
FPGA Configuration EEPROM
Text Notes 6350 9800 0    50   ~ 0
FPGA JTAG Header
Text Notes 6650 8050 0    50   ~ 0
Logic Analyzer Header (FPGA)
Text Label 7650 6950 0    50   ~ 0
FDEBUG0
Text Label 7650 7050 0    50   ~ 0
FDEBUG1
Text Label 7650 7150 0    50   ~ 0
FDEBUG2
Text Label 7650 7250 0    50   ~ 0
FDEBUG3
Text Label 7650 7350 0    50   ~ 0
FDEBUG4
Text Label 7650 7450 0    50   ~ 0
FDEBUG5
Text Label 7650 7550 0    50   ~ 0
FDEBUG6
Text Label 7650 7650 0    50   ~ 0
FDEBUG7
Text HLabel 950  7150 0    60   Input ~ 0
A0
Text HLabel 950  7250 0    60   Input ~ 0
A1
Text HLabel 950  7350 0    60   Input ~ 0
A2
Text HLabel 950  7450 0    60   Input ~ 0
A3
Text HLabel 950  7550 0    60   Input ~ 0
A4
Text HLabel 950  7650 0    60   Input ~ 0
A5
Text HLabel 950  7750 0    60   Input ~ 0
A6
Text HLabel 950  7850 0    60   Input ~ 0
A7
Text HLabel 950  7950 0    60   Input ~ 0
A8
Text HLabel 950  8050 0    60   Input ~ 0
A9
Text HLabel 950  8150 0    60   Input ~ 0
A10
Text HLabel 950  8250 0    60   Input ~ 0
A11
Text HLabel 950  8350 0    60   Input ~ 0
A12
Text HLabel 950  8450 0    60   Input ~ 0
A13
Text HLabel 950  8550 0    60   Input ~ 0
A14
Text HLabel 950  8650 0    60   Input ~ 0
A15
Text HLabel 950  8750 0    60   BiDi ~ 0
D0
Text HLabel 950  8850 0    60   BiDi ~ 0
D1
Text HLabel 950  8950 0    60   BiDi ~ 0
D2
Text HLabel 950  9050 0    60   BiDi ~ 0
D3
Text HLabel 950  9150 0    60   BiDi ~ 0
D4
Text HLabel 950  9250 0    60   BiDi ~ 0
D5
Text HLabel 950  9350 0    60   BiDi ~ 0
D6
Text HLabel 950  9450 0    60   BiDi ~ 0
D7
Text Label 1050 7150 0    60   ~ 0
A0
Text Label 1050 7250 0    60   ~ 0
A1
Text Label 1050 7350 0    60   ~ 0
A2
Text Label 1050 7450 0    60   ~ 0
A3
Text Label 1050 7550 0    60   ~ 0
A4
Text Label 1050 7650 0    60   ~ 0
A5
Text Label 1050 7750 0    60   ~ 0
A6
Text Label 1050 7850 0    60   ~ 0
A7
Text Label 1050 7950 0    60   ~ 0
A8
Text Label 1050 8050 0    60   ~ 0
A9
Text Label 1050 8150 0    60   ~ 0
A10
Text Label 1050 8250 0    60   ~ 0
A11
Text Label 1050 8350 0    60   ~ 0
A12
Text Label 1050 8450 0    60   ~ 0
A13
Text Label 1050 8550 0    60   ~ 0
A14
Text Label 1050 8650 0    60   ~ 0
A15
Text Label 1050 8750 0    60   ~ 0
D0
Text Label 1050 8850 0    60   ~ 0
D1
Text Label 1050 8950 0    60   ~ 0
D2
Text Label 1050 9050 0    60   ~ 0
D3
Text Label 1050 9150 0    60   ~ 0
D4
Text Label 1050 9250 0    60   ~ 0
D5
Text Label 1050 9350 0    60   ~ 0
D6
Text Label 1050 9450 0    60   ~ 0
D7
Text Label 1050 9650 0    60   ~ 0
~CS2
Text Label 1050 9550 0    60   ~ 0
~CS1
Text Label 1050 9750 0    60   ~ 0
~OE
Text Label 1050 9850 0    60   ~ 0
~WE
Text Label 1050 9950 0    60   ~ 0
REFCLK
Text HLabel 950  9550 0    60   Input ~ 0
~CS1
Text HLabel 950  9650 0    60   Input ~ 0
~CS2
Text HLabel 950  9750 0    60   Input ~ 0
~OE
Text HLabel 950  9850 0    60   Input ~ 0
~WE
Text HLabel 950  9950 0    60   Input ~ 0
REFCLK
Text Label 2150 7250 0    60   ~ 0
DS0
Text Label 2150 7350 0    60   ~ 0
DS1
Text Label 2150 7450 0    60   ~ 0
WG
Text Label 2150 7550 0    60   ~ 0
SYSCLK
Text Label 2150 7650 0    60   ~ 0
WDATA
Text Label 2150 7750 0    60   ~ 0
DRVCMD
Text Label 2150 7150 0    60   ~ 0
ACLO
Text Label 2150 7850 0    60   ~ 0
RDATA
Text Label 2150 7950 0    60   ~ 0
STATIN
Text Label 2150 8050 0    60   ~ 0
STATCLK
Text Label 2150 8150 0    60   ~ 0
SECPLS
Text Label 2150 8250 0    60   ~ 0
DRVRDY
Text Label 2150 8350 0    60   ~ 0
DRVERR
Text HLabel 2900 7150 2    60   Output ~ 0
ACLO
Text HLabel 2900 7250 2    60   Output ~ 0
DS0
Text HLabel 2900 7350 2    60   Output ~ 0
DS1
Text HLabel 2900 7450 2    60   Output ~ 0
WG
Text HLabel 2900 7550 2    60   Output ~ 0
SYSCLK
Text HLabel 2900 7650 2    60   Output ~ 0
WDATA
Text HLabel 2900 7750 2    60   Output ~ 0
DRVCMD
Text HLabel 2900 7850 2    60   Input ~ 0
RDATA
Text HLabel 2900 7950 2    60   Input ~ 0
STATIN
Text HLabel 2900 8050 2    60   Input ~ 0
STATCLK
Text HLabel 2900 8150 2    60   Input ~ 0
SECPLS
Text HLabel 2900 8250 2    60   Input ~ 0
DRVRDY
Text HLabel 2900 8350 2    60   Input ~ 0
DRVERR
Text HLabel 950  10050 0    60   Input ~ 0
~FRESET
Text HLabel 950  10150 0    60   Output ~ 0
FINT
Text Label 1050 10050 0    60   ~ 0
~FRESET
Text Label 1050 10150 0    60   ~ 0
FINT
Text Label 2200 5350 0    60   ~ 0
~FRESET
Text Label 2200 5650 0    60   ~ 0
FINT
Text Label 2150 4450 0    50   ~ 0
FDEBUG0
Text Label 2150 4150 0    50   ~ 0
FDEBUG1
Text Label 2150 4250 0    50   ~ 0
FDEBUG2
Text Label 2150 4050 0    50   ~ 0
FDEBUG3
Text Label 2150 3950 0    50   ~ 0
FDEBUG4
Text Label 2150 3750 0    50   ~ 0
FDEBUG5
Text Label 2150 3850 0    50   ~ 0
FDEBUG6
Text Label 2150 3550 0    50   ~ 0
FDEBUG7
Wire Wire Line
	1300 1000 1300 1100
Wire Wire Line
	1300 1400 1300 1450
Wire Wire Line
	6150 9700 6150 9100
Wire Wire Line
	6150 9100 6250 9100
Wire Wire Line
	6250 9200 6150 9200
Wire Wire Line
	6250 9300 6150 9300
Wire Wire Line
	6250 9400 6150 9400
Wire Wire Line
	6250 9500 6150 9500
Wire Wire Line
	7150 9000 7250 9000
Wire Wire Line
	7250 9000 7250 8900
Wire Wire Line
	10900 8150 10900 8050
Wire Wire Line
	10900 8050 11000 8050
Wire Wire Line
	8100 9000 8100 9600
Wire Wire Line
	8100 9500 8200 9500
Wire Wire Line
	7150 9400 8200 9400
Wire Wire Line
	8200 9300 7150 9300
Wire Wire Line
	7150 9200 8200 9200
Wire Wire Line
	8200 9100 7150 9100
Wire Wire Line
	12850 3450 12750 3450
Wire Wire Line
	12750 3450 12750 3350
Wire Wire Line
	9350 3450 9250 3450
Wire Wire Line
	9250 3350 9250 3850
Wire Wire Line
	5950 3450 5850 3450
Wire Wire Line
	5850 3450 5850 3350
Wire Wire Line
	2900 3450 2800 3450
Wire Wire Line
	2800 3450 2800 3350
Wire Wire Line
	8050 8550 8050 8800
Wire Wire Line
	8050 8800 8200 8800
Wire Wire Line
	8200 8900 7750 8900
Wire Wire Line
	7750 8900 7750 8550
Wire Wire Line
	8200 9000 8100 9000
Wire Wire Line
	9250 3850 9350 3850
Wire Wire Line
	9150 6450 9150 4750
Wire Wire Line
	9150 4750 9350 4750
Wire Wire Line
	2700 6150 2700 3650
Wire Wire Line
	2700 3650 2900 3650
Wire Wire Line
	9350 3550 8950 3550
Wire Wire Line
	8950 3550 8950 3500
Wire Wire Line
	9350 3650 8750 3650
Wire Wire Line
	8750 3650 8750 3500
Wire Wire Line
	8750 3100 8750 3200
Wire Wire Line
	8950 3100 8950 3200
Wire Wire Line
	8100 3100 8100 3200
Wire Wire Line
	8100 6350 9350 6350
Wire Wire Line
	11900 7950 12500 7950
Wire Wire Line
	12150 7900 12150 8150
Wire Wire Line
	12150 8550 12150 8450
Wire Wire Line
	11900 7750 12000 7750
Wire Wire Line
	12000 7550 12000 7850
Wire Wire Line
	12000 7550 12150 7550
Wire Wire Line
	12150 7500 12150 7600
Wire Wire Line
	12000 7850 11900 7850
Wire Wire Line
	10700 7250 10700 7950
Wire Wire Line
	10700 7300 10900 7300
Wire Wire Line
	10900 7300 10900 7350
Wire Wire Line
	10700 7950 11000 7950
Wire Wire Line
	9900 7750 11000 7750
Wire Wire Line
	10900 7750 10900 7650
Wire Wire Line
	11000 7850 10550 7850
Wire Wire Line
	11900 8050 12500 8050
Wire Wire Line
	10250 7850 9900 7850
Wire Wire Line
	9350 6250 8650 6250
Wire Wire Line
	9350 3950 8650 3950
Wire Wire Line
	9350 4050 8650 4050
Wire Wire Line
	9350 4350 8650 4350
Wire Wire Line
	5950 5150 5350 5150
Wire Wire Line
	5950 5250 5350 5250
Wire Wire Line
	5950 4950 5350 4950
Wire Wire Line
	5950 5050 5350 5050
Wire Wire Line
	5950 4850 5350 4850
Wire Wire Line
	5950 4550 5350 4550
Wire Wire Line
	5950 3950 5350 3950
Wire Wire Line
	5950 3750 5350 3750
Wire Wire Line
	5950 3850 5350 3850
Wire Wire Line
	5950 3550 5350 3550
Wire Wire Line
	5950 3650 5350 3650
Wire Wire Line
	2900 5950 2300 5950
Wire Wire Line
	5950 4150 5350 4150
Wire Wire Line
	5950 4450 5350 4450
Wire Wire Line
	5950 4350 5350 4350
Wire Wire Line
	5950 4650 5350 4650
Wire Wire Line
	5950 4050 5350 4050
Wire Wire Line
	5950 4250 5350 4250
Wire Wire Line
	5950 5650 5350 5650
Wire Wire Line
	5950 5550 5350 5550
Wire Wire Line
	2900 6050 2300 6050
Wire Wire Line
	2900 5750 2300 5750
Wire Wire Line
	2900 5850 2300 5850
Wire Wire Line
	2900 5550 2300 5550
Wire Wire Line
	5950 4750 5200 4750
Wire Wire Line
	5950 5750 5200 5750
Wire Wire Line
	5950 5850 5200 5850
Wire Wire Line
	5950 5350 5200 5350
Wire Wire Line
	5950 5450 5200 5450
Wire Wire Line
	9350 6150 8500 6150
Wire Wire Line
	9350 5850 8500 5850
Wire Wire Line
	9350 5950 8500 5950
Wire Wire Line
	9350 5250 8500 5250
Wire Wire Line
	9350 5350 8500 5350
Wire Wire Line
	9350 5650 8500 5650
Wire Wire Line
	9350 5750 8500 5750
Wire Wire Line
	9350 5050 8500 5050
Wire Wire Line
	9350 5150 8500 5150
Wire Wire Line
	9350 5450 8500 5450
Wire Wire Line
	9350 5550 8500 5550
Wire Wire Line
	9350 4850 8500 4850
Wire Wire Line
	9350 4950 8500 4950
Wire Wire Line
	1650 1000 1650 1100
Wire Wire Line
	1650 1400 1650 1450
Wire Wire Line
	2000 1000 2000 1100
Wire Wire Line
	2000 1400 2000 1450
Wire Wire Line
	2350 1000 2350 1100
Wire Wire Line
	2350 1400 2350 1450
Wire Wire Line
	2700 1000 2700 1100
Wire Wire Line
	2700 1400 2700 1450
Wire Wire Line
	3050 1000 3050 1100
Wire Wire Line
	3050 1400 3050 1450
Wire Wire Line
	3400 1000 3400 1100
Wire Wire Line
	3400 1400 3400 1450
Wire Wire Line
	3750 1000 3750 1100
Wire Wire Line
	3750 1400 3750 1450
Wire Wire Line
	4100 1000 4100 1100
Wire Wire Line
	4100 1400 4100 1450
Wire Wire Line
	4450 1000 4450 1100
Wire Wire Line
	4450 1400 4450 1450
Wire Wire Line
	4800 1000 4800 1100
Wire Wire Line
	4800 1400 4800 1450
Wire Wire Line
	5150 1000 5150 1100
Wire Wire Line
	5150 1400 5150 1450
Wire Wire Line
	5500 1000 5500 1100
Wire Wire Line
	5500 1400 5500 1450
Wire Wire Line
	5850 1000 5850 1100
Wire Wire Line
	5850 1400 5850 1450
Wire Wire Line
	6200 1000 6200 1100
Wire Wire Line
	6200 1400 6200 1450
Wire Wire Line
	6550 1000 6550 1100
Wire Wire Line
	6550 1400 6550 1450
Wire Wire Line
	6850 7750 6850 6950
Wire Wire Line
	6850 6950 6950 6950
Wire Wire Line
	6950 7050 6850 7050
Wire Wire Line
	6950 7150 6850 7150
Wire Wire Line
	6950 7250 6850 7250
Wire Wire Line
	6950 7350 6850 7350
Wire Wire Line
	6950 7450 6850 7450
Wire Wire Line
	6950 7550 6850 7550
Wire Wire Line
	6950 7650 6850 7650
Wire Wire Line
	7450 6950 8400 6950
Wire Wire Line
	7450 7050 8400 7050
Wire Wire Line
	7450 7150 8400 7150
Wire Wire Line
	7450 7250 8400 7250
Wire Wire Line
	7450 7350 8400 7350
Wire Wire Line
	7450 7450 8400 7450
Wire Wire Line
	7450 7550 8400 7550
Wire Wire Line
	7450 7650 8400 7650
Wire Wire Line
	950  7150 1700 7150
Wire Wire Line
	950  7250 1700 7250
Wire Wire Line
	950  7350 1700 7350
Wire Wire Line
	950  7450 1700 7450
Wire Wire Line
	950  7550 1700 7550
Wire Wire Line
	950  7650 1700 7650
Wire Wire Line
	950  7750 1700 7750
Wire Wire Line
	950  7850 1700 7850
Wire Wire Line
	950  7950 1700 7950
Wire Wire Line
	950  8050 1700 8050
Wire Wire Line
	950  8150 1700 8150
Wire Wire Line
	950  8250 1700 8250
Wire Wire Line
	950  8350 1700 8350
Wire Wire Line
	950  8450 1700 8450
Wire Wire Line
	950  8550 1700 8550
Wire Wire Line
	950  8650 1700 8650
Wire Wire Line
	950  8750 1700 8750
Wire Wire Line
	950  8850 1700 8850
Wire Wire Line
	950  8950 1700 8950
Wire Wire Line
	950  9050 1700 9050
Wire Wire Line
	950  9150 1700 9150
Wire Wire Line
	950  9250 1700 9250
Wire Wire Line
	950  9350 1700 9350
Wire Wire Line
	950  9450 1700 9450
Wire Wire Line
	950  9550 1700 9550
Wire Wire Line
	950  9650 1700 9650
Wire Wire Line
	950  9750 1700 9750
Wire Wire Line
	950  9850 1700 9850
Wire Wire Line
	950  9950 1700 9950
Wire Wire Line
	2900 7150 2050 7150
Wire Wire Line
	2900 7250 2050 7250
Wire Wire Line
	2900 7350 2050 7350
Wire Wire Line
	2900 7450 2050 7450
Wire Wire Line
	2900 7550 2050 7550
Wire Wire Line
	2900 7650 2050 7650
Wire Wire Line
	2900 7750 2050 7750
Wire Wire Line
	2900 7850 2050 7850
Wire Wire Line
	2900 7950 2050 7950
Wire Wire Line
	2900 8050 2050 8050
Wire Wire Line
	2900 8150 2050 8150
Wire Wire Line
	2900 8250 2050 8250
Wire Wire Line
	2900 8350 2050 8350
Wire Wire Line
	950  10050 1700 10050
Wire Wire Line
	950  10150 1700 10150
Wire Wire Line
	2900 5350 2150 5350
Wire Wire Line
	2900 5650 2150 5650
Wire Wire Line
	900  1000 900  1100
Wire Wire Line
	900  1400 900  1450
Wire Wire Line
	1950 4450 2900 4450
Wire Wire Line
	1950 4150 2900 4150
Wire Wire Line
	1950 4250 2900 4250
Wire Wire Line
	1950 4050 2900 4050
Wire Wire Line
	1950 3950 2900 3950
Wire Wire Line
	1950 3750 2900 3750
Wire Wire Line
	1950 3850 2900 3850
Wire Wire Line
	1950 3550 2900 3550
Wire Wire Line
	8100 6350 8100 3500
Connection ~ 6150 9200
Connection ~ 6150 9300
Connection ~ 6150 9400
Connection ~ 6150 9500
Connection ~ 8100 9500
Connection ~ 9250 3450
Connection ~ 12150 7950
Connection ~ 12150 7550
Connection ~ 12000 7750
Connection ~ 10700 7300
Connection ~ 10900 7750
Connection ~ 6850 7050
Connection ~ 6850 7150
Connection ~ 6850 7250
Connection ~ 6850 7350
Connection ~ 6850 7450
Connection ~ 6850 7550
Connection ~ 6850 7650
NoConn ~ 7150 9500
NoConn ~ 6250 9000
NoConn ~ 7150 9600
NoConn ~ 6250 9600
$EndSCHEMATC
