EESchema Schematic File Version 2
LIBS:Audio
LIBS:Battery
LIBS:Connectors
LIBS:Displays
LIBS:ESD
LIBS:Interface
LIBS:LEDs
LIBS:LightBlueBean
LIBS:Logic
LIBS:Memory
LIBS:PIC12F
LIBS:PIC16F
LIBS:PIC18F
LIBS:Potentiometers
LIBS:Power
LIBS:PMIC
LIBS:RLC
LIBS:RTC
LIBS:STM32F
LIBS:Switches
LIBS:Tag-Connect
LIBS:Transistors
LIBS:Xilinx
LIBS:power
LIBS:device
LIBS:transistors
LIBS:conn
LIBS:linear
LIBS:regul
LIBS:74xx
LIBS:cmos4000
LIBS:adc-dac
LIBS:memory
LIBS:xilinx
LIBS:microcontrollers
LIBS:dsp
LIBS:microchip
LIBS:analog_switches
LIBS:motorola
LIBS:texas
LIBS:intel
LIBS:audio
LIBS:interface
LIBS:digital-audio
LIBS:philips
LIBS:display
LIBS:cypress
LIBS:siliconi
LIBS:opto
LIBS:atmel
LIBS:contrib
LIBS:valves
LIBS:RL02-USB-controller-cache
EELAYER 25 0
EELAYER END
$Descr B 17000 11000
encoding utf-8
Sheet 3 5
Title "RL02-USB Controller"
Date "2016-10-23"
Rev "v1.0"
Comp "Mark J. Blair <nf6x@nf6x.net>"
Comment1 "https://github.com/NF6X/RL02-USB"
Comment2 ""
Comment3 ""
Comment4 ""
$EndDescr
$Comp
L STM32F407ZET6 U19
U 1 1 57FBEE7C
P 1600 1300
F 0 "U19" H 2050 1550 60  0000 C CNN
F 1 "STM32F407ZET6" H 2050 1450 60  0000 C CNN
F 2 "Housings_QFP:TQFP-144_20x20mm_Pitch0.5mm" H 2050 -550 60  0001 C CNN
F 3 "" H 2050 1550 60  0001 C CNN
F 4 "ST" H 2050 -350 60  0001 C CNN "manf"
F 5 "STM32F407ZET6" H 2050 -450 60  0001 C CNN "manf#"
	1    1600 1300
	1    0    0    -1  
$EndComp
$Comp
L STM32F407ZET6 U19
U 2 1 57FBEE85
P 3400 1300
F 0 "U19" H 3850 1550 60  0000 C CNN
F 1 "STM32F407ZET6" H 3850 1450 60  0000 C CNN
F 2 "Housings_QFP:TQFP-144_20x20mm_Pitch0.5mm" H 3850 -550 60  0001 C CNN
F 3 "" H 3850 1550 60  0001 C CNN
F 4 "ST" H 3850 -350 60  0001 C CNN "manf"
F 5 "STM32F407ZET6" H 3850 -450 60  0001 C CNN "manf#"
	2    3400 1300
	1    0    0    -1  
$EndComp
$Comp
L STM32F407ZET6 U19
U 3 1 57FBEE8E
P 6900 1300
F 0 "U19" H 7350 1550 60  0000 C CNN
F 1 "STM32F407ZET6" H 7350 1450 60  0000 C CNN
F 2 "Housings_QFP:TQFP-144_20x20mm_Pitch0.5mm" H 7350 -550 60  0001 C CNN
F 3 "" H 7350 1550 60  0001 C CNN
F 4 "ST" H 7350 -350 60  0001 C CNN "manf"
F 5 "STM32F407ZET6" H 7350 -450 60  0001 C CNN "manf#"
	3    6900 1300
	1    0    0    -1  
$EndComp
$Comp
L STM32F407ZET6 U19
U 4 1 57FBEE97
P 9000 1300
F 0 "U19" H 9450 1550 60  0000 C CNN
F 1 "STM32F407ZET6" H 9450 1450 60  0000 C CNN
F 2 "Housings_QFP:TQFP-144_20x20mm_Pitch0.5mm" H 9450 -550 60  0001 C CNN
F 3 "" H 9450 1550 60  0001 C CNN
F 4 "ST" H 9450 -350 60  0001 C CNN "manf"
F 5 "STM32F407ZET6" H 9450 -450 60  0001 C CNN "manf#"
	4    9000 1300
	1    0    0    -1  
$EndComp
$Comp
L STM32F407ZET6 U19
U 5 1 57FBEEA0
P 10600 1300
F 0 "U19" H 11050 1550 60  0000 C CNN
F 1 "STM32F407ZET6" H 11050 1450 60  0000 C CNN
F 2 "Housings_QFP:TQFP-144_20x20mm_Pitch0.5mm" H 11050 -550 60  0001 C CNN
F 3 "" H 11050 1550 60  0001 C CNN
F 4 "ST" H 11050 -350 60  0001 C CNN "manf"
F 5 "STM32F407ZET6" H 11050 -450 60  0001 C CNN "manf#"
	5    10600 1300
	1    0    0    -1  
$EndComp
$Comp
L STM32F407ZET6 U19
U 6 1 57FBEEA9
P 12200 1300
F 0 "U19" H 12650 1550 60  0000 C CNN
F 1 "STM32F407ZET6" H 12650 1450 60  0000 C CNN
F 2 "Housings_QFP:TQFP-144_20x20mm_Pitch0.5mm" H 12650 -550 60  0001 C CNN
F 3 "" H 12650 1550 60  0001 C CNN
F 4 "ST" H 12650 -350 60  0001 C CNN "manf"
F 5 "STM32F407ZET6" H 12650 -450 60  0001 C CNN "manf#"
	6    12200 1300
	1    0    0    -1  
$EndComp
$Comp
L STM32F407ZET6 U19
U 7 1 57FBEEB2
P 13950 1300
F 0 "U19" H 14400 1550 60  0000 C CNN
F 1 "STM32F407ZET6" H 14400 1450 60  0000 C CNN
F 2 "Housings_QFP:TQFP-144_20x20mm_Pitch0.5mm" H 14400 -550 60  0001 C CNN
F 3 "" H 14400 1550 60  0001 C CNN
F 4 "ST" H 14400 -350 60  0001 C CNN "manf"
F 5 "STM32F407ZET6" H 14400 -450 60  0001 C CNN "manf#"
	7    13950 1300
	1    0    0    -1  
$EndComp
$Comp
L STM32F407ZET6 U19
U 8 1 57FBEEBB
P 12550 6050
F 0 "U19" H 13000 6300 60  0000 C CNN
F 1 "STM32F407ZET6" H 13000 6200 60  0000 C CNN
F 2 "Housings_QFP:TQFP-144_20x20mm_Pitch0.5mm" H 13000 4200 60  0001 C CNN
F 3 "" H 13000 6300 60  0001 C CNN
F 4 "ST" H 13000 4400 60  0001 C CNN "manf"
F 5 "STM32F407ZET6" H 13000 4300 60  0001 C CNN "manf#"
	8    12550 6050
	1    0    0    -1  
$EndComp
$Comp
L USB_B_Through J3
U 1 1 57FBEEC4
P 1400 5900
F 0 "J3" H 1400 6150 60  0000 C CNN
F 1 "USB_B_Through" H 1400 6050 60  0000 C CNN
F 2 "NF6X_Connectors:TE_292304-1" H 1450 5250 60  0001 L CNN
F 3 "" H 1300 5900 60  0001 C CNN
F 4 "TE Connectivity AMP Connectors" H 1450 5450 60  0001 L CNN "manf"
F 5 "292304-1" H 1450 5350 60  0001 L CNN "manf#"
	1    1400 5900
	1    0    0    -1  
$EndComp
$Comp
L ST-Link-Header-Through-RA J1
U 1 1 57FBEECD
P 12550 4050
F 0 "J1" H 12550 4200 60  0000 L CNN
F 1 "ST-Link-Header-Through-RA" H 12550 4100 60  0000 L CNN
F 2 "NF6X_Connectors:TE_5103310-5" H 12550 2750 60  0001 L CNN
F 3 "" H 12550 4200 60  0001 C CNN
F 4 "TE" H 12550 2950 60  0001 L CNN "manf"
F 5 "5103310-5" H 12550 2850 60  0001 L CNN "manf#"
	1    12550 4050
	1    0    0    -1  
$EndComp
$Comp
L USB3300-EZK-TR U21
U 1 1 57FBEED6
P 3650 6200
F 0 "U21" H 3900 5150 60  0000 L CNN
F 1 "USB3300-EZK-TR" H 3900 5050 60  0000 L CNN
F 2 "Housings_DFN_QFN:QFN-32-1EP_5x5mm_Pitch0.5mm" H 3900 4750 60  0001 L CNN
F 3 "" H 2950 6500 60  0001 C CNN
F 4 "Microchip" H 3900 4950 60  0001 L CNN "manf"
F 5 "USB3300-EZK-TR" H 3900 4850 60  0001 L CNN "manf#"
	1    3650 6200
	1    0    0    -1  
$EndComp
$Comp
L GND #PWR022
U 1 1 5801E858
P 1950 6300
F 0 "#PWR022" H 1950 6050 50  0001 C CNN
F 1 "GND" H 1950 6150 50  0000 C CNN
F 2 "" H 1950 6300 50  0000 C CNN
F 3 "" H 1950 6300 50  0000 C CNN
	1    1950 6300
	1    0    0    -1  
$EndComp
$Comp
L R R55
U 1 1 5801EA0B
P 3750 7650
F 0 "R55" V 3830 7650 50  0000 C CNN
F 1 "12.0k" V 3750 7650 40  0000 C CNN
F 2 "Resistors_SMD:R_0402" V 3680 7650 50  0001 C CNN
F 3 "" H 3750 7650 50  0000 C CNN
F 4 "Yageo" V 3750 7650 60  0001 C CNN "manf"
F 5 "RC0402FR-0712KL" V 3750 7650 60  0001 C CNN "manf#"
	1    3750 7650
	1    0    0    -1  
$EndComp
$Comp
L GND #PWR023
U 1 1 5801EAFE
P 3550 7900
F 0 "#PWR023" H 3550 7650 50  0001 C CNN
F 1 "GND" H 3550 7750 50  0000 C CNN
F 2 "" H 3550 7900 50  0000 C CNN
F 3 "" H 3550 7900 50  0000 C CNN
	1    3550 7900
	1    0    0    -1  
$EndComp
$Comp
L R R56
U 1 1 5801EBB6
P 2300 5300
F 0 "R56" V 2380 5300 50  0000 C CNN
F 1 "10k" V 2300 5300 40  0000 C CNN
F 2 "Resistors_SMD:R_0402" V 2230 5300 50  0001 C CNN
F 3 "" H 2300 5300 50  0000 C CNN
F 4 "Yageo" V 2300 5300 60  0001 C CNN "manf"
F 5 "RC0402JR-0710KL" V 2300 5300 60  0001 C CNN "manf#"
	1    2300 5300
	0    1    1    0   
$EndComp
$Comp
L C C79
U 1 1 5801F151
P 2050 5550
F 0 "C79" H 2075 5650 50  0000 L CNN
F 1 "1uF" H 2075 5450 50  0000 L CNN
F 2 "Capacitors_SMD:C_0805" H 2088 5400 50  0001 C CNN
F 3 "" H 2050 5550 50  0000 C CNN
F 4 "Murata" H 2050 5550 60  0001 C CNN "manf"
F 5 "GRM21BR71C105KA01L" H 2050 5550 60  0001 C CNN "manf#"
	1    2050 5550
	1    0    0    -1  
$EndComp
$Comp
L GND #PWR024
U 1 1 5801F4A6
P 2050 5750
F 0 "#PWR024" H 2050 5500 50  0001 C CNN
F 1 "GND" H 2050 5600 50  0000 C CNN
F 2 "" H 2050 5750 50  0000 C CNN
F 3 "" H 2050 5750 50  0000 C CNN
	1    2050 5750
	1    0    0    -1  
$EndComp
$Comp
L C C76
U 1 1 5801F8C5
P 3900 4450
F 0 "C76" H 3925 4550 50  0000 L CNN
F 1 "4.7uF" H 3925 4350 50  0000 L CNN
F 2 "Capacitors_SMD:C_0805" H 3938 4300 50  0001 C CNN
F 3 "" H 3900 4450 50  0000 C CNN
F 4 "Murata" H 3900 4450 60  0001 C CNN "manf"
F 5 "GRM21BR71A475KA73K" H 3900 4450 60  0001 C CNN "manf#"
	1    3900 4450
	1    0    0    -1  
$EndComp
$Comp
L C C75
U 1 1 5801FBBC
P 4300 4450
F 0 "C75" H 4325 4550 50  0000 L CNN
F 1 "4.7uF" H 4325 4350 50  0000 L CNN
F 2 "Capacitors_SMD:C_0805" H 4338 4300 50  0001 C CNN
F 3 "" H 4300 4450 50  0000 C CNN
F 4 "Murata" H 4300 4450 60  0001 C CNN "manf"
F 5 "GRM21BR71A475KA73K" H 4300 4450 60  0001 C CNN "manf#"
	1    4300 4450
	1    0    0    -1  
$EndComp
$Comp
L +3V3 #PWR025
U 1 1 5801FF27
P 2700 4200
F 0 "#PWR025" H 2700 4050 50  0001 C CNN
F 1 "+3V3" H 2700 4340 50  0000 C CNN
F 2 "" H 2700 4200 50  0000 C CNN
F 3 "" H 2700 4200 50  0000 C CNN
	1    2700 4200
	1    0    0    -1  
$EndComp
$Comp
L C C72
U 1 1 5801FF2F
P 2700 4450
F 0 "C72" H 2725 4550 50  0000 L CNN
F 1 "0.1uF" H 2725 4350 50  0000 L CNN
F 2 "Capacitors_SMD:C_0402" H 2738 4300 50  0001 C CNN
F 3 "" H 2700 4450 50  0000 C CNN
F 4 "Murata" H 2700 4450 60  0001 C CNN "manf"
F 5 "GRM155R71C104KA88J" H 2700 4450 60  0001 C CNN "manf#"
	1    2700 4450
	1    0    0    -1  
$EndComp
$Comp
L GND #PWR026
U 1 1 5801FF36
P 2700 4650
F 0 "#PWR026" H 2700 4400 50  0001 C CNN
F 1 "GND" H 2700 4500 50  0000 C CNN
F 2 "" H 2700 4650 50  0000 C CNN
F 3 "" H 2700 4650 50  0000 C CNN
	1    2700 4650
	1    0    0    -1  
$EndComp
$Comp
L GND #PWR027
U 1 1 580200F6
P 3900 4650
F 0 "#PWR027" H 3900 4400 50  0001 C CNN
F 1 "GND" H 3900 4500 50  0000 C CNN
F 2 "" H 3900 4650 50  0000 C CNN
F 3 "" H 3900 4650 50  0000 C CNN
	1    3900 4650
	1    0    0    -1  
$EndComp
$Comp
L GND #PWR028
U 1 1 58020134
P 4300 4650
F 0 "#PWR028" H 4300 4400 50  0001 C CNN
F 1 "GND" H 4300 4500 50  0000 C CNN
F 2 "" H 4300 4650 50  0000 C CNN
F 3 "" H 4300 4650 50  0000 C CNN
	1    4300 4650
	1    0    0    -1  
$EndComp
$Comp
L C C80
U 1 1 58020648
P 1400 6700
F 0 "C80" H 1425 6800 50  0000 L CNN
F 1 "DNI" H 1425 6600 50  0000 L CNN
F 2 "Capacitors_SMD:C_0402" H 1438 6550 50  0001 C CNN
F 3 "" H 1400 6700 50  0000 C CNN
	1    1400 6700
	1    0    0    -1  
$EndComp
$Comp
L GND #PWR029
U 1 1 58020AA6
P 1400 6900
F 0 "#PWR029" H 1400 6650 50  0001 C CNN
F 1 "GND" H 1400 6750 50  0000 C CNN
F 2 "" H 1400 6900 50  0000 C CNN
F 3 "" H 1400 6900 50  0000 C CNN
	1    1400 6900
	1    0    0    -1  
$EndComp
$Comp
L C C74
U 1 1 58021202
P 2350 4450
F 0 "C74" H 2375 4550 50  0000 L CNN
F 1 "0.1uF" H 2375 4350 50  0000 L CNN
F 2 "Capacitors_SMD:C_0402" H 2388 4300 50  0001 C CNN
F 3 "" H 2350 4450 50  0000 C CNN
F 4 "Murata" H 2350 4450 60  0001 C CNN "manf"
F 5 "GRM155R71C104KA88J" H 2350 4450 60  0001 C CNN "manf#"
	1    2350 4450
	1    0    0    -1  
$EndComp
$Comp
L C C77
U 1 1 58021258
P 2000 4450
F 0 "C77" H 2025 4550 50  0000 L CNN
F 1 "0.1uF" H 2025 4350 50  0000 L CNN
F 2 "Capacitors_SMD:C_0402" H 2038 4300 50  0001 C CNN
F 3 "" H 2000 4450 50  0000 C CNN
F 4 "Murata" H 2000 4450 60  0001 C CNN "manf"
F 5 "GRM155R71C104KA88J" H 2000 4450 60  0001 C CNN "manf#"
	1    2000 4450
	1    0    0    -1  
$EndComp
$Comp
L C C78
U 1 1 580212AA
P 1650 4450
F 0 "C78" H 1675 4550 50  0000 L CNN
F 1 "0.1uF" H 1675 4350 50  0000 L CNN
F 2 "Capacitors_SMD:C_0402" H 1688 4300 50  0001 C CNN
F 3 "" H 1650 4450 50  0000 C CNN
F 4 "Murata" H 1650 4450 60  0001 C CNN "manf"
F 5 "GRM155R71C104KA88J" H 1650 4450 60  0001 C CNN "manf#"
	1    1650 4450
	1    0    0    -1  
$EndComp
$Comp
L GND #PWR030
U 1 1 580212FE
P 2350 4650
F 0 "#PWR030" H 2350 4400 50  0001 C CNN
F 1 "GND" H 2350 4500 50  0000 C CNN
F 2 "" H 2350 4650 50  0000 C CNN
F 3 "" H 2350 4650 50  0000 C CNN
	1    2350 4650
	1    0    0    -1  
$EndComp
$Comp
L GND #PWR031
U 1 1 58021348
P 2000 4650
F 0 "#PWR031" H 2000 4400 50  0001 C CNN
F 1 "GND" H 2000 4500 50  0000 C CNN
F 2 "" H 2000 4650 50  0000 C CNN
F 3 "" H 2000 4650 50  0000 C CNN
	1    2000 4650
	1    0    0    -1  
$EndComp
$Comp
L GND #PWR032
U 1 1 58021392
P 1650 4650
F 0 "#PWR032" H 1650 4400 50  0001 C CNN
F 1 "GND" H 1650 4500 50  0000 C CNN
F 2 "" H 1650 4650 50  0000 C CNN
F 3 "" H 1650 4650 50  0000 C CNN
	1    1650 4650
	1    0    0    -1  
$EndComp
$Comp
L GND #PWR033
U 1 1 58021A0F
P 13700 7950
F 0 "#PWR033" H 13700 7700 50  0001 C CNN
F 1 "GND" H 13700 7800 50  0000 C CNN
F 2 "" H 13700 7950 50  0000 C CNN
F 3 "" H 13700 7950 50  0000 C CNN
	1    13700 7950
	1    0    0    -1  
$EndComp
$Comp
L GND #PWR034
U 1 1 580230E1
P 13450 5050
F 0 "#PWR034" H 13450 4800 50  0001 C CNN
F 1 "GND" H 13450 4900 50  0000 C CNN
F 2 "" H 13450 5050 50  0000 C CNN
F 3 "" H 13450 5050 50  0000 C CNN
	1    13450 5050
	1    0    0    -1  
$EndComp
$Comp
L +3V3 #PWR035
U 1 1 58023646
P 13550 4250
F 0 "#PWR035" H 13550 4100 50  0001 C CNN
F 1 "+3V3" H 13550 4390 50  0000 C CNN
F 2 "" H 13550 4250 50  0000 C CNN
F 3 "" H 13550 4250 50  0000 C CNN
	1    13550 4250
	1    0    0    -1  
$EndComp
$Comp
L Newhaven_NHD-0420AZ-FSW-GBW-33V3 LCD1
U 1 1 58030B8D
P 8300 5150
F 0 "LCD1" H 8500 5400 60  0000 L CNN
F 1 "Newhaven_NHD-0420AZ-FSW-GBW-33V3" H 8500 5300 60  0000 L CNN
F 2 "NF6X_Displays:Newhaven_NHD-0420AZ-FSW-GBW-33V3" H 8500 2800 60  0001 L CNN
F 3 "" H 10400 7350 150 0001 C CNN
F 4 "Newhaven Display" H 8500 3000 60  0001 L CNN "manf"
F 5 "NHD-0420AZ-FSW-GBW-33V3" H 8500 2900 60  0001 L CNN "manf#"
	1    8300 5150
	1    0    0    -1  
$EndComp
$Comp
L SN74LVC1G04DCKR U17
U 1 1 58031B55
P 6650 6300
F 0 "U17" H 6750 6200 60  0000 L CNN
F 1 "SN74LVC1G04DCKR" H 6750 6100 60  0000 L CNN
F 2 "NF6X_TO-Packages:SC-70-5" H 6750 5800 60  0001 L CNN
F 3 "" H 6650 6300 60  0000 C CNN
F 4 "TI" H 6750 6000 60  0001 L CNN "manf"
F 5 "SN74LVC1G04DCKR" H 6750 5900 60  0001 L CNN "manf#"
	1    6650 6300
	1    0    0    -1  
$EndComp
$Comp
L GND #PWR036
U 1 1 580323D5
P 6650 6650
F 0 "#PWR036" H 6650 6400 50  0001 C CNN
F 1 "GND" H 6650 6500 50  0000 C CNN
F 2 "" H 6650 6650 50  0000 C CNN
F 3 "" H 6650 6650 50  0000 C CNN
	1    6650 6650
	1    0    0    -1  
$EndComp
$Comp
L GND #PWR037
U 1 1 5803278C
P 8200 5550
F 0 "#PWR037" H 8200 5300 50  0001 C CNN
F 1 "GND" H 8200 5400 50  0000 C CNN
F 2 "" H 8200 5550 50  0000 C CNN
F 3 "" H 8200 5550 50  0000 C CNN
	1    8200 5550
	1    0    0    -1  
$EndComp
$Comp
L +3V3 #PWR038
U 1 1 58032FAB
P 6650 5900
F 0 "#PWR038" H 6650 5750 50  0001 C CNN
F 1 "+3V3" H 6650 6040 50  0000 C CNN
F 2 "" H 6650 5900 50  0000 C CNN
F 3 "" H 6650 5900 50  0000 C CNN
	1    6650 5900
	1    0    0    -1  
$EndComp
$Comp
L +3V3 #PWR039
U 1 1 580332AC
P 8200 5050
F 0 "#PWR039" H 8200 4900 50  0001 C CNN
F 1 "+3V3" H 8200 5190 50  0000 C CNN
F 2 "" H 8200 5050 50  0000 C CNN
F 3 "" H 8200 5050 50  0000 C CNN
	1    8200 5050
	1    0    0    -1  
$EndComp
$Comp
L TE_3204X103P R41
U 1 1 5803E122
P 7900 5350
F 0 "R41" H 7900 5270 50  0000 C CNN
F 1 "10k" H 7900 5200 50  0000 C CNN
F 2 "NF6X_Potentiometers:TE_3204" H 7900 5050 50  0001 C CNN
F 3 "" H 7900 5350 50  0000 C CNN
F 4 "TE" H 7900 5150 50  0001 C CNN "manf"
F 5 "3204X103P" H 7900 5100 50  0001 C CNN "manf#"
	1    7900 5350
	0    1    1    0   
$EndComp
$Comp
L Wurth_431183015816 SW1
U 1 1 5803F347
P 11100 5400
F 0 "SW1" H 11100 5550 50  0000 C CNN
F 1 "Wurth_431183015816" H 11100 5550 50  0001 C CNN
F 2 "NF6X_Switches:Wurth_431183015816" H 11100 5750 60  0001 C CNN
F 3 "" H 11100 5400 60  0000 C CNN
F 4 "Wurth" H 11100 5950 50  0001 C CNN "manf"
F 5 "431183015816" H 11100 5850 50  0001 C CNN "manf#"
	1    11100 5400
	1    0    0    -1  
$EndComp
$Comp
L GND #PWR040
U 1 1 5803F8D7
P 11500 5900
F 0 "#PWR040" H 11500 5650 50  0001 C CNN
F 1 "GND" H 11500 5750 50  0000 C CNN
F 2 "" H 11500 5900 50  0000 C CNN
F 3 "" H 11500 5900 50  0000 C CNN
	1    11500 5900
	1    0    0    -1  
$EndComp
$Comp
L C C73
U 1 1 58040695
P 11500 5650
F 0 "C73" H 11525 5750 50  0000 L CNN
F 1 "0.1uF" H 11525 5550 50  0000 L CNN
F 2 "Capacitors_SMD:C_0402" H 11538 5500 50  0001 C CNN
F 3 "" H 11500 5650 50  0000 C CNN
F 4 "Murata" H 11500 5650 60  0001 C CNN "manf"
F 5 "GRM155R71C104KA88J" H 11500 5650 60  0001 C CNN "manf#"
	1    11500 5650
	1    0    0    -1  
$EndComp
$Comp
L R R54
U 1 1 5804122A
P 11500 5150
F 0 "R54" V 11580 5150 50  0000 C CNN
F 1 "10k" V 11500 5150 40  0000 C CNN
F 2 "Resistors_SMD:R_0402" V 11430 5150 50  0001 C CNN
F 3 "" H 11500 5150 50  0000 C CNN
F 4 "Yageo" V 11500 5150 60  0001 C CNN "manf"
F 5 "RC0402JR-0710KL" V 11500 5150 60  0001 C CNN "manf#"
	1    11500 5150
	-1   0    0    1   
$EndComp
$Comp
L +3V3 #PWR041
U 1 1 5804168D
P 11500 4900
F 0 "#PWR041" H 11500 4750 50  0001 C CNN
F 1 "+3V3" H 11500 5040 50  0000 C CNN
F 2 "" H 11500 4900 50  0000 C CNN
F 3 "" H 11500 4900 50  0000 C CNN
	1    11500 4900
	1    0    0    -1  
$EndComp
$Comp
L C C71
U 1 1 58041CA7
P 11900 7000
F 0 "C71" H 11925 7100 50  0000 L CNN
F 1 "2.2uF" H 11925 6900 50  0000 L CNN
F 2 "Capacitors_SMD:C_0805" H 11938 6850 50  0001 C CNN
F 3 "" H 11900 7000 50  0000 C CNN
F 4 "Murata" H 11900 7000 60  0001 C CNN "manf"
F 5 "GRM21BR71C225KA12L" H 11900 7000 60  0001 C CNN "manf#"
	1    11900 7000
	1    0    0    -1  
$EndComp
$Comp
L C C46
U 1 1 58041E14
P 12250 7000
F 0 "C46" H 12275 7100 50  0000 L CNN
F 1 "2.2uF" H 12275 6900 50  0000 L CNN
F 2 "Capacitors_SMD:C_0805" H 12288 6850 50  0001 C CNN
F 3 "" H 12250 7000 50  0000 C CNN
F 4 "Murata" H 12250 7000 60  0001 C CNN "manf"
F 5 "GRM21BR71C225KA12L" H 12250 7000 60  0001 C CNN "manf#"
	1    12250 7000
	1    0    0    -1  
$EndComp
$Comp
L GND #PWR042
U 1 1 58041E80
P 12250 7250
F 0 "#PWR042" H 12250 7000 50  0001 C CNN
F 1 "GND" H 12250 7100 50  0000 C CNN
F 2 "" H 12250 7250 50  0000 C CNN
F 3 "" H 12250 7250 50  0000 C CNN
	1    12250 7250
	1    0    0    -1  
$EndComp
$Comp
L GND #PWR043
U 1 1 58041EE2
P 11900 7250
F 0 "#PWR043" H 11900 7000 50  0001 C CNN
F 1 "GND" H 11900 7100 50  0000 C CNN
F 2 "" H 11900 7250 50  0000 C CNN
F 3 "" H 11900 7250 50  0000 C CNN
	1    11900 7250
	1    0    0    -1  
$EndComp
$Comp
L Crystal Y1
U 1 1 58042734
P 11050 6450
F 0 "Y1" H 11050 6600 50  0000 C CNN
F 1 "24MHz" H 11050 6300 50  0000 C CNN
F 2 "Crystals:Crystal_HC49-SD_SMD" H 11050 6450 50  0001 C CNN
F 3 "" H 11050 6450 50  0000 C CNN
F 4 "Abracon" H 11050 6450 60  0001 C CNN "manf"
F 5 "ABLS-24.000MHZ-D-R60-1-W-T" H 11050 6450 60  0001 C CNN "manf#"
	1    11050 6450
	1    0    0    -1  
$EndComp
$Comp
L C C58
U 1 1 58042B25
P 10850 6800
F 0 "C58" H 10875 6900 50  0000 L CNN
F 1 "16pF" H 10875 6700 50  0000 L CNN
F 2 "Capacitors_SMD:C_0402" H 10888 6650 50  0001 C CNN
F 3 "" H 10850 6800 50  0000 C CNN
F 4 "Murata" H 10850 6800 60  0001 C CNN "manf"
F 5 "GRM1555C1H160JA01D" H 10850 6800 60  0001 C CNN "manf#"
	1    10850 6800
	1    0    0    -1  
$EndComp
$Comp
L C C60
U 1 1 58042CFE
P 11250 6800
F 0 "C60" H 11275 6900 50  0000 L CNN
F 1 "16pF" H 11275 6700 50  0000 L CNN
F 2 "Capacitors_SMD:C_0402" H 11288 6650 50  0001 C CNN
F 3 "" H 11250 6800 50  0000 C CNN
F 4 "Murata" H 11250 6800 60  0001 C CNN "manf"
F 5 "GRM1555C1H160JA01D" H 11250 6800 60  0001 C CNN "manf#"
	1    11250 6800
	1    0    0    -1  
$EndComp
$Comp
L R R52
U 1 1 58043134
P 11450 6450
F 0 "R52" V 11530 6450 50  0000 C CNN
F 1 "412" V 11450 6450 40  0000 C CNN
F 2 "Resistors_SMD:R_0402" V 11380 6450 50  0001 C CNN
F 3 "" H 11450 6450 50  0000 C CNN
F 4 "Yageo" V 11450 6450 60  0001 C CNN "manf"
F 5 "RC0402FR-07412RL" V 11450 6450 60  0001 C CNN "manf#"
	1    11450 6450
	0    1    1    0   
$EndComp
$Comp
L GND #PWR044
U 1 1 5804425F
P 10850 7050
F 0 "#PWR044" H 10850 6800 50  0001 C CNN
F 1 "GND" H 10850 6900 50  0000 C CNN
F 2 "" H 10850 7050 50  0000 C CNN
F 3 "" H 10850 7050 50  0000 C CNN
	1    10850 7050
	1    0    0    -1  
$EndComp
$Comp
L GND #PWR045
U 1 1 580442CD
P 11250 7050
F 0 "#PWR045" H 11250 6800 50  0001 C CNN
F 1 "GND" H 11250 6900 50  0000 C CNN
F 2 "" H 11250 7050 50  0000 C CNN
F 3 "" H 11250 7050 50  0000 C CNN
	1    11250 7050
	1    0    0    -1  
$EndComp
$Comp
L +3V3 #PWR046
U 1 1 580450BE
P 13500 5550
F 0 "#PWR046" H 13500 5400 50  0001 C CNN
F 1 "+3V3" H 13500 5690 50  0000 C CNN
F 2 "" H 13500 5550 50  0000 C CNN
F 3 "" H 13500 5550 50  0000 C CNN
	1    13500 5550
	1    0    0    -1  
$EndComp
$Comp
L GND #PWR047
U 1 1 580457BB
P 12050 6100
F 0 "#PWR047" H 12050 5850 50  0001 C CNN
F 1 "GND" H 12050 5950 50  0000 C CNN
F 2 "" H 12050 6100 50  0000 C CNN
F 3 "" H 12050 6100 50  0000 C CNN
	1    12050 6100
	1    0    0    -1  
$EndComp
$Comp
L R R42
U 1 1 58046F09
P 7950 6950
F 0 "R42" V 8030 6950 50  0000 C CNN
F 1 "20" V 7950 6950 40  0000 C CNN
F 2 "Resistors_SMD:R_0402" V 7880 6950 50  0001 C CNN
F 3 "" H 7950 6950 50  0000 C CNN
F 4 "Yageo" V 7950 6950 60  0001 C CNN "manf"
F 5 "RC0402JR-0720RL" V 7950 6950 60  0001 C CNN "manf#"
	1    7950 6950
	0    1    1    0   
$EndComp
$Comp
L +3V3 #PWR048
U 1 1 5804783E
P 7600 6850
F 0 "#PWR048" H 7600 6700 50  0001 C CNN
F 1 "+3V3" H 7600 6990 50  0000 C CNN
F 2 "" H 7600 6850 50  0000 C CNN
F 3 "" H 7600 6850 50  0000 C CNN
	1    7600 6850
	1    0    0    -1  
$EndComp
$Comp
L GND #PWR049
U 1 1 580479F3
P 8200 7250
F 0 "#PWR049" H 8200 7000 50  0001 C CNN
F 1 "GND" H 8200 7100 50  0000 C CNN
F 2 "" H 8200 7250 50  0000 C CNN
F 3 "" H 8200 7250 50  0000 C CNN
	1    8200 7250
	1    0    0    -1  
$EndComp
$Comp
L C C38
U 1 1 58048C1D
P 950 9750
F 0 "C38" H 975 9850 50  0000 L CNN
F 1 "0.1uF" H 975 9650 50  0000 L CNN
F 2 "Capacitors_SMD:C_0402" H 988 9600 50  0001 C CNN
F 3 "" H 950 9750 50  0000 C CNN
F 4 "Murata" H 950 9750 60  0001 C CNN "manf"
F 5 "GRM155R71C104KA88J" H 950 9750 60  0001 C CNN "manf#"
	1    950  9750
	1    0    0    -1  
$EndComp
$Comp
L GND #PWR050
U 1 1 58048C9C
P 950 10000
F 0 "#PWR050" H 950 9750 50  0001 C CNN
F 1 "GND" H 950 9850 50  0000 C CNN
F 2 "" H 950 10000 50  0000 C CNN
F 3 "" H 950 10000 50  0000 C CNN
	1    950  10000
	1    0    0    -1  
$EndComp
$Comp
L +3V3 #PWR051
U 1 1 58048D10
P 950 9500
F 0 "#PWR051" H 950 9350 50  0001 C CNN
F 1 "+3V3" H 950 9640 50  0000 C CNN
F 2 "" H 950 9500 50  0000 C CNN
F 3 "" H 950 9500 50  0000 C CNN
	1    950  9500
	1    0    0    -1  
$EndComp
$Comp
L C C59
U 1 1 580490BC
P 1300 9750
F 0 "C59" H 1325 9850 50  0000 L CNN
F 1 "0.1uF" H 1325 9650 50  0000 L CNN
F 2 "Capacitors_SMD:C_0402" H 1338 9600 50  0001 C CNN
F 3 "" H 1300 9750 50  0000 C CNN
F 4 "Murata" H 1300 9750 60  0001 C CNN "manf"
F 5 "GRM155R71C104KA88J" H 1300 9750 60  0001 C CNN "manf#"
	1    1300 9750
	1    0    0    -1  
$EndComp
$Comp
L GND #PWR052
U 1 1 580490C2
P 1300 10000
F 0 "#PWR052" H 1300 9750 50  0001 C CNN
F 1 "GND" H 1300 9850 50  0000 C CNN
F 2 "" H 1300 10000 50  0000 C CNN
F 3 "" H 1300 10000 50  0000 C CNN
	1    1300 10000
	1    0    0    -1  
$EndComp
$Comp
L +3V3 #PWR053
U 1 1 580490C8
P 1300 9500
F 0 "#PWR053" H 1300 9350 50  0001 C CNN
F 1 "+3V3" H 1300 9640 50  0000 C CNN
F 2 "" H 1300 9500 50  0000 C CNN
F 3 "" H 1300 9500 50  0000 C CNN
	1    1300 9500
	1    0    0    -1  
$EndComp
$Comp
L C C37
U 1 1 58049140
P 1650 9750
F 0 "C37" H 1675 9850 50  0000 L CNN
F 1 "0.1uF" H 1675 9650 50  0000 L CNN
F 2 "Capacitors_SMD:C_0402" H 1688 9600 50  0001 C CNN
F 3 "" H 1650 9750 50  0000 C CNN
F 4 "Murata" H 1650 9750 60  0001 C CNN "manf"
F 5 "GRM155R71C104KA88J" H 1650 9750 60  0001 C CNN "manf#"
	1    1650 9750
	1    0    0    -1  
$EndComp
$Comp
L GND #PWR054
U 1 1 58049146
P 1650 10000
F 0 "#PWR054" H 1650 9750 50  0001 C CNN
F 1 "GND" H 1650 9850 50  0000 C CNN
F 2 "" H 1650 10000 50  0000 C CNN
F 3 "" H 1650 10000 50  0000 C CNN
	1    1650 10000
	1    0    0    -1  
$EndComp
$Comp
L +3V3 #PWR055
U 1 1 5804914C
P 1650 9500
F 0 "#PWR055" H 1650 9350 50  0001 C CNN
F 1 "+3V3" H 1650 9640 50  0000 C CNN
F 2 "" H 1650 9500 50  0000 C CNN
F 3 "" H 1650 9500 50  0000 C CNN
	1    1650 9500
	1    0    0    -1  
$EndComp
$Comp
L C C65
U 1 1 58049156
P 2000 9750
F 0 "C65" H 2025 9850 50  0000 L CNN
F 1 "0.1uF" H 2025 9650 50  0000 L CNN
F 2 "Capacitors_SMD:C_0402" H 2038 9600 50  0001 C CNN
F 3 "" H 2000 9750 50  0000 C CNN
F 4 "Murata" H 2000 9750 60  0001 C CNN "manf"
F 5 "GRM155R71C104KA88J" H 2000 9750 60  0001 C CNN "manf#"
	1    2000 9750
	1    0    0    -1  
$EndComp
$Comp
L GND #PWR056
U 1 1 5804915C
P 2000 10000
F 0 "#PWR056" H 2000 9750 50  0001 C CNN
F 1 "GND" H 2000 9850 50  0000 C CNN
F 2 "" H 2000 10000 50  0000 C CNN
F 3 "" H 2000 10000 50  0000 C CNN
	1    2000 10000
	1    0    0    -1  
$EndComp
$Comp
L +3V3 #PWR057
U 1 1 58049162
P 2000 9500
F 0 "#PWR057" H 2000 9350 50  0001 C CNN
F 1 "+3V3" H 2000 9640 50  0000 C CNN
F 2 "" H 2000 9500 50  0000 C CNN
F 3 "" H 2000 9500 50  0000 C CNN
	1    2000 9500
	1    0    0    -1  
$EndComp
$Comp
L C C62
U 1 1 58049204
P 4050 9750
F 0 "C62" H 4075 9850 50  0000 L CNN
F 1 "0.1uF" H 4075 9650 50  0000 L CNN
F 2 "Capacitors_SMD:C_0402" H 4088 9600 50  0001 C CNN
F 3 "" H 4050 9750 50  0000 C CNN
F 4 "Murata" H 4050 9750 60  0001 C CNN "manf"
F 5 "GRM155R71C104KA88J" H 4050 9750 60  0001 C CNN "manf#"
	1    4050 9750
	1    0    0    -1  
$EndComp
$Comp
L GND #PWR058
U 1 1 5804920A
P 4050 10000
F 0 "#PWR058" H 4050 9750 50  0001 C CNN
F 1 "GND" H 4050 9850 50  0000 C CNN
F 2 "" H 4050 10000 50  0000 C CNN
F 3 "" H 4050 10000 50  0000 C CNN
	1    4050 10000
	1    0    0    -1  
$EndComp
$Comp
L +3V3 #PWR059
U 1 1 58049210
P 4050 9500
F 0 "#PWR059" H 4050 9350 50  0001 C CNN
F 1 "+3V3" H 4050 9640 50  0000 C CNN
F 2 "" H 4050 9500 50  0000 C CNN
F 3 "" H 4050 9500 50  0000 C CNN
	1    4050 9500
	1    0    0    -1  
$EndComp
$Comp
L C C67
U 1 1 5804921A
P 4400 9750
F 0 "C67" H 4425 9850 50  0000 L CNN
F 1 "0.1uF" H 4425 9650 50  0000 L CNN
F 2 "Capacitors_SMD:C_0402" H 4438 9600 50  0001 C CNN
F 3 "" H 4400 9750 50  0000 C CNN
F 4 "Murata" H 4400 9750 60  0001 C CNN "manf"
F 5 "GRM155R71C104KA88J" H 4400 9750 60  0001 C CNN "manf#"
	1    4400 9750
	1    0    0    -1  
$EndComp
$Comp
L GND #PWR060
U 1 1 58049220
P 4400 10000
F 0 "#PWR060" H 4400 9750 50  0001 C CNN
F 1 "GND" H 4400 9850 50  0000 C CNN
F 2 "" H 4400 10000 50  0000 C CNN
F 3 "" H 4400 10000 50  0000 C CNN
	1    4400 10000
	1    0    0    -1  
$EndComp
$Comp
L +3V3 #PWR061
U 1 1 58049226
P 4400 9500
F 0 "#PWR061" H 4400 9350 50  0001 C CNN
F 1 "+3V3" H 4400 9640 50  0000 C CNN
F 2 "" H 4400 9500 50  0000 C CNN
F 3 "" H 4400 9500 50  0000 C CNN
	1    4400 9500
	1    0    0    -1  
$EndComp
$Comp
L C C36
U 1 1 58049230
P 4750 9750
F 0 "C36" H 4775 9850 50  0000 L CNN
F 1 "0.1uF" H 4775 9650 50  0000 L CNN
F 2 "Capacitors_SMD:C_0402" H 4788 9600 50  0001 C CNN
F 3 "" H 4750 9750 50  0000 C CNN
F 4 "Murata" H 4750 9750 60  0001 C CNN "manf"
F 5 "GRM155R71C104KA88J" H 4750 9750 60  0001 C CNN "manf#"
	1    4750 9750
	1    0    0    -1  
$EndComp
$Comp
L GND #PWR062
U 1 1 58049236
P 4750 10000
F 0 "#PWR062" H 4750 9750 50  0001 C CNN
F 1 "GND" H 4750 9850 50  0000 C CNN
F 2 "" H 4750 10000 50  0000 C CNN
F 3 "" H 4750 10000 50  0000 C CNN
	1    4750 10000
	1    0    0    -1  
$EndComp
$Comp
L +3V3 #PWR063
U 1 1 5804923C
P 4750 9500
F 0 "#PWR063" H 4750 9350 50  0001 C CNN
F 1 "+3V3" H 4750 9640 50  0000 C CNN
F 2 "" H 4750 9500 50  0000 C CNN
F 3 "" H 4750 9500 50  0000 C CNN
	1    4750 9500
	1    0    0    -1  
$EndComp
$Comp
L C C64
U 1 1 58049246
P 5100 9750
F 0 "C64" H 5125 9850 50  0000 L CNN
F 1 "0.1uF" H 5125 9650 50  0000 L CNN
F 2 "Capacitors_SMD:C_0402" H 5138 9600 50  0001 C CNN
F 3 "" H 5100 9750 50  0000 C CNN
F 4 "Murata" H 5100 9750 60  0001 C CNN "manf"
F 5 "GRM155R71C104KA88J" H 5100 9750 60  0001 C CNN "manf#"
	1    5100 9750
	1    0    0    -1  
$EndComp
$Comp
L GND #PWR064
U 1 1 5804924C
P 5100 10000
F 0 "#PWR064" H 5100 9750 50  0001 C CNN
F 1 "GND" H 5100 9850 50  0000 C CNN
F 2 "" H 5100 10000 50  0000 C CNN
F 3 "" H 5100 10000 50  0000 C CNN
	1    5100 10000
	1    0    0    -1  
$EndComp
$Comp
L +3V3 #PWR065
U 1 1 58049252
P 5100 9500
F 0 "#PWR065" H 5100 9350 50  0001 C CNN
F 1 "+3V3" H 5100 9640 50  0000 C CNN
F 2 "" H 5100 9500 50  0000 C CNN
F 3 "" H 5100 9500 50  0000 C CNN
	1    5100 9500
	1    0    0    -1  
$EndComp
$Comp
L C C52
U 1 1 58049328
P 2500 9750
F 0 "C52" H 2525 9850 50  0000 L CNN
F 1 "0.1uF" H 2525 9650 50  0000 L CNN
F 2 "Capacitors_SMD:C_0402" H 2538 9600 50  0001 C CNN
F 3 "" H 2500 9750 50  0000 C CNN
F 4 "Murata" H 2500 9750 60  0001 C CNN "manf"
F 5 "GRM155R71C104KA88J" H 2500 9750 60  0001 C CNN "manf#"
	1    2500 9750
	1    0    0    -1  
$EndComp
$Comp
L GND #PWR066
U 1 1 5804932E
P 2500 10000
F 0 "#PWR066" H 2500 9750 50  0001 C CNN
F 1 "GND" H 2500 9850 50  0000 C CNN
F 2 "" H 2500 10000 50  0000 C CNN
F 3 "" H 2500 10000 50  0000 C CNN
	1    2500 10000
	1    0    0    -1  
$EndComp
$Comp
L +3V3 #PWR067
U 1 1 58049334
P 2500 9500
F 0 "#PWR067" H 2500 9350 50  0001 C CNN
F 1 "+3V3" H 2500 9640 50  0000 C CNN
F 2 "" H 2500 9500 50  0000 C CNN
F 3 "" H 2500 9500 50  0000 C CNN
	1    2500 9500
	1    0    0    -1  
$EndComp
$Comp
L C C45
U 1 1 5804933E
P 2850 9750
F 0 "C45" H 2875 9850 50  0000 L CNN
F 1 "0.1uF" H 2875 9650 50  0000 L CNN
F 2 "Capacitors_SMD:C_0402" H 2888 9600 50  0001 C CNN
F 3 "" H 2850 9750 50  0000 C CNN
F 4 "Murata" H 2850 9750 60  0001 C CNN "manf"
F 5 "GRM155R71C104KA88J" H 2850 9750 60  0001 C CNN "manf#"
	1    2850 9750
	1    0    0    -1  
$EndComp
$Comp
L GND #PWR068
U 1 1 58049344
P 2850 10000
F 0 "#PWR068" H 2850 9750 50  0001 C CNN
F 1 "GND" H 2850 9850 50  0000 C CNN
F 2 "" H 2850 10000 50  0000 C CNN
F 3 "" H 2850 10000 50  0000 C CNN
	1    2850 10000
	1    0    0    -1  
$EndComp
$Comp
L +3V3 #PWR069
U 1 1 5804934A
P 2850 9500
F 0 "#PWR069" H 2850 9350 50  0001 C CNN
F 1 "+3V3" H 2850 9640 50  0000 C CNN
F 2 "" H 2850 9500 50  0000 C CNN
F 3 "" H 2850 9500 50  0000 C CNN
	1    2850 9500
	1    0    0    -1  
$EndComp
$Comp
L C C49
U 1 1 58049354
P 3200 9750
F 0 "C49" H 3225 9850 50  0000 L CNN
F 1 "0.1uF" H 3225 9650 50  0000 L CNN
F 2 "Capacitors_SMD:C_0402" H 3238 9600 50  0001 C CNN
F 3 "" H 3200 9750 50  0000 C CNN
F 4 "Murata" H 3200 9750 60  0001 C CNN "manf"
F 5 "GRM155R71C104KA88J" H 3200 9750 60  0001 C CNN "manf#"
	1    3200 9750
	1    0    0    -1  
$EndComp
$Comp
L GND #PWR070
U 1 1 5804935A
P 3200 10000
F 0 "#PWR070" H 3200 9750 50  0001 C CNN
F 1 "GND" H 3200 9850 50  0000 C CNN
F 2 "" H 3200 10000 50  0000 C CNN
F 3 "" H 3200 10000 50  0000 C CNN
	1    3200 10000
	1    0    0    -1  
$EndComp
$Comp
L +3V3 #PWR071
U 1 1 58049360
P 3200 9500
F 0 "#PWR071" H 3200 9350 50  0001 C CNN
F 1 "+3V3" H 3200 9640 50  0000 C CNN
F 2 "" H 3200 9500 50  0000 C CNN
F 3 "" H 3200 9500 50  0000 C CNN
	1    3200 9500
	1    0    0    -1  
$EndComp
$Comp
L C C55
U 1 1 5804936A
P 3550 9750
F 0 "C55" H 3575 9850 50  0000 L CNN
F 1 "0.1uF" H 3575 9650 50  0000 L CNN
F 2 "Capacitors_SMD:C_0402" H 3588 9600 50  0001 C CNN
F 3 "" H 3550 9750 50  0000 C CNN
F 4 "Murata" H 3550 9750 60  0001 C CNN "manf"
F 5 "GRM155R71C104KA88J" H 3550 9750 60  0001 C CNN "manf#"
	1    3550 9750
	1    0    0    -1  
$EndComp
$Comp
L GND #PWR072
U 1 1 58049370
P 3550 10000
F 0 "#PWR072" H 3550 9750 50  0001 C CNN
F 1 "GND" H 3550 9850 50  0000 C CNN
F 2 "" H 3550 10000 50  0000 C CNN
F 3 "" H 3550 10000 50  0000 C CNN
	1    3550 10000
	1    0    0    -1  
$EndComp
$Comp
L +3V3 #PWR073
U 1 1 58049376
P 3550 9500
F 0 "#PWR073" H 3550 9350 50  0001 C CNN
F 1 "+3V3" H 3550 9640 50  0000 C CNN
F 2 "" H 3550 9500 50  0000 C CNN
F 3 "" H 3550 9500 50  0000 C CNN
	1    3550 9500
	1    0    0    -1  
$EndComp
$Comp
L C C66
U 1 1 58049757
P 5600 9750
F 0 "C66" H 5625 9850 50  0000 L CNN
F 1 "0.1uF" H 5625 9650 50  0000 L CNN
F 2 "Capacitors_SMD:C_0402" H 5638 9600 50  0001 C CNN
F 3 "" H 5600 9750 50  0000 C CNN
F 4 "Murata" H 5600 9750 60  0001 C CNN "manf"
F 5 "GRM155R71C104KA88J" H 5600 9750 60  0001 C CNN "manf#"
	1    5600 9750
	1    0    0    -1  
$EndComp
$Comp
L GND #PWR074
U 1 1 5804975D
P 5600 10000
F 0 "#PWR074" H 5600 9750 50  0001 C CNN
F 1 "GND" H 5600 9850 50  0000 C CNN
F 2 "" H 5600 10000 50  0000 C CNN
F 3 "" H 5600 10000 50  0000 C CNN
	1    5600 10000
	1    0    0    -1  
$EndComp
$Comp
L +3V3 #PWR075
U 1 1 58049763
P 5600 9500
F 0 "#PWR075" H 5600 9350 50  0001 C CNN
F 1 "+3V3" H 5600 9640 50  0000 C CNN
F 2 "" H 5600 9500 50  0000 C CNN
F 3 "" H 5600 9500 50  0000 C CNN
	1    5600 9500
	1    0    0    -1  
$EndComp
$Comp
L C C33
U 1 1 58049ACF
P 5950 9750
F 0 "C33" H 5975 9850 50  0000 L CNN
F 1 "0.1uF" H 5975 9650 50  0000 L CNN
F 2 "Capacitors_SMD:C_0402" H 5988 9600 50  0001 C CNN
F 3 "" H 5950 9750 50  0000 C CNN
F 4 "Murata" H 5950 9750 60  0001 C CNN "manf"
F 5 "GRM155R71C104KA88J" H 5950 9750 60  0001 C CNN "manf#"
	1    5950 9750
	1    0    0    -1  
$EndComp
$Comp
L GND #PWR076
U 1 1 58049AD5
P 5950 10000
F 0 "#PWR076" H 5950 9750 50  0001 C CNN
F 1 "GND" H 5950 9850 50  0000 C CNN
F 2 "" H 5950 10000 50  0000 C CNN
F 3 "" H 5950 10000 50  0000 C CNN
	1    5950 10000
	1    0    0    -1  
$EndComp
$Comp
L +3V3 #PWR077
U 1 1 58049ADB
P 5950 9500
F 0 "#PWR077" H 5950 9350 50  0001 C CNN
F 1 "+3V3" H 5950 9640 50  0000 C CNN
F 2 "" H 5950 9500 50  0000 C CNN
F 3 "" H 5950 9500 50  0000 C CNN
	1    5950 9500
	1    0    0    -1  
$EndComp
$Comp
L CONN_02X08 TP9
U 1 1 58060DF1
P 6000 3900
F 0 "TP9" H 6000 4350 50  0000 C CNN
F 1 "CONN_02X08" V 6000 3900 50  0000 C CNN
F 2 "Pin_Headers:Pin_Header_Straight_2x08" H 6000 2700 50  0001 C CNN
F 3 "" H 6000 2700 50  0000 C CNN
F 4 "Sullins" H 6000 3900 60  0001 C CNN "manf"
F 5 "PRPC008DAAN-RC" H 6000 3900 60  0001 C CNN "manf#"
	1    6000 3900
	1    0    0    -1  
$EndComp
$Comp
L GND #PWR078
U 1 1 58060DF8
P 5650 4350
F 0 "#PWR078" H 5650 4100 50  0001 C CNN
F 1 "GND" H 5650 4200 50  0000 C CNN
F 2 "" H 5650 4350 50  0000 C CNN
F 3 "" H 5650 4350 50  0000 C CNN
	1    5650 4350
	1    0    0    -1  
$EndComp
$Comp
L R R53
U 1 1 5805C31C
P 11700 3450
F 0 "R53" V 11780 3450 50  0000 C CNN
F 1 "10k" V 11700 3450 40  0000 C CNN
F 2 "Resistors_SMD:R_0402" V 11630 3450 50  0001 C CNN
F 3 "" H 11700 3450 50  0000 C CNN
F 4 "Yageo" V 11700 3450 60  0001 C CNN "manf"
F 5 "RC0402JR-0710KL" V 11700 3450 60  0001 C CNN "manf#"
	1    11700 3450
	-1   0    0    1   
$EndComp
$Comp
L GND #PWR079
U 1 1 5805C774
P 11700 3650
F 0 "#PWR079" H 11700 3400 50  0001 C CNN
F 1 "GND" H 11700 3500 50  0000 C CNN
F 2 "" H 11700 3650 50  0000 C CNN
F 3 "" H 11700 3650 50  0000 C CNN
	1    11700 3650
	1    0    0    -1  
$EndComp
Text Label 4450 5900 0    60   ~ 0
USB_DATA7
Text Label 4450 6000 0    60   ~ 0
USB_DATA6
Text Label 4450 6100 0    60   ~ 0
USB_DATA5
Text Label 4450 6200 0    60   ~ 0
USB_DATA4
Text Label 4450 6300 0    60   ~ 0
USB_DATA3
Text Label 4450 6400 0    60   ~ 0
USB_DATA2
Text Label 4450 6500 0    60   ~ 0
USB_DATA1
Text Label 4450 6600 0    60   ~ 0
USB_DATA0
Text Label 4450 6700 0    60   ~ 0
USB_CLKOUT
Text Label 4450 6800 0    60   ~ 0
USB_STP
Text Label 4450 6900 0    60   ~ 0
USB_DIR
Text Label 4450 7000 0    60   ~ 0
USB_NXT
Text Label 2700 1800 0    60   ~ 0
USB_DATA7
Text Label 2700 2600 0    60   ~ 0
USB_DATA6
Text Label 2700 2500 0    60   ~ 0
USB_DATA5
Text Label 2700 2400 0    60   ~ 0
USB_DATA4
Text Label 2700 2300 0    60   ~ 0
USB_DATA3
Text Label 2700 1400 0    60   ~ 0
USB_DATA2
Text Label 2700 1300 0    60   ~ 0
USB_DATA1
Text Label 900  1600 0    60   ~ 0
USB_DATA0
Text Label 900  1800 0    60   ~ 0
USB_CLKOUT
Text Label 6200 1300 0    60   ~ 0
USB_STP
Text Label 6200 1500 0    60   ~ 0
USB_DIR
Text Label 6200 1600 0    60   ~ 0
USB_NXT
Text Label 2500 6600 0    60   ~ 0
USB_XI
Text Label 900  2100 0    60   ~ 0
USB_XI
Text Label 13650 4350 0    60   ~ 0
NRST
Text Label 13650 4550 0    60   ~ 0
SWDIO
Text Label 13650 4650 0    60   ~ 0
SWCLK
Text Label 13650 4850 0    60   ~ 0
TRACESWO
Text Label 11750 5400 0    60   ~ 0
NRST
Text Label 900  2600 0    60   ~ 0
SWDIO
Text Label 900  2700 0    60   ~ 0
SWCLK
Text Label 2700 1600 0    60   ~ 0
TRACESWO
Text Notes 800  5550 0    100  ~ 0
USB 2.0 HS
Text Label 900  2200 0    60   ~ 0
REFCLK
Text Notes 1250 2100 0    50   ~ 0
24 MHz
Text Notes 1250 2200 0    50   ~ 0
65.6 MHz
Text Label 11600 1300 0    60   ~ 0
A0
Text Label 11600 1400 0    60   ~ 0
A1
Text Label 11600 1500 0    60   ~ 0
A2
Text Label 11600 1600 0    60   ~ 0
A3
Text Label 11600 1700 0    60   ~ 0
A4
Text Label 11600 1800 0    60   ~ 0
A5
Text Label 11600 2500 0    60   ~ 0
A6
Text Label 11600 2600 0    60   ~ 0
A7
Text Label 11600 2700 0    60   ~ 0
A8
Text Label 11600 2800 0    60   ~ 0
A9
Text Label 13350 1300 0    60   ~ 0
A10
Text Label 13350 1400 0    60   ~ 0
A11
Text Label 13350 1500 0    60   ~ 0
A12
Text Label 13350 1600 0    60   ~ 0
A13
Text Label 13350 1700 0    60   ~ 0
A14
Text Label 13350 1800 0    60   ~ 0
A15
Text Label 8450 2700 0    60   ~ 0
D0
Text Label 8450 2800 0    60   ~ 0
D1
Text Label 8450 1300 0    60   ~ 0
D2
Text Label 8450 1400 0    60   ~ 0
D3
Text Label 10000 2000 0    60   ~ 0
D4
Text Label 10000 2100 0    60   ~ 0
D5
Text Label 10000 2200 0    60   ~ 0
D6
Text Label 10000 2300 0    60   ~ 0
D7
Text Label 8450 1800 0    60   ~ 0
~WE
Text Label 8450 1700 0    60   ~ 0
~OE
Text Label 8450 2000 0    60   ~ 0
~CS1
Text Label 13350 2200 0    60   ~ 0
~CS2
Text Label 13350 2300 0    60   ~ 0
~CS3
Text Label 6000 6300 0    60   ~ 0
~CS3
Text Label 7900 5950 0    60   ~ 0
A0
Text Label 7900 5850 0    60   ~ 0
~WE
Text Label 7900 6050 0    60   ~ 0
D0
Text Label 7900 6150 0    60   ~ 0
D1
Text Label 7900 6250 0    60   ~ 0
D2
Text Label 7900 6350 0    60   ~ 0
D3
Text Label 7900 6450 0    60   ~ 0
D4
Text Label 7900 6550 0    60   ~ 0
D5
Text Label 7900 6650 0    60   ~ 0
D6
Text Label 7900 6750 0    60   ~ 0
D7
Text Notes 5500 4600 1    50   ~ 0
Logic Analyzer Header (MCU)
Text Label 6450 3550 0    50   ~ 0
MDEBUG0
Text Label 6450 3650 0    50   ~ 0
MDEBUG1
Text Label 6450 3750 0    50   ~ 0
MDEBUG2
Text Label 6450 3850 0    50   ~ 0
MDEBUG3
Text Label 6450 3950 0    50   ~ 0
MDEBUG4
Text Label 6450 4050 0    50   ~ 0
MDEBUG5
Text Label 6450 4150 0    50   ~ 0
MDEBUG6
Text Label 6450 4250 0    50   ~ 0
MDEBUG7
Text HLabel 15700 4550 2    60   Output ~ 0
A0
Text HLabel 15700 4650 2    60   Output ~ 0
A1
Text HLabel 15700 4750 2    60   Output ~ 0
A2
Text HLabel 15700 4850 2    60   Output ~ 0
A3
Text HLabel 15700 4950 2    60   Output ~ 0
A4
Text HLabel 15700 5050 2    60   Output ~ 0
A5
Text HLabel 15700 5150 2    60   Output ~ 0
A6
Text HLabel 15700 5250 2    60   Output ~ 0
A7
Text HLabel 15700 5350 2    60   Output ~ 0
A8
Text HLabel 15700 5450 2    60   Output ~ 0
A9
Text HLabel 15700 5550 2    60   Output ~ 0
A10
Text HLabel 15700 5650 2    60   Output ~ 0
A11
Text HLabel 15700 5750 2    60   Output ~ 0
A12
Text HLabel 15700 5850 2    60   Output ~ 0
A13
Text HLabel 15700 5950 2    60   Output ~ 0
A14
Text HLabel 15700 6050 2    60   Output ~ 0
A15
Text HLabel 15700 6150 2    60   BiDi ~ 0
D0
Text HLabel 15700 6250 2    60   BiDi ~ 0
D1
Text HLabel 15700 6350 2    60   BiDi ~ 0
D2
Text HLabel 15700 6450 2    60   BiDi ~ 0
D3
Text HLabel 15700 6550 2    60   BiDi ~ 0
D4
Text HLabel 15700 6650 2    60   BiDi ~ 0
D5
Text HLabel 15700 6750 2    60   BiDi ~ 0
D6
Text HLabel 15700 6850 2    60   BiDi ~ 0
D7
Text Label 15250 4550 0    60   ~ 0
A0
Text Label 15250 4650 0    60   ~ 0
A1
Text Label 15250 4750 0    60   ~ 0
A2
Text Label 15250 4850 0    60   ~ 0
A3
Text Label 15250 4950 0    60   ~ 0
A4
Text Label 15250 5050 0    60   ~ 0
A5
Text Label 15250 5150 0    60   ~ 0
A6
Text Label 15250 5250 0    60   ~ 0
A7
Text Label 15250 5350 0    60   ~ 0
A8
Text Label 15250 5450 0    60   ~ 0
A9
Text Label 15250 5550 0    60   ~ 0
A10
Text Label 15250 5650 0    60   ~ 0
A11
Text Label 15250 5750 0    60   ~ 0
A12
Text Label 15250 5850 0    60   ~ 0
A13
Text Label 15250 5950 0    60   ~ 0
A14
Text Label 15250 6050 0    60   ~ 0
A15
Text Label 15250 6150 0    60   ~ 0
D0
Text Label 15250 6250 0    60   ~ 0
D1
Text Label 15250 6350 0    60   ~ 0
D2
Text Label 15250 6450 0    60   ~ 0
D3
Text Label 15250 6550 0    60   ~ 0
D4
Text Label 15250 6650 0    60   ~ 0
D5
Text Label 15250 6750 0    60   ~ 0
D6
Text Label 15250 6850 0    60   ~ 0
D7
Text Label 15250 7050 0    60   ~ 0
~CS2
Text Label 15250 6950 0    60   ~ 0
~CS1
Text Label 15250 7150 0    60   ~ 0
~OE
Text Label 15250 7250 0    60   ~ 0
~WE
Text Label 15250 7350 0    60   ~ 0
REFCLK
Text HLabel 15700 6950 2    60   Output ~ 0
~CS1
Text HLabel 15700 7050 2    60   Output ~ 0
~CS2
Text HLabel 15700 7150 2    60   Output ~ 0
~OE
Text HLabel 15700 7250 2    60   Output ~ 0
~WE
Text HLabel 15700 7350 2    60   Output ~ 0
REFCLK
Text HLabel 15700 7450 2    60   Output ~ 0
~FRESET
Text HLabel 15700 7550 2    60   Input ~ 0
FINT
Text Label 15250 7450 0    60   ~ 0
~FRESET
Text Label 15250 7550 0    60   ~ 0
FINT
Text Label 10000 2400 0    60   ~ 0
FINT
Text Label 10000 2500 0    60   ~ 0
~FRESET
Text Label 11800 3250 0    60   ~ 0
~FRESET
Text Label 2250 6000 0    60   ~ 0
DM
Text Label 2250 6100 0    60   ~ 0
DP
Text Label 2500 5300 0    60   ~ 0
VBUS2
Text Label 1950 5300 2    60   ~ 0
VBUS1
Text Label 2900 2700 0    50   ~ 0
MDEBUG0
Text Label 2900 2800 0    50   ~ 0
MDEBUG1
Text Label 8500 2100 0    50   ~ 0
MDEBUG2
Text Label 8500 2200 0    50   ~ 0
MDEBUG3
Text Label 8500 2300 0    50   ~ 0
MDEBUG4
Text Label 8500 2400 0    50   ~ 0
MDEBUG5
Text Label 8500 2500 0    50   ~ 0
MDEBUG6
Text Label 8500 2600 0    50   ~ 0
MDEBUG7
Wire Wire Line
	3550 7400 3550 7900
Wire Wire Line
	3750 7400 3750 7500
Wire Wire Line
	3750 7800 3750 7850
Wire Wire Line
	3750 7850 3550 7850
Wire Wire Line
	2050 5400 2050 5300
Wire Wire Line
	1900 5300 2150 5300
Wire Wire Line
	1850 5900 1900 5900
Wire Wire Line
	1900 5900 1900 5300
Wire Wire Line
	2050 5700 2050 5750
Wire Wire Line
	2450 5300 2550 5300
Wire Wire Line
	2550 5300 2550 5900
Wire Wire Line
	2550 5900 2950 5900
Wire Wire Line
	1850 6000 2950 6000
Wire Wire Line
	2950 6100 1850 6100
Wire Wire Line
	2700 4200 2700 4300
Wire Wire Line
	2700 4600 2700 4650
Wire Wire Line
	1650 4250 3350 4250
Wire Wire Line
	3350 4250 3350 5000
Wire Wire Line
	2950 5700 2900 5700
Wire Wire Line
	2900 5700 2900 4950
Wire Wire Line
	2900 4950 3350 4950
Wire Wire Line
	4300 4650 4300 4600
Wire Wire Line
	3900 4650 3900 4600
Wire Wire Line
	3750 5000 3750 4250
Wire Wire Line
	3750 4250 3900 4250
Wire Wire Line
	3900 4250 3900 4300
Wire Wire Line
	3550 5000 3550 4150
Wire Wire Line
	3550 4150 4300 4150
Wire Wire Line
	4300 4150 4300 4300
Wire Wire Line
	1950 6300 1950 6200
Wire Wire Line
	1950 6200 1850 6200
Wire Wire Line
	1400 6900 1400 6850
Wire Wire Line
	1400 6550 1400 6500
Wire Wire Line
	1650 4300 1650 4250
Wire Wire Line
	2350 4300 2350 4250
Wire Wire Line
	2000 4300 2000 4250
Wire Wire Line
	1650 4650 1650 4600
Wire Wire Line
	2000 4600 2000 4650
Wire Wire Line
	2350 4650 2350 4600
Wire Wire Line
	13700 7950 13700 7850
Wire Wire Line
	13700 7900 13800 7900
Wire Wire Line
	13800 7900 13800 7850
Wire Wire Line
	4350 5900 5100 5900
Wire Wire Line
	4350 6000 5100 6000
Wire Wire Line
	4350 6100 5100 6100
Wire Wire Line
	4350 6200 5100 6200
Wire Wire Line
	4350 6300 5100 6300
Wire Wire Line
	4350 6400 5100 6400
Wire Wire Line
	4350 6500 5100 6500
Wire Wire Line
	4350 6600 5100 6600
Wire Wire Line
	4350 6700 5100 6700
Wire Wire Line
	4350 6800 5100 6800
Wire Wire Line
	4350 6900 5100 6900
Wire Wire Line
	4350 7000 5100 7000
Wire Wire Line
	2950 6600 2400 6600
Wire Wire Line
	13450 4450 13450 5050
Wire Wire Line
	13450 4950 13350 4950
Wire Wire Line
	13550 4250 13350 4250
Wire Wire Line
	13350 4450 13450 4450
Wire Wire Line
	13350 4750 13450 4750
Wire Wire Line
	13350 4350 14200 4350
Wire Wire Line
	13350 4550 14200 4550
Wire Wire Line
	13350 4650 14200 4650
Wire Wire Line
	13350 4850 14200 4850
Wire Wire Line
	1600 1600 850  1600
Wire Wire Line
	1600 2600 850  2600
Wire Wire Line
	1600 2700 850  2700
Wire Wire Line
	3400 1300 2650 1300
Wire Wire Line
	3400 1400 2650 1400
Wire Wire Line
	3400 1600 2650 1600
Wire Wire Line
	3400 2300 2650 2300
Wire Wire Line
	3400 2400 2650 2400
Wire Wire Line
	3400 1800 2650 1800
Wire Wire Line
	3400 2500 2650 2500
Wire Wire Line
	3400 2600 2650 2600
Wire Wire Line
	6900 1300 6150 1300
Wire Wire Line
	6900 1500 6150 1500
Wire Wire Line
	6900 1600 6150 1600
Wire Wire Line
	1600 1800 850  1800
Wire Wire Line
	1600 2100 850  2100
Wire Wire Line
	1600 2200 850  2200
Wire Wire Line
	12200 1300 11550 1300
Wire Wire Line
	12200 1400 11550 1400
Wire Wire Line
	12200 1500 11550 1500
Wire Wire Line
	12200 1600 11550 1600
Wire Wire Line
	12200 1700 11550 1700
Wire Wire Line
	12200 1800 11550 1800
Wire Wire Line
	12200 2500 11550 2500
Wire Wire Line
	12200 2600 11550 2600
Wire Wire Line
	12200 2700 11550 2700
Wire Wire Line
	12200 2800 11550 2800
Wire Wire Line
	13950 1300 13300 1300
Wire Wire Line
	13950 1400 13300 1400
Wire Wire Line
	13950 1500 13300 1500
Wire Wire Line
	13950 1600 13300 1600
Wire Wire Line
	13950 1700 13300 1700
Wire Wire Line
	13950 1800 13300 1800
Wire Wire Line
	9000 2700 8400 2700
Wire Wire Line
	9000 2800 8400 2800
Wire Wire Line
	9000 1300 8400 1300
Wire Wire Line
	9000 1400 8400 1400
Wire Wire Line
	10600 2000 9950 2000
Wire Wire Line
	10600 2100 9950 2100
Wire Wire Line
	10600 2200 9950 2200
Wire Wire Line
	10600 2300 9950 2300
Wire Wire Line
	13950 2200 13300 2200
Wire Wire Line
	9000 1700 8400 1700
Wire Wire Line
	9000 1800 8400 1800
Wire Wire Line
	9000 2000 8400 2000
Wire Wire Line
	13950 2300 13300 2300
Wire Wire Line
	7350 5750 8300 5750
Wire Wire Line
	8300 5850 7800 5850
Wire Wire Line
	8300 5950 7800 5950
Wire Wire Line
	8300 6050 7800 6050
Wire Wire Line
	8300 6150 7800 6150
Wire Wire Line
	8300 6250 7800 6250
Wire Wire Line
	8300 6350 7800 6350
Wire Wire Line
	8300 6450 7800 6450
Wire Wire Line
	8300 6550 7800 6550
Wire Wire Line
	8300 6650 7800 6650
Wire Wire Line
	8300 6750 7800 6750
Wire Wire Line
	6300 6300 5850 6300
Wire Wire Line
	7350 5750 7350 6300
Wire Wire Line
	7350 6300 7000 6300
Wire Wire Line
	6650 6650 6650 6600
Wire Wire Line
	7900 5550 8300 5550
Wire Wire Line
	6650 5900 6650 6000
Wire Wire Line
	7900 5150 8300 5150
Wire Wire Line
	8200 5150 8200 5050
Wire Wire Line
	7900 5500 7900 5550
Wire Wire Line
	7900 5200 7900 5150
Wire Wire Line
	8050 5350 8300 5350
Wire Wire Line
	10800 5400 10800 5850
Wire Wire Line
	10800 5850 11500 5850
Wire Wire Line
	11500 5800 11500 5900
Wire Wire Line
	11100 5550 11100 5850
Wire Wire Line
	11500 5300 11500 5500
Wire Wire Line
	11400 5400 12200 5400
Wire Wire Line
	11500 4900 11500 5000
Wire Wire Line
	11900 7250 11900 7150
Wire Wire Line
	12250 7250 12250 7150
Wire Wire Line
	12250 6850 12250 6650
Wire Wire Line
	12250 6650 12550 6650
Wire Wire Line
	11900 6850 11900 6550
Wire Wire Line
	11900 6550 12550 6550
Wire Wire Line
	10850 7050 10850 6950
Wire Wire Line
	10850 6200 10850 6650
Wire Wire Line
	10850 6450 10900 6450
Wire Wire Line
	11200 6450 11300 6450
Wire Wire Line
	11250 6650 11250 6450
Wire Wire Line
	11250 7050 11250 6950
Wire Wire Line
	11600 6350 11600 6200
Wire Wire Line
	11600 6200 10850 6200
Wire Wire Line
	12550 6250 12400 6250
Wire Wire Line
	12400 6250 12400 5650
Wire Wire Line
	12400 5650 13800 5650
Wire Wire Line
	13700 5650 13700 5750
Wire Wire Line
	13600 5750 13600 5650
Wire Wire Line
	13500 5550 13500 5750
Wire Wire Line
	12200 5400 12200 6150
Wire Wire Line
	12200 6150 12550 6150
Wire Wire Line
	12550 6050 12050 6050
Wire Wire Line
	12050 6050 12050 6100
Wire Wire Line
	13800 5650 13800 5750
Wire Wire Line
	8100 6950 8300 6950
Wire Wire Line
	7600 6850 7600 6950
Wire Wire Line
	7600 6950 7800 6950
Wire Wire Line
	8200 7250 8200 7150
Wire Wire Line
	8200 7150 8300 7150
Wire Wire Line
	950  9500 950  9600
Wire Wire Line
	950  9900 950  10000
Wire Wire Line
	1300 9500 1300 9600
Wire Wire Line
	1300 9900 1300 10000
Wire Wire Line
	1650 9500 1650 9600
Wire Wire Line
	1650 9900 1650 10000
Wire Wire Line
	2000 9500 2000 9600
Wire Wire Line
	2000 9900 2000 10000
Wire Wire Line
	4050 9500 4050 9600
Wire Wire Line
	4050 9900 4050 10000
Wire Wire Line
	4400 9500 4400 9600
Wire Wire Line
	4400 9900 4400 10000
Wire Wire Line
	4750 9500 4750 9600
Wire Wire Line
	4750 9900 4750 10000
Wire Wire Line
	5100 9500 5100 9600
Wire Wire Line
	5100 9900 5100 10000
Wire Wire Line
	2500 9500 2500 9600
Wire Wire Line
	2500 9900 2500 10000
Wire Wire Line
	2850 9500 2850 9600
Wire Wire Line
	2850 9900 2850 10000
Wire Wire Line
	3200 9500 3200 9600
Wire Wire Line
	3200 9900 3200 10000
Wire Wire Line
	3550 9500 3550 9600
Wire Wire Line
	3550 9900 3550 10000
Wire Wire Line
	5600 9500 5600 9600
Wire Wire Line
	5600 9900 5600 10000
Wire Wire Line
	5950 9500 5950 9600
Wire Wire Line
	5950 9900 5950 10000
Wire Wire Line
	5650 4350 5650 3550
Wire Wire Line
	5650 3550 5750 3550
Wire Wire Line
	5750 3650 5650 3650
Wire Wire Line
	5750 3750 5650 3750
Wire Wire Line
	5750 3850 5650 3850
Wire Wire Line
	5750 3950 5650 3950
Wire Wire Line
	5750 4050 5650 4050
Wire Wire Line
	5750 4150 5650 4150
Wire Wire Line
	5750 4250 5650 4250
Wire Wire Line
	6250 3550 6950 3550
Wire Wire Line
	6250 3650 6950 3650
Wire Wire Line
	6250 3750 6950 3750
Wire Wire Line
	6250 3850 6950 3850
Wire Wire Line
	6250 3950 6950 3950
Wire Wire Line
	6250 4050 6950 4050
Wire Wire Line
	6250 4150 6950 4150
Wire Wire Line
	6250 4250 6950 4250
Wire Wire Line
	11600 6450 12550 6450
Wire Wire Line
	11600 6350 12550 6350
Wire Wire Line
	15700 4550 15150 4550
Wire Wire Line
	15700 4650 15150 4650
Wire Wire Line
	15700 4750 15150 4750
Wire Wire Line
	15700 4850 15150 4850
Wire Wire Line
	15700 4950 15150 4950
Wire Wire Line
	15700 5050 15150 5050
Wire Wire Line
	15700 5150 15150 5150
Wire Wire Line
	15700 5250 15150 5250
Wire Wire Line
	15700 5350 15150 5350
Wire Wire Line
	15700 5450 15150 5450
Wire Wire Line
	15700 5550 15150 5550
Wire Wire Line
	15700 5650 15150 5650
Wire Wire Line
	15700 5750 15150 5750
Wire Wire Line
	15700 5850 15150 5850
Wire Wire Line
	15700 5950 15150 5950
Wire Wire Line
	15700 6050 15150 6050
Wire Wire Line
	15700 6150 15150 6150
Wire Wire Line
	15700 6250 15150 6250
Wire Wire Line
	15700 6350 15150 6350
Wire Wire Line
	15700 6450 15150 6450
Wire Wire Line
	15700 6550 15150 6550
Wire Wire Line
	15700 6650 15150 6650
Wire Wire Line
	15700 6750 15150 6750
Wire Wire Line
	15700 6850 15150 6850
Wire Wire Line
	15700 6950 15150 6950
Wire Wire Line
	15700 7050 15150 7050
Wire Wire Line
	15700 7150 15150 7150
Wire Wire Line
	15700 7250 15150 7250
Wire Wire Line
	15700 7350 15150 7350
Wire Wire Line
	15700 7450 15150 7450
Wire Wire Line
	15700 7550 15150 7550
Wire Wire Line
	10600 2500 9950 2500
Wire Wire Line
	10600 2400 9950 2400
Wire Wire Line
	11700 3300 11700 3250
Wire Wire Line
	11700 3250 12200 3250
Wire Wire Line
	11700 3650 11700 3600
Wire Wire Line
	2700 2700 3400 2700
Wire Wire Line
	2700 2800 3400 2800
Wire Wire Line
	8300 2100 9000 2100
Wire Wire Line
	8300 2200 9000 2200
Wire Wire Line
	8300 2300 9000 2300
Wire Wire Line
	8300 2400 9000 2400
Wire Wire Line
	8300 2500 9000 2500
Wire Wire Line
	8300 2600 9000 2600
Connection ~ 3550 7850
Connection ~ 2050 5300
Connection ~ 2700 4250
Connection ~ 3350 4950
Connection ~ 2350 4250
Connection ~ 2000 4250
Connection ~ 13700 7900
Connection ~ 13450 4950
Connection ~ 13450 4750
Connection ~ 8200 5550
Connection ~ 8200 5150
Connection ~ 11500 5850
Connection ~ 11100 5850
Connection ~ 11500 5400
Connection ~ 11250 6450
Connection ~ 10850 6450
Connection ~ 13600 5650
Connection ~ 13500 5650
Connection ~ 13700 5650
Connection ~ 5650 3650
Connection ~ 5650 3750
Connection ~ 5650 3850
Connection ~ 5650 3950
Connection ~ 5650 4050
Connection ~ 5650 4150
Connection ~ 5650 4250
NoConn ~ 3950 5000
NoConn ~ 4350 5700
NoConn ~ 2950 6200
NoConn ~ 2950 6500
NoConn ~ 2950 6800
NoConn ~ 13350 4150
$EndSCHEMATC
