EESchema Schematic File Version 2
LIBS:Audio
LIBS:Battery
LIBS:Connectors
LIBS:Displays
LIBS:ESD
LIBS:Interface
LIBS:LEDs
LIBS:LightBlueBean
LIBS:Logic
LIBS:Memory
LIBS:PIC12F
LIBS:PIC16F
LIBS:PIC18F
LIBS:Potentiometers
LIBS:Power
LIBS:PMIC
LIBS:RLC
LIBS:RTC
LIBS:STM32F
LIBS:Switches
LIBS:Tag-Connect
LIBS:Transistors
LIBS:Xilinx
LIBS:power
LIBS:device
LIBS:transistors
LIBS:conn
LIBS:linear
LIBS:regul
LIBS:74xx
LIBS:cmos4000
LIBS:adc-dac
LIBS:memory
LIBS:xilinx
LIBS:microcontrollers
LIBS:dsp
LIBS:microchip
LIBS:analog_switches
LIBS:motorola
LIBS:texas
LIBS:intel
LIBS:audio
LIBS:interface
LIBS:digital-audio
LIBS:philips
LIBS:display
LIBS:cypress
LIBS:siliconi
LIBS:opto
LIBS:atmel
LIBS:contrib
LIBS:valves
LIBS:RL02-USB-controller-cache
EELAYER 25 0
EELAYER END
$Descr B 17000 11000
encoding utf-8
Sheet 2 5
Title "RL02-USB Controller"
Date "2016-10-23"
Rev "v1.0"
Comp "Mark J. Blair <nf6x@nf6x.net>"
Comment1 "https://github.com/NF6X/RL02-USB"
Comment2 ""
Comment3 ""
Comment4 ""
$EndDescr
$Comp
L TE_796867-2 J5
U 1 1 57FBDDF0
P 2700 4300
F 0 "J5" V 2300 4300 60  0000 C CNN
F 1 "TE_796867-2" V 2400 4300 60  0000 C CNN
F 2 "NF6X_Connectors:TE_796867-2" H 2700 4700 60  0001 C CNN
F 3 "" H 2700 4300 60  0001 C CNN
F 4 "TE" H 2700 4900 60  0001 C CNN "manf"
F 5 "796867-2" H 2700 4800 60  0001 C CNN "manf#"
	1    2700 4300
	0    -1   1    0   
$EndComp
$Comp
L LM2776DBVR U4
U 1 1 57FBDDF9
P 11050 6050
F 0 "U4" H 11050 6300 60  0000 C CNN
F 1 "LM2776DBVR" H 11050 6200 60  0000 C CNN
F 2 "NF6X_TO-Packages:SOT-23-6" H 11050 6400 60  0001 C CNN
F 3 "" H 11050 6300 60  0001 C CNN
F 4 "TI" H 11050 6600 60  0001 C CNN "manf"
F 5 "LM2776DBVR" H 11050 6500 60  0001 C CNN "manf#"
	1    11050 6050
	1    0    0    -1  
$EndComp
$Comp
L LMZ20501SILR U9
U 1 1 57FBDE02
P 11050 2650
F 0 "U9" H 11050 2900 60  0000 C CNN
F 1 "LMZ20501SILR" H 11050 2800 60  0000 C CNN
F 2 "NF6X_Power:SIL0008F" H 11050 3000 60  0001 C CNN
F 3 "" H 11050 2650 60  0001 C CNN
F 4 "TI" H 11050 3200 60  0001 C CNN "manf"
F 5 "LMZ20501SILR" H 11050 3100 60  0001 C CNN "manf#"
	1    11050 2650
	1    0    0    -1  
$EndComp
$Comp
L +5V #PWR01
U 1 1 57FBBB4F
P 6750 4150
F 0 "#PWR01" H 6750 4000 50  0001 C CNN
F 1 "+5V" H 6750 4290 50  0000 C CNN
F 2 "" H 6750 4150 50  0000 C CNN
F 3 "" H 6750 4150 50  0000 C CNN
	1    6750 4150
	1    0    0    -1  
$EndComp
$Comp
L GND #PWR02
U 1 1 57FBBB6F
P 3050 4450
F 0 "#PWR02" H 3050 4200 50  0001 C CNN
F 1 "GND" H 3050 4300 50  0000 C CNN
F 2 "" H 3050 4450 50  0000 C CNN
F 3 "" H 3050 4450 50  0000 C CNN
	1    3050 4450
	1    0    0    -1  
$EndComp
$Comp
L +1V2 #PWR03
U 1 1 57FBBBDF
P 12250 4150
F 0 "#PWR03" H 12250 4000 50  0001 C CNN
F 1 "+1V2" H 12250 4290 50  0000 C CNN
F 2 "" H 12250 4150 50  0000 C CNN
F 3 "" H 12250 4150 50  0000 C CNN
	1    12250 4150
	1    0    0    -1  
$EndComp
$Comp
L +3V3 #PWR04
U 1 1 57FBBBFF
P 12250 2550
F 0 "#PWR04" H 12250 2400 50  0001 C CNN
F 1 "+3V3" H 12250 2690 50  0000 C CNN
F 2 "" H 12250 2550 50  0000 C CNN
F 3 "" H 12250 2550 50  0000 C CNN
	1    12250 2550
	1    0    0    -1  
$EndComp
$Comp
L -5V #PWR05
U 1 1 57FBBFE8
P 12150 5950
F 0 "#PWR05" H 12150 5800 50  0001 C CNN
F 1 "-5V" H 12150 6090 50  0000 C CNN
F 2 "" H 12150 5950 50  0000 C CNN
F 3 "" H 12150 5950 50  0000 C CNN
	1    12150 5950
	1    0    0    -1  
$EndComp
$Comp
L GND #PWR06
U 1 1 57FD0469
P 11050 3550
F 0 "#PWR06" H 11050 3300 50  0001 C CNN
F 1 "GND" H 11050 3400 50  0000 C CNN
F 2 "" H 11050 3550 50  0000 C CNN
F 3 "" H 11050 3550 50  0000 C CNN
	1    11050 3550
	1    0    0    -1  
$EndComp
$Comp
L C C24
U 1 1 57FD052E
P 11950 2850
F 0 "C24" H 11975 2950 50  0000 L CNN
F 1 "16pF" H 11975 2750 50  0000 L CNN
F 2 "Capacitors_SMD:C_0402" H 11988 2700 50  0001 C CNN
F 3 "" H 11950 2850 50  0000 C CNN
F 4 "Murata" H 11950 2850 60  0001 C CNN "manf"
F 5 "GRM1555C1H160JA01D" H 11950 2850 60  0001 C CNN "manf#"
	1    11950 2850
	1    0    0    -1  
$EndComp
$Comp
L R R39
U 1 1 57FD0579
P 11700 2850
F 0 "R39" V 11780 2850 50  0000 C CNN
F 1 "80.6k" V 11700 2850 40  0000 C CNN
F 2 "Resistors_SMD:R_0402" V 11630 2850 50  0001 C CNN
F 3 "" H 11700 2850 50  0000 C CNN
F 4 "Yageo" V 11700 2850 60  0001 C CNN "manf"
F 5 "RC0402FR-0780K6L" V 11700 2850 60  0001 C CNN "manf#"
	1    11700 2850
	1    0    0    -1  
$EndComp
$Comp
L C C20
U 1 1 57FD0704
P 9850 2850
F 0 "C20" H 9875 2950 50  0000 L CNN
F 1 "10uF" H 9875 2750 50  0000 L CNN
F 2 "Capacitors_SMD:C_0805" H 9888 2700 50  0001 C CNN
F 3 "" H 9850 2850 50  0000 C CNN
F 4 "Samsung" H 9850 2850 60  0001 C CNN "manf"
F 5 "CL21B106KOQNNNE" H 9850 2850 60  0001 C CNN "manf#"
	1    9850 2850
	1    0    0    -1  
$EndComp
$Comp
L C C48
U 1 1 57FD0AD9
P 11950 4450
F 0 "C48" H 11975 4550 50  0000 L CNN
F 1 "20pF" H 11975 4350 50  0000 L CNN
F 2 "Capacitors_SMD:C_0402" H 11988 4300 50  0001 C CNN
F 3 "" H 11950 4450 50  0000 C CNN
F 4 "Murata" H 11950 4450 60  0001 C CNN "manf"
F 5 "GRM1555C1H200JA01D" H 11950 4450 60  0001 C CNN "manf#"
	1    11950 4450
	1    0    0    -1  
$EndComp
$Comp
L R R40
U 1 1 57FD0E6B
P 11700 3250
F 0 "R40" V 11780 3250 50  0000 C CNN
F 1 "40.2k" V 11700 3250 40  0000 C CNN
F 2 "Resistors_SMD:R_0402" V 11630 3250 50  0001 C CNN
F 3 "" H 11700 3250 50  0000 C CNN
F 4 "Yageo" V 11700 3250 60  0001 C CNN "manf"
F 5 "RC0402FR-0740K2L" V 11700 3250 60  0001 C CNN "manf#"
	1    11700 3250
	1    0    0    -1  
$EndComp
$Comp
L +5V #PWR07
U 1 1 57FD1251
P 9850 2550
F 0 "#PWR07" H 9850 2400 50  0001 C CNN
F 1 "+5V" H 9850 2690 50  0000 C CNN
F 2 "" H 9850 2550 50  0000 C CNN
F 3 "" H 9850 2550 50  0000 C CNN
	1    9850 2550
	1    0    0    -1  
$EndComp
$Comp
L LMZ20501SILR U18
U 1 1 57FD1515
P 11050 4250
F 0 "U18" H 11050 4500 60  0000 C CNN
F 1 "LMZ20501SILR" H 11050 4400 60  0000 C CNN
F 2 "NF6X_Power:SIL0008F" H 11050 4600 60  0001 C CNN
F 3 "" H 11050 4250 60  0001 C CNN
F 4 "TI" H 11050 4800 60  0001 C CNN "manf"
F 5 "LMZ20501SILR" H 11050 4700 60  0001 C CNN "manf#"
	1    11050 4250
	1    0    0    -1  
$EndComp
$Comp
L GND #PWR08
U 1 1 57FD1521
P 11050 5150
F 0 "#PWR08" H 11050 4900 50  0001 C CNN
F 1 "GND" H 11050 5000 50  0000 C CNN
F 2 "" H 11050 5150 50  0000 C CNN
F 3 "" H 11050 5150 50  0000 C CNN
	1    11050 5150
	1    0    0    -1  
$EndComp
$Comp
L R R51
U 1 1 57FD1535
P 11700 4450
F 0 "R51" V 11780 4450 50  0000 C CNN
F 1 "30.1k" V 11700 4450 40  0000 C CNN
F 2 "Resistors_SMD:R_0402" V 11630 4450 50  0001 C CNN
F 3 "" H 11700 4450 50  0000 C CNN
F 4 "Yageo" V 11700 4450 60  0001 C CNN "manf"
F 5 "RC0402FR-0730K1L" V 11700 4450 60  0001 C CNN "manf#"
	1    11700 4450
	1    0    0    -1  
$EndComp
$Comp
L +5V #PWR09
U 1 1 57FD1576
P 9850 4150
F 0 "#PWR09" H 9850 4000 50  0001 C CNN
F 1 "+5V" H 9850 4290 50  0000 C CNN
F 2 "" H 9850 4150 50  0000 C CNN
F 3 "" H 9850 4150 50  0000 C CNN
	1    9850 4150
	1    0    0    -1  
$EndComp
$Comp
L R R50
U 1 1 57FD1B00
P 11700 4850
F 0 "R50" V 11780 4850 50  0000 C CNN
F 1 "30.1k" V 11700 4850 40  0000 C CNN
F 2 "Resistors_SMD:R_0402" V 11630 4850 50  0001 C CNN
F 3 "" H 11700 4850 50  0000 C CNN
F 4 "Yageo" V 11700 4850 60  0001 C CNN "manf"
F 5 "RC0402FR-0730K1L" V 11700 4850 60  0001 C CNN "manf#"
	1    11700 4850
	1    0    0    -1  
$EndComp
$Comp
L C C21
U 1 1 57FD20A8
P 10150 2850
F 0 "C21" H 10175 2950 50  0000 L CNN
F 1 "10uF" H 10175 2750 50  0000 L CNN
F 2 "Capacitors_SMD:C_0805" H 10188 2700 50  0001 C CNN
F 3 "" H 10150 2850 50  0000 C CNN
F 4 "Samsung" H 10150 2850 60  0001 C CNN "manf"
F 5 "CL21B106KOQNNNE" H 10150 2850 60  0001 C CNN "manf#"
	1    10150 2850
	1    0    0    -1  
$EndComp
$Comp
L C C23
U 1 1 57FD20E2
P 12250 2850
F 0 "C23" H 12275 2950 50  0000 L CNN
F 1 "10uF" H 12275 2750 50  0000 L CNN
F 2 "Capacitors_SMD:C_0805" H 12288 2700 50  0001 C CNN
F 3 "" H 12250 2850 50  0000 C CNN
F 4 "Samsung" H 12250 2850 60  0001 C CNN "manf"
F 5 "CL21B106KOQNNNE" H 12250 2850 60  0001 C CNN "manf#"
	1    12250 2850
	1    0    0    -1  
$EndComp
$Comp
L C C43
U 1 1 57FD212C
P 12250 4450
F 0 "C43" H 12275 4550 50  0000 L CNN
F 1 "10uF" H 12275 4350 50  0000 L CNN
F 2 "Capacitors_SMD:C_0805" H 12288 4300 50  0001 C CNN
F 3 "" H 12250 4450 50  0000 C CNN
F 4 "Samsung" H 12250 4450 60  0001 C CNN "manf"
F 5 "CL21B106KOQNNNE" H 12250 4450 60  0001 C CNN "manf#"
	1    12250 4450
	1    0    0    -1  
$EndComp
$Comp
L C C35
U 1 1 57FD2176
P 10150 4450
F 0 "C35" H 10175 4550 50  0000 L CNN
F 1 "10uF" H 10175 4350 50  0000 L CNN
F 2 "Capacitors_SMD:C_0805" H 10188 4300 50  0001 C CNN
F 3 "" H 10150 4450 50  0000 C CNN
F 4 "Samsung" H 10150 4450 60  0001 C CNN "manf"
F 5 "CL21B106KOQNNNE" H 10150 4450 60  0001 C CNN "manf#"
	1    10150 4450
	1    0    0    -1  
$EndComp
$Comp
L C C42
U 1 1 57FD21C1
P 9850 4450
F 0 "C42" H 9875 4550 50  0000 L CNN
F 1 "10uF" H 9875 4350 50  0000 L CNN
F 2 "Capacitors_SMD:C_0805" H 9888 4300 50  0001 C CNN
F 3 "" H 9850 4450 50  0000 C CNN
F 4 "Samsung" H 9850 4450 60  0001 C CNN "manf"
F 5 "CL21B106KOQNNNE" H 9850 4450 60  0001 C CNN "manf#"
	1    9850 4450
	1    0    0    -1  
$EndComp
$Comp
L C C6
U 1 1 57FD2238
P 11800 6350
F 0 "C6" H 11825 6450 50  0000 L CNN
F 1 "1uF" H 11825 6250 50  0000 L CNN
F 2 "Capacitors_SMD:C_0805" H 11838 6200 50  0001 C CNN
F 3 "" H 11800 6350 50  0000 C CNN
F 4 "Murata" H 11800 6350 60  0001 C CNN "manf"
F 5 "GRM21BR71C105KA01L" H 11800 6350 60  0001 C CNN "manf#"
	1    11800 6350
	1    0    0    -1  
$EndComp
$Comp
L C C7
U 1 1 57FD22CC
P 10200 6350
F 0 "C7" H 10225 6450 50  0000 L CNN
F 1 "2.2uF" H 10225 6250 50  0000 L CNN
F 2 "Capacitors_SMD:C_0805" H 10238 6200 50  0001 C CNN
F 3 "" H 10200 6350 50  0000 C CNN
F 4 "Murata" H 10200 6350 60  0001 C CNN "manf"
F 5 "GRM21BR71C225KA12L" H 10200 6350 60  0001 C CNN "manf#"
	1    10200 6350
	1    0    0    -1  
$EndComp
$Comp
L +5V #PWR010
U 1 1 57FD249C
P 10200 5950
F 0 "#PWR010" H 10200 5800 50  0001 C CNN
F 1 "+5V" H 10200 6090 50  0000 C CNN
F 2 "" H 10200 5950 50  0000 C CNN
F 3 "" H 10200 5950 50  0000 C CNN
	1    10200 5950
	1    0    0    -1  
$EndComp
$Comp
L GND #PWR011
U 1 1 57FD24DD
P 11050 6850
F 0 "#PWR011" H 11050 6600 50  0001 C CNN
F 1 "GND" H 11050 6700 50  0000 C CNN
F 2 "" H 11050 6850 50  0000 C CNN
F 3 "" H 11050 6850 50  0000 C CNN
	1    11050 6850
	1    0    0    -1  
$EndComp
$Comp
L C C5
U 1 1 57FD2520
P 12150 6350
F 0 "C5" H 12175 6450 50  0000 L CNN
F 1 "2.2uF" H 12175 6250 50  0000 L CNN
F 2 "Capacitors_SMD:C_0805" H 12188 6200 50  0001 C CNN
F 3 "" H 12150 6350 50  0000 C CNN
F 4 "Murata" H 12150 6350 60  0001 C CNN "manf"
F 5 "GRM21BR71C225KA12L" H 12150 6350 60  0001 C CNN "manf#"
	1    12150 6350
	1    0    0    -1  
$EndComp
$Comp
L LMZ12003TZX-ADJ/NOPB U8
U 1 1 5805AE98
P 5150 4250
F 0 "U8" H 5150 4500 60  0000 C CNN
F 1 "LMZ12003TZX-ADJ/NOPB" H 5150 4400 60  0000 C CNN
F 2 "NF6X_Power:NDW0007A" H 5150 4600 60  0001 C CNN
F 3 "" H 5150 4250 60  0001 C CNN
F 4 "TI" H 5150 4800 60  0001 C CNN "manf"
F 5 "LMZ12003TZX-ADJ/NOPB" H 5150 4700 60  0001 C CNN "manf#"
	1    5150 4250
	1    0    0    -1  
$EndComp
$Comp
L GND #PWR012
U 1 1 5805AF6D
P 5350 5450
F 0 "#PWR012" H 5350 5200 50  0001 C CNN
F 1 "GND" H 5350 5300 50  0000 C CNN
F 2 "" H 5350 5450 50  0000 C CNN
F 3 "" H 5350 5450 50  0000 C CNN
	1    5350 5450
	1    0    0    -1  
$EndComp
$Comp
L C C22
U 1 1 5805B1E6
P 5350 5200
F 0 "C22" H 5375 5300 50  0000 L CNN
F 1 "10nF" H 5375 5100 50  0000 L CNN
F 2 "Capacitors_SMD:C_0805" H 5388 5050 50  0001 C CNN
F 3 "" H 5350 5200 50  0000 C CNN
F 4 "Murata" H 5350 5200 60  0001 C CNN "manf"
F 5 "GRM216R71H103KA01D" H 5350 5200 60  0001 C CNN "manf#"
	1    5350 5200
	1    0    0    -1  
$EndComp
$Comp
L C C31
U 1 1 5805B408
P 6100 4450
F 0 "C31" H 6125 4550 50  0000 L CNN
F 1 "22nF" H 6125 4350 50  0000 L CNN
F 2 "Capacitors_SMD:C_0805" H 6138 4300 50  0001 C CNN
F 3 "" H 6100 4450 50  0000 C CNN
F 4 "Yageo" H 6100 4450 60  0001 C CNN "manf"
F 5 "CC0805KRX7R9BB223" H 6100 4450 60  0001 C CNN "manf#"
	1    6100 4450
	1    0    0    -1  
$EndComp
$Comp
L C C13
U 1 1 5805B512
P 3750 4600
F 0 "C13" H 3775 4700 50  0000 L CNN
F 1 "10uF" H 3775 4500 50  0000 L CNN
F 2 "Capacitors_SMD:C_1210" H 3788 4450 50  0001 C CNN
F 3 "" H 3750 4600 50  0000 C CNN
F 4 "Murata" H 3750 4600 60  0001 C CNN "manf"
F 5 "GRM32ER7YA106KA12L" H 3750 4600 60  0001 C CNN "manf#"
	1    3750 4600
	1    0    0    -1  
$EndComp
$Comp
L C C32
U 1 1 5805B807
P 6450 4450
F 0 "C32" H 6475 4550 50  0000 L CNN
F 1 "100uF" H 6475 4350 50  0000 L CNN
F 2 "Capacitors_SMD:C_1206" H 6488 4300 50  0001 C CNN
F 3 "" H 6450 4450 50  0000 C CNN
F 4 "Murata" H 6450 4450 60  0001 C CNN "manf"
F 5 "GRM31CR60J107ME39L" H 6450 4450 60  0001 C CNN "manf#"
	1    6450 4450
	1    0    0    -1  
$EndComp
$Comp
L R R37
U 1 1 5805BBF2
P 5800 4850
F 0 "R37" V 5880 4850 50  0000 C CNN
F 1 "1.07k" V 5800 4850 40  0000 C CNN
F 2 "Resistors_SMD:R_0402" V 5730 4850 50  0001 C CNN
F 3 "" H 5800 4850 50  0000 C CNN
F 4 "Yageo" V 5800 4850 60  0001 C CNN "manf"
F 5 "RC0402FR-071K07L" V 5800 4850 60  0001 C CNN "manf#"
	1    5800 4850
	1    0    0    -1  
$EndComp
$Comp
L R R38
U 1 1 5805BDA3
P 5800 4450
F 0 "R38" V 5880 4450 50  0000 C CNN
F 1 "5.62k" V 5800 4450 40  0000 C CNN
F 2 "Resistors_SMD:R_0402" V 5730 4450 50  0001 C CNN
F 3 "" H 5800 4450 50  0000 C CNN
F 4 "Yageo" V 5800 4450 60  0001 C CNN "manf"
F 5 "RC0402FR-075K62L" V 5800 4450 60  0001 C CNN "manf#"
	1    5800 4450
	1    0    0    -1  
$EndComp
$Comp
L R R36
U 1 1 5805BEB5
P 4550 4900
F 0 "R36" V 4630 4900 50  0000 C CNN
F 1 "4.53k" V 4550 4900 40  0000 C CNN
F 2 "Resistors_SMD:R_0402" V 4480 4900 50  0001 C CNN
F 3 "" H 4550 4900 50  0000 C CNN
F 4 "Yageo" V 4550 4900 60  0001 C CNN "manf"
F 5 "RC0402FR-074K53L" V 4550 4900 60  0001 C CNN "manf#"
	1    4550 4900
	1    0    0    -1  
$EndComp
$Comp
L R R35
U 1 1 5805BFEB
P 4300 4450
F 0 "R35" V 4380 4450 50  0000 C CNN
F 1 "90.9k" V 4300 4450 40  0000 C CNN
F 2 "Resistors_SMD:R_0402" V 4230 4450 50  0001 C CNN
F 3 "" H 4300 4450 50  0000 C CNN
F 4 "Yageo" V 4300 4450 60  0001 C CNN "manf"
F 5 "RC0402FR-0790K9L" V 4300 4450 60  0001 C CNN "manf#"
	1    4300 4450
	0    1    1    0   
$EndComp
$Comp
L R R34
U 1 1 5805C19B
P 4300 4650
F 0 "R34" V 4380 4650 50  0000 C CNN
F 1 "34k" V 4300 4650 40  0000 C CNN
F 2 "Resistors_SMD:R_0402" V 4230 4650 50  0001 C CNN
F 3 "" H 4300 4650 50  0000 C CNN
F 4 "Yageo" V 4300 4650 60  0001 C CNN "manf"
F 5 "RC0402FR-0734KL" V 4300 4650 60  0001 C CNN "manf#"
	1    4300 4650
	0    1    1    0   
$EndComp
$Comp
L D_Schottky D1
U 1 1 5805CDD3
P 3400 4250
F 0 "D1" H 3400 4050 50  0000 C CNN
F 1 "SSC53L-E3/57T" H 3400 4150 50  0000 C CNN
F 2 "Diodes_SMD:SMC_Standard" H 3400 4250 50  0001 C CNN
F 3 "" H 3400 4250 50  0000 C CNN
F 4 "Vishay" H 3400 4250 60  0001 C CNN "manf"
F 5 "SSC53L-E3/57T" H 3400 4250 60  0001 C CNN "manf#"
	1    3400 4250
	-1   0    0    1   
$EndComp
$Comp
L GND #PWR013
U 1 1 5805D9F1
P 5150 5050
F 0 "#PWR013" H 5150 4800 50  0001 C CNN
F 1 "GND" H 5150 4900 50  0000 C CNN
F 2 "" H 5150 5050 50  0000 C CNN
F 3 "" H 5150 5050 50  0000 C CNN
	1    5150 5050
	1    0    0    -1  
$EndComp
$Comp
L GND #PWR014
U 1 1 5805DA56
P 4550 5150
F 0 "#PWR014" H 4550 4900 50  0001 C CNN
F 1 "GND" H 4550 5000 50  0000 C CNN
F 2 "" H 4550 5150 50  0000 C CNN
F 3 "" H 4550 5150 50  0000 C CNN
	1    4550 5150
	1    0    0    -1  
$EndComp
$Comp
L GND #PWR015
U 1 1 5805DABB
P 5800 5100
F 0 "#PWR015" H 5800 4850 50  0001 C CNN
F 1 "GND" H 5800 4950 50  0000 C CNN
F 2 "" H 5800 5100 50  0000 C CNN
F 3 "" H 5800 5100 50  0000 C CNN
	1    5800 5100
	1    0    0    -1  
$EndComp
$Comp
L GND #PWR016
U 1 1 5805DB20
P 6450 4700
F 0 "#PWR016" H 6450 4450 50  0001 C CNN
F 1 "GND" H 6450 4550 50  0000 C CNN
F 2 "" H 6450 4700 50  0000 C CNN
F 3 "" H 6450 4700 50  0000 C CNN
	1    6450 4700
	1    0    0    -1  
$EndComp
$Comp
L GND #PWR017
U 1 1 5805DB85
P 3750 4850
F 0 "#PWR017" H 3750 4600 50  0001 C CNN
F 1 "GND" H 3750 4700 50  0000 C CNN
F 2 "" H 3750 4850 50  0000 C CNN
F 3 "" H 3750 4850 50  0000 C CNN
	1    3750 4850
	1    0    0    -1  
$EndComp
$Comp
L TP_Loop_Red TP4
U 1 1 580D2E52
P 6450 3950
F 0 "TP4" H 6450 4250 60  0000 C CNN
F 1 "TP_Loop_Red" H 6450 4650 60  0001 C CNN
F 2 "NF6X_Connectors:Keystone_5xxx" H 6450 4350 60  0001 C CNN
F 3 "" H 6450 3950 60  0001 C CNN
F 4 "Red" H 6450 3900 60  0000 L CNN "color"
F 5 "Keystone Electronics" H 6450 4550 60  0001 C CNN "manf"
F 6 "5010" H 6450 4450 60  0001 C CNN "manf#"
	1    6450 3950
	1    0    0    -1  
$EndComp
$Comp
L TP_Loop_Red TP5
U 1 1 580D3095
P 11950 2350
F 0 "TP5" H 11950 2650 60  0000 C CNN
F 1 "TP_Loop_Red" H 11950 3050 60  0001 C CNN
F 2 "NF6X_Connectors:Keystone_5xxx" H 11950 2750 60  0001 C CNN
F 3 "" H 11950 2350 60  0001 C CNN
F 4 "Red" H 11950 2300 60  0000 L CNN "color"
F 5 "Keystone Electronics" H 11950 2950 60  0001 C CNN "manf"
F 6 "5010" H 11950 2850 60  0001 C CNN "manf#"
	1    11950 2350
	1    0    0    -1  
$EndComp
$Comp
L TP_Loop_Red TP6
U 1 1 580D311F
P 11950 3950
F 0 "TP6" H 11950 4250 60  0000 C CNN
F 1 "TP_Loop_Red" H 11950 4650 60  0001 C CNN
F 2 "NF6X_Connectors:Keystone_5xxx" H 11950 4350 60  0001 C CNN
F 3 "" H 11950 3950 60  0001 C CNN
F 4 "Red" H 11950 3900 60  0000 L CNN "color"
F 5 "Keystone Electronics" H 11950 4550 60  0001 C CNN "manf"
F 6 "5010" H 11950 4450 60  0001 C CNN "manf#"
	1    11950 3950
	1    0    0    -1  
$EndComp
$Comp
L TP_Loop_Red TP1
U 1 1 580D31A7
P 11900 5750
F 0 "TP1" H 11900 6050 60  0000 C CNN
F 1 "TP_Loop_Red" H 11900 6450 60  0001 C CNN
F 2 "NF6X_Connectors:Keystone_5xxx" H 11900 6150 60  0001 C CNN
F 3 "" H 11900 5750 60  0001 C CNN
F 4 "Red" H 11900 5700 60  0000 L CNN "color"
F 5 "Keystone Electronics" H 11900 6350 60  0001 C CNN "manf"
F 6 "5010" H 11900 6250 60  0001 C CNN "manf#"
	1    11900 5750
	1    0    0    -1  
$EndComp
$Comp
L TP_Loop_Black TP3
U 1 1 580D3403
P 3850 6900
F 0 "TP3" H 3850 7200 60  0000 C CNN
F 1 "TP_Loop_Black" H 3850 7600 60  0001 C CNN
F 2 "NF6X_Connectors:Keystone_5xxx" H 3850 7300 60  0001 C CNN
F 3 "" H 3850 6900 60  0001 C CNN
F 4 "Black" H 3850 6850 60  0000 L CNN "color"
F 5 "Keystone Electronics" H 3850 7500 60  0001 C CNN "manf"
F 6 "5011" H 3850 7400 60  0001 C CNN "manf#"
	1    3850 6900
	1    0    0    -1  
$EndComp
$Comp
L GND #PWR018
U 1 1 580D34B2
P 3850 7150
F 0 "#PWR018" H 3850 6900 50  0001 C CNN
F 1 "GND" H 3850 7000 50  0000 C CNN
F 2 "" H 3850 7150 50  0000 C CNN
F 3 "" H 3850 7150 50  0000 C CNN
	1    3850 7150
	1    0    0    -1  
$EndComp
$Comp
L TP_Loop_Black TP2
U 1 1 580D36FF
P 4200 6900
F 0 "TP2" H 4200 7200 60  0000 C CNN
F 1 "TP_Loop_Black" H 4200 7600 60  0001 C CNN
F 2 "NF6X_Connectors:Keystone_5xxx" H 4200 7300 60  0001 C CNN
F 3 "" H 4200 6900 60  0001 C CNN
F 4 "Black" H 4200 6850 60  0000 L CNN "color"
F 5 "Keystone Electronics" H 4200 7500 60  0001 C CNN "manf"
F 6 "5011" H 4200 7400 60  0001 C CNN "manf#"
	1    4200 6900
	1    0    0    -1  
$EndComp
$Comp
L GND #PWR019
U 1 1 580D3705
P 4200 7150
F 0 "#PWR019" H 4200 6900 50  0001 C CNN
F 1 "GND" H 4200 7000 50  0000 C CNN
F 2 "" H 4200 7150 50  0000 C CNN
F 3 "" H 4200 7150 50  0000 C CNN
	1    4200 7150
	1    0    0    -1  
$EndComp
$Comp
L TP_Loop_Black TP7
U 1 1 580D3785
P 4550 6900
F 0 "TP7" H 4550 7200 60  0000 C CNN
F 1 "TP_Loop_Black" H 4550 7600 60  0001 C CNN
F 2 "NF6X_Connectors:Keystone_5xxx" H 4550 7300 60  0001 C CNN
F 3 "" H 4550 6900 60  0001 C CNN
F 4 "Black" H 4550 6850 60  0000 L CNN "color"
F 5 "Keystone Electronics" H 4550 7500 60  0001 C CNN "manf"
F 6 "5011" H 4550 7400 60  0001 C CNN "manf#"
	1    4550 6900
	1    0    0    -1  
$EndComp
$Comp
L GND #PWR020
U 1 1 580D378B
P 4550 7150
F 0 "#PWR020" H 4550 6900 50  0001 C CNN
F 1 "GND" H 4550 7000 50  0000 C CNN
F 2 "" H 4550 7150 50  0000 C CNN
F 3 "" H 4550 7150 50  0000 C CNN
	1    4550 7150
	1    0    0    -1  
$EndComp
$Comp
L TP_Loop_Black TP8
U 1 1 580D3795
P 4900 6900
F 0 "TP8" H 4900 7200 60  0000 C CNN
F 1 "TP_Loop_Black" H 4900 7600 60  0001 C CNN
F 2 "NF6X_Connectors:Keystone_5xxx" H 4900 7300 60  0001 C CNN
F 3 "" H 4900 6900 60  0001 C CNN
F 4 "Black" H 4900 6850 60  0000 L CNN "color"
F 5 "Keystone Electronics" H 4900 7500 60  0001 C CNN "manf"
F 6 "5011" H 4900 7400 60  0001 C CNN "manf#"
	1    4900 6900
	1    0    0    -1  
$EndComp
$Comp
L GND #PWR021
U 1 1 580D379B
P 4900 7150
F 0 "#PWR021" H 4900 6900 50  0001 C CNN
F 1 "GND" H 4900 7000 50  0000 C CNN
F 2 "" H 4900 7150 50  0000 C CNN
F 3 "" H 4900 7150 50  0000 C CNN
	1    4900 7150
	1    0    0    -1  
$EndComp
Text Notes 2250 4900 0    60   ~ 0
Power Input\nFrom RL02 +V UN REG\n10.0-20.0 VDC
Text Notes 2550 4400 2    60   ~ 0
+16VDC\nGND
Wire Wire Line
	10550 3050 10450 3050
Wire Wire Line
	10550 2850 10450 2850
Wire Wire Line
	10450 2850 10450 2650
Wire Wire Line
	9850 2650 10550 2650
Wire Wire Line
	10150 2700 10150 2650
Wire Wire Line
	9850 2550 9850 2700
Wire Wire Line
	11700 3100 11700 3000
Wire Wire Line
	11550 3050 11950 3050
Wire Wire Line
	11550 2650 12250 2650
Wire Wire Line
	11700 2650 11700 2700
Wire Wire Line
	11950 2550 11950 2700
Wire Wire Line
	11950 3050 11950 3000
Wire Wire Line
	12250 2550 12250 2700
Wire Wire Line
	11050 3350 11050 3550
Wire Wire Line
	9850 3450 12250 3450
Wire Wire Line
	11700 3450 11700 3400
Wire Wire Line
	12250 3450 12250 3000
Wire Wire Line
	9850 3450 9850 3000
Wire Wire Line
	10150 3000 10150 3450
Wire Wire Line
	10450 3050 10450 3450
Wire Wire Line
	10550 4650 10450 4650
Wire Wire Line
	10550 4450 10450 4450
Wire Wire Line
	10450 4450 10450 4250
Wire Wire Line
	9850 4250 10550 4250
Wire Wire Line
	10150 4300 10150 4250
Wire Wire Line
	9850 4150 9850 4300
Wire Wire Line
	11700 4700 11700 4600
Wire Wire Line
	11550 4650 11950 4650
Wire Wire Line
	11550 4250 12250 4250
Wire Wire Line
	11700 4250 11700 4300
Wire Wire Line
	11950 4150 11950 4300
Wire Wire Line
	11950 4650 11950 4600
Wire Wire Line
	12250 4150 12250 4300
Wire Wire Line
	11050 4950 11050 5150
Wire Wire Line
	9850 5050 12250 5050
Wire Wire Line
	11700 5050 11700 5000
Wire Wire Line
	12250 5050 12250 4600
Wire Wire Line
	9850 5050 9850 4600
Wire Wire Line
	10150 4600 10150 5050
Wire Wire Line
	10450 4650 10450 5050
Wire Wire Line
	11550 6250 11650 6250
Wire Wire Line
	11650 6250 11650 6200
Wire Wire Line
	11650 6200 11800 6200
Wire Wire Line
	11550 6450 11650 6450
Wire Wire Line
	11650 6450 11650 6500
Wire Wire Line
	11650 6500 11800 6500
Wire Wire Line
	11050 6750 11050 6850
Wire Wire Line
	10200 6800 12150 6800
Wire Wire Line
	12150 6800 12150 6500
Wire Wire Line
	10200 6800 10200 6500
Wire Wire Line
	10550 6250 10450 6250
Wire Wire Line
	10450 6250 10450 6050
Wire Wire Line
	10200 6050 10550 6050
Wire Wire Line
	10200 5950 10200 6200
Wire Wire Line
	11550 6050 12150 6050
Wire Wire Line
	12150 5950 12150 6200
Wire Wire Line
	2950 4350 3050 4350
Wire Wire Line
	3050 4350 3050 4450
Wire Wire Line
	2950 4250 3250 4250
Wire Wire Line
	3550 4250 4650 4250
Wire Wire Line
	4650 4450 4450 4450
Wire Wire Line
	4650 4650 4450 4650
Wire Wire Line
	4150 4450 4050 4450
Wire Wire Line
	4050 4250 4050 4650
Wire Wire Line
	4050 4650 4150 4650
Wire Wire Line
	4550 4750 4550 4650
Wire Wire Line
	4550 5050 4550 5150
Wire Wire Line
	3750 4450 3750 4250
Wire Wire Line
	3750 4750 3750 4850
Wire Wire Line
	5150 4950 5150 5050
Wire Wire Line
	5350 5350 5350 5450
Wire Wire Line
	5250 4950 5250 5000
Wire Wire Line
	5250 5000 5350 5000
Wire Wire Line
	5350 5000 5350 5050
Wire Wire Line
	5800 5000 5800 5100
Wire Wire Line
	5800 4600 5800 4700
Wire Wire Line
	5650 4650 6100 4650
Wire Wire Line
	6100 4650 6100 4600
Wire Wire Line
	5650 4250 6750 4250
Wire Wire Line
	6450 4150 6450 4300
Wire Wire Line
	6100 4300 6100 4250
Wire Wire Line
	5800 4300 5800 4250
Wire Wire Line
	6450 4700 6450 4600
Wire Wire Line
	6750 4250 6750 4150
Wire Wire Line
	11900 5950 11900 6050
Wire Wire Line
	3850 7150 3850 7100
Wire Wire Line
	4200 7150 4200 7100
Wire Wire Line
	4550 7150 4550 7100
Wire Wire Line
	4900 7150 4900 7100
Connection ~ 10450 2650
Connection ~ 10150 2650
Connection ~ 11700 3050
Connection ~ 11700 2650
Connection ~ 11950 2650
Connection ~ 11050 3450
Connection ~ 11700 3450
Connection ~ 10150 3450
Connection ~ 10450 3450
Connection ~ 12250 2650
Connection ~ 9850 2650
Connection ~ 10450 4250
Connection ~ 10150 4250
Connection ~ 11700 4650
Connection ~ 11700 4250
Connection ~ 11950 4250
Connection ~ 11050 5050
Connection ~ 11700 5050
Connection ~ 10150 5050
Connection ~ 10450 5050
Connection ~ 12250 4250
Connection ~ 9850 4250
Connection ~ 11050 6800
Connection ~ 10450 6050
Connection ~ 10200 6050
Connection ~ 12150 6050
Connection ~ 4050 4250
Connection ~ 4050 4450
Connection ~ 4550 4650
Connection ~ 3750 4250
Connection ~ 5800 4650
Connection ~ 6100 4250
Connection ~ 5800 4250
Connection ~ 6450 4250
Connection ~ 11900 6050
NoConn ~ 11150 3350
NoConn ~ 11150 4950
Text Label 4150 4250 0    60   ~ 0
V_UNREG
$EndSCHEMATC
