ISO-10303-21;
HEADER;
/* Generated by software containing ST-Developer
 * from STEP Tools, Inc. (www.steptools.com) 
 */

FILE_DESCRIPTION(
/* description */ (''),
/* implementation_level */ '2;1');

FILE_NAME(
/* name */ 
'/Volumes/homes/mblair/RL02-USB/mechanical/RL02-USB Housing Top Cover.
stp',
/* time_stamp */ '2016-10-31T23:04:47-07:00',
/* author */ (''),
/* organization */ (''),
/* preprocessor_version */ 'ST-DEVELOPER v16.5',
/* originating_system */ 'Autodesk Translation Framework v5.2.0.2031',
/* authorisation */ '');

FILE_SCHEMA (('AUTOMOTIVE_DESIGN { 1 0 10303 214 3 1 1 }'));
ENDSEC;

DATA;
#10=MECHANICAL_DESIGN_GEOMETRIC_PRESENTATION_REPRESENTATION('',(#16),#2206);
#11=DIMENSIONAL_EXPONENTS(0.,0.,0.,0.,0.,0.,0.);
#12=(
CONVERSION_BASED_UNIT('degree',#13)
NAMED_UNIT(#11)
PLANE_ANGLE_UNIT()
);
#13=PLANE_ANGLE_MEASURE_WITH_UNIT(PLANE_ANGLE_MEASURE(0.01745329252),#2208);
#14=SHAPE_REPRESENTATION_RELATIONSHIP('SRR','None',#2213,#15);
#15=ADVANCED_BREP_SHAPE_REPRESENTATION('',(#17),#2205);
#16=STYLED_ITEM('',(#2223),#17);
#17=MANIFOLD_SOLID_BREP('Body1',#1336);
#18=CONICAL_SURFACE('',#1416,0.227,0.785398163397448);
#19=CONICAL_SURFACE('',#1420,0.226999999999999,0.785398163397449);
#20=CONICAL_SURFACE('',#1424,0.226999999999998,0.785398163397448);
#21=CONICAL_SURFACE('',#1428,0.226999999999999,0.785398163397448);
#22=ELLIPSE('',#1374,1.12253201513364,0.79375);
#23=LINE('',#1867,#157);
#24=LINE('',#1869,#158);
#25=LINE('',#1876,#159);
#26=LINE('',#1878,#160);
#27=LINE('',#1882,#161);
#28=LINE('',#1884,#162);
#29=LINE('',#1886,#163);
#30=LINE('',#1888,#164);
#31=LINE('',#1890,#165);
#32=LINE('',#1891,#166);
#33=LINE('',#1894,#167);
#34=LINE('',#1898,#168);
#35=LINE('',#1902,#169);
#36=LINE('',#1908,#170);
#37=LINE('',#1912,#171);
#38=LINE('',#1916,#172);
#39=LINE('',#1919,#173);
#40=LINE('',#1922,#174);
#41=LINE('',#1924,#175);
#42=LINE('',#1933,#176);
#43=LINE('',#1935,#177);
#44=LINE('',#1937,#178);
#45=LINE('',#1938,#179);
#46=LINE('',#1941,#180);
#47=LINE('',#1943,#181);
#48=LINE('',#1945,#182);
#49=LINE('',#1946,#183);
#50=LINE('',#1949,#184);
#51=LINE('',#1951,#185);
#52=LINE('',#1952,#186);
#53=LINE('',#1954,#187);
#54=LINE('',#1956,#188);
#55=LINE('',#1958,#189);
#56=LINE('',#1960,#190);
#57=LINE('',#1961,#191);
#58=LINE('',#1964,#192);
#59=LINE('',#1966,#193);
#60=LINE('',#1968,#194);
#61=LINE('',#1970,#195);
#62=LINE('',#1972,#196);
#63=LINE('',#1973,#197);
#64=LINE('',#1976,#198);
#65=LINE('',#1977,#199);
#66=LINE('',#1980,#200);
#67=LINE('',#1986,#201);
#68=LINE('',#1988,#202);
#69=LINE('',#1991,#203);
#70=LINE('',#1997,#204);
#71=LINE('',#1999,#205);
#72=LINE('',#2002,#206);
#73=LINE('',#2003,#207);
#74=LINE('',#2005,#208);
#75=LINE('',#2008,#209);
#76=LINE('',#2010,#210);
#77=LINE('',#2011,#211);
#78=LINE('',#2014,#212);
#79=LINE('',#2015,#213);
#80=LINE('',#2019,#214);
#81=LINE('',#2021,#215);
#82=LINE('',#2023,#216);
#83=LINE('',#2024,#217);
#84=LINE('',#2025,#218);
#85=LINE('',#2028,#219);
#86=LINE('',#2029,#220);
#87=LINE('',#2032,#221);
#88=LINE('',#2033,#222);
#89=LINE('',#2036,#223);
#90=LINE('',#2038,#224);
#91=LINE('',#2039,#225);
#92=LINE('',#2040,#226);
#93=LINE('',#2043,#227);
#94=LINE('',#2044,#228);
#95=LINE('',#2047,#229);
#96=LINE('',#2048,#230);
#97=LINE('',#2051,#231);
#98=LINE('',#2053,#232);
#99=LINE('',#2054,#233);
#100=LINE('',#2057,#234);
#101=LINE('',#2058,#235);
#102=LINE('',#2060,#236);
#103=LINE('',#2063,#237);
#104=LINE('',#2065,#238);
#105=LINE('',#2066,#239);
#106=LINE('',#2069,#240);
#107=LINE('',#2070,#241);
#108=LINE('',#2073,#242);
#109=LINE('',#2074,#243);
#110=LINE('',#2076,#244);
#111=LINE('',#2079,#245);
#112=LINE('',#2080,#246);
#113=LINE('',#2082,#247);
#114=LINE('',#2085,#248);
#115=LINE('',#2086,#249);
#116=LINE('',#2088,#250);
#117=LINE('',#2092,#251);
#118=LINE('',#2094,#252);
#119=LINE('',#2096,#253);
#120=LINE('',#2097,#254);
#121=LINE('',#2101,#255);
#122=LINE('',#2107,#256);
#123=LINE('',#2108,#257);
#124=LINE('',#2109,#258);
#125=LINE('',#2113,#259);
#126=LINE('',#2119,#260);
#127=LINE('',#2120,#261);
#128=LINE('',#2121,#262);
#129=LINE('',#2125,#263);
#130=LINE('',#2131,#264);
#131=LINE('',#2132,#265);
#132=LINE('',#2133,#266);
#133=LINE('',#2138,#267);
#134=LINE('',#2139,#268);
#135=LINE('',#2141,#269);
#136=LINE('',#2143,#270);
#137=LINE('',#2145,#271);
#138=LINE('',#2149,#272);
#139=LINE('',#2153,#273);
#140=LINE('',#2157,#274);
#141=LINE('',#2161,#275);
#142=LINE('',#2164,#276);
#143=LINE('',#2166,#277);
#144=LINE('',#2168,#278);
#145=LINE('',#2173,#279);
#146=LINE('',#2174,#280);
#147=LINE('',#2175,#281);
#148=LINE('',#2179,#282);
#149=LINE('',#2182,#283);
#150=LINE('',#2183,#284);
#151=LINE('',#2187,#285);
#152=LINE('',#2190,#286);
#153=LINE('',#2191,#287);
#154=LINE('',#2195,#288);
#155=LINE('',#2198,#289);
#156=LINE('',#2199,#290);
#157=VECTOR('',#1501,1.);
#158=VECTOR('',#1502,1.);
#159=VECTOR('',#1511,1.);
#160=VECTOR('',#1512,1.);
#161=VECTOR('',#1517,1.);
#162=VECTOR('',#1518,1.);
#163=VECTOR('',#1519,1.);
#164=VECTOR('',#1520,1.);
#165=VECTOR('',#1521,1.);
#166=VECTOR('',#1522,1.);
#167=VECTOR('',#1525,1.);
#168=VECTOR('',#1528,1.);
#169=VECTOR('',#1531,1.);
#170=VECTOR('',#1536,1.);
#171=VECTOR('',#1539,1.);
#172=VECTOR('',#1542,1.);
#173=VECTOR('',#1545,1.);
#174=VECTOR('',#1548,1.);
#175=VECTOR('',#1549,1.);
#176=VECTOR('',#1560,1.);
#177=VECTOR('',#1561,1.);
#178=VECTOR('',#1562,1.);
#179=VECTOR('',#1563,1.);
#180=VECTOR('',#1566,1.);
#181=VECTOR('',#1567,1.);
#182=VECTOR('',#1568,1.);
#183=VECTOR('',#1569,1.);
#184=VECTOR('',#1572,1.);
#185=VECTOR('',#1573,1.);
#186=VECTOR('',#1574,1.);
#187=VECTOR('',#1575,1.);
#188=VECTOR('',#1576,1.);
#189=VECTOR('',#1577,1.);
#190=VECTOR('',#1578,1.);
#191=VECTOR('',#1579,1.);
#192=VECTOR('',#1580,1.);
#193=VECTOR('',#1581,1.);
#194=VECTOR('',#1582,1.);
#195=VECTOR('',#1583,1.);
#196=VECTOR('',#1584,1.);
#197=VECTOR('',#1585,1.);
#198=VECTOR('',#1588,1.);
#199=VECTOR('',#1589,1.);
#200=VECTOR('',#1592,1.);
#201=VECTOR('',#1601,1.);
#202=VECTOR('',#1604,1.);
#203=VECTOR('',#1607,1.);
#204=VECTOR('',#1616,1.);
#205=VECTOR('',#1619,1.);
#206=VECTOR('',#1622,1.);
#207=VECTOR('',#1623,1.);
#208=VECTOR('',#1626,1.);
#209=VECTOR('',#1629,1.);
#210=VECTOR('',#1630,1.);
#211=VECTOR('',#1631,1.);
#212=VECTOR('',#1634,1.);
#213=VECTOR('',#1635,1.);
#214=VECTOR('',#1638,1.);
#215=VECTOR('',#1639,1.);
#216=VECTOR('',#1640,1.);
#217=VECTOR('',#1641,1.);
#218=VECTOR('',#1642,1.);
#219=VECTOR('',#1645,1.);
#220=VECTOR('',#1646,1.);
#221=VECTOR('',#1649,1.);
#222=VECTOR('',#1650,1.);
#223=VECTOR('',#1653,1.);
#224=VECTOR('',#1654,1.);
#225=VECTOR('',#1655,1.);
#226=VECTOR('',#1656,1.);
#227=VECTOR('',#1659,1.);
#228=VECTOR('',#1660,1.);
#229=VECTOR('',#1663,1.);
#230=VECTOR('',#1664,1.);
#231=VECTOR('',#1667,1.);
#232=VECTOR('',#1668,1.);
#233=VECTOR('',#1669,1.);
#234=VECTOR('',#1672,1.);
#235=VECTOR('',#1673,1.);
#236=VECTOR('',#1676,1.);
#237=VECTOR('',#1679,1.);
#238=VECTOR('',#1680,1.);
#239=VECTOR('',#1681,1.);
#240=VECTOR('',#1684,1.);
#241=VECTOR('',#1685,1.);
#242=VECTOR('',#1688,1.);
#243=VECTOR('',#1689,1.);
#244=VECTOR('',#1692,1.);
#245=VECTOR('',#1695,1.);
#246=VECTOR('',#1696,1.);
#247=VECTOR('',#1699,1.);
#248=VECTOR('',#1702,1.);
#249=VECTOR('',#1703,1.);
#250=VECTOR('',#1706,1.);
#251=VECTOR('',#1709,1.);
#252=VECTOR('',#1710,1.);
#253=VECTOR('',#1711,1.);
#254=VECTOR('',#1712,1.);
#255=VECTOR('',#1715,1.);
#256=VECTOR('',#1722,1.);
#257=VECTOR('',#1723,1.);
#258=VECTOR('',#1724,1.);
#259=VECTOR('',#1727,1.);
#260=VECTOR('',#1734,1.);
#261=VECTOR('',#1735,1.);
#262=VECTOR('',#1736,1.);
#263=VECTOR('',#1739,1.);
#264=VECTOR('',#1746,1.);
#265=VECTOR('',#1747,1.);
#266=VECTOR('',#1748,1.);
#267=VECTOR('',#1757,1.);
#268=VECTOR('',#1758,1.);
#269=VECTOR('',#1761,1.);
#270=VECTOR('',#1764,1.);
#271=VECTOR('',#1767,1.);
#272=VECTOR('',#1770,1.);
#273=VECTOR('',#1773,1.);
#274=VECTOR('',#1776,1.);
#275=VECTOR('',#1779,1.);
#276=VECTOR('',#1784,1.);
#277=VECTOR('',#1787,1.);
#278=VECTOR('',#1790,1.);
#279=VECTOR('',#1795,1.);
#280=VECTOR('',#1796,1.);
#281=VECTOR('',#1797,1.);
#282=VECTOR('',#1802,1.);
#283=VECTOR('',#1805,1.);
#284=VECTOR('',#1806,1.);
#285=VECTOR('',#1811,1.);
#286=VECTOR('',#1814,1.);
#287=VECTOR('',#1815,1.);
#288=VECTOR('',#1820,1.);
#289=VECTOR('',#1823,1.);
#290=VECTOR('',#1824,1.);
#291=PLANE('',#1341);
#292=PLANE('',#1346);
#293=PLANE('',#1351);
#294=PLANE('',#1356);
#295=PLANE('',#1358);
#296=PLANE('',#1364);
#297=PLANE('',#1365);
#298=PLANE('',#1378);
#299=PLANE('',#1379);
#300=PLANE('',#1380);
#301=PLANE('',#1381);
#302=PLANE('',#1386);
#303=PLANE('',#1387);
#304=PLANE('',#1388);
#305=PLANE('',#1393);
#306=PLANE('',#1394);
#307=PLANE('',#1395);
#308=PLANE('',#1396);
#309=PLANE('',#1397);
#310=PLANE('',#1398);
#311=PLANE('',#1399);
#312=PLANE('',#1400);
#313=PLANE('',#1401);
#314=PLANE('',#1402);
#315=PLANE('',#1403);
#316=PLANE('',#1404);
#317=PLANE('',#1405);
#318=PLANE('',#1406);
#319=PLANE('',#1407);
#320=PLANE('',#1408);
#321=PLANE('',#1409);
#322=PLANE('',#1410);
#323=PLANE('',#1411);
#324=PLANE('',#1412);
#325=PLANE('',#1413);
#326=PLANE('',#1414);
#327=PLANE('',#1415);
#328=PLANE('',#1419);
#329=PLANE('',#1423);
#330=PLANE('',#1427);
#331=PLANE('',#1432);
#332=PLANE('',#1434);
#333=PLANE('',#1435);
#334=PLANE('',#1440);
#335=PLANE('',#1442);
#336=PLANE('',#1444);
#337=PLANE('',#1447);
#338=PLANE('',#1450);
#339=PLANE('',#1453);
#340=PLANE('',#1456);
#341=FACE_BOUND('',#443,.T.);
#342=FACE_BOUND('',#445,.T.);
#343=FACE_BOUND('',#447,.T.);
#344=FACE_BOUND('',#449,.T.);
#345=FACE_BOUND('',#451,.T.);
#346=FACE_BOUND('',#453,.T.);
#347=FACE_BOUND('',#455,.T.);
#348=FACE_BOUND('',#457,.T.);
#349=FACE_BOUND('',#459,.T.);
#350=FACE_BOUND('',#461,.T.);
#351=FACE_BOUND('',#465,.T.);
#352=FACE_BOUND('',#468,.T.);
#353=FACE_BOUND('',#470,.T.);
#354=FACE_BOUND('',#473,.T.);
#355=FACE_BOUND('',#477,.T.);
#356=FACE_BOUND('',#479,.T.);
#357=FACE_BOUND('',#482,.T.);
#358=FACE_BOUND('',#484,.T.);
#359=FACE_BOUND('',#521,.T.);
#360=FACE_BOUND('',#522,.T.);
#361=FACE_BOUND('',#523,.T.);
#362=FACE_BOUND('',#524,.T.);
#363=FACE_BOUND('',#525,.T.);
#364=FACE_BOUND('',#537,.T.);
#365=FACE_BOUND('',#538,.T.);
#366=FACE_BOUND('',#539,.T.);
#367=FACE_BOUND('',#542,.T.);
#368=FACE_OUTER_BOUND('',#442,.T.);
#369=FACE_OUTER_BOUND('',#444,.T.);
#370=FACE_OUTER_BOUND('',#446,.T.);
#371=FACE_OUTER_BOUND('',#448,.T.);
#372=FACE_OUTER_BOUND('',#450,.T.);
#373=FACE_OUTER_BOUND('',#452,.T.);
#374=FACE_OUTER_BOUND('',#454,.T.);
#375=FACE_OUTER_BOUND('',#456,.T.);
#376=FACE_OUTER_BOUND('',#458,.T.);
#377=FACE_OUTER_BOUND('',#460,.T.);
#378=FACE_OUTER_BOUND('',#462,.T.);
#379=FACE_OUTER_BOUND('',#463,.T.);
#380=FACE_OUTER_BOUND('',#464,.T.);
#381=FACE_OUTER_BOUND('',#466,.T.);
#382=FACE_OUTER_BOUND('',#467,.T.);
#383=FACE_OUTER_BOUND('',#469,.T.);
#384=FACE_OUTER_BOUND('',#471,.T.);
#385=FACE_OUTER_BOUND('',#472,.T.);
#386=FACE_OUTER_BOUND('',#474,.T.);
#387=FACE_OUTER_BOUND('',#475,.T.);
#388=FACE_OUTER_BOUND('',#476,.T.);
#389=FACE_OUTER_BOUND('',#478,.T.);
#390=FACE_OUTER_BOUND('',#480,.T.);
#391=FACE_OUTER_BOUND('',#481,.T.);
#392=FACE_OUTER_BOUND('',#483,.T.);
#393=FACE_OUTER_BOUND('',#485,.T.);
#394=FACE_OUTER_BOUND('',#486,.T.);
#395=FACE_OUTER_BOUND('',#487,.T.);
#396=FACE_OUTER_BOUND('',#488,.T.);
#397=FACE_OUTER_BOUND('',#489,.T.);
#398=FACE_OUTER_BOUND('',#490,.T.);
#399=FACE_OUTER_BOUND('',#491,.T.);
#400=FACE_OUTER_BOUND('',#492,.T.);
#401=FACE_OUTER_BOUND('',#493,.T.);
#402=FACE_OUTER_BOUND('',#494,.T.);
#403=FACE_OUTER_BOUND('',#495,.T.);
#404=FACE_OUTER_BOUND('',#496,.T.);
#405=FACE_OUTER_BOUND('',#497,.T.);
#406=FACE_OUTER_BOUND('',#498,.T.);
#407=FACE_OUTER_BOUND('',#499,.T.);
#408=FACE_OUTER_BOUND('',#500,.T.);
#409=FACE_OUTER_BOUND('',#501,.T.);
#410=FACE_OUTER_BOUND('',#502,.T.);
#411=FACE_OUTER_BOUND('',#503,.T.);
#412=FACE_OUTER_BOUND('',#504,.T.);
#413=FACE_OUTER_BOUND('',#505,.T.);
#414=FACE_OUTER_BOUND('',#506,.T.);
#415=FACE_OUTER_BOUND('',#507,.T.);
#416=FACE_OUTER_BOUND('',#508,.T.);
#417=FACE_OUTER_BOUND('',#509,.T.);
#418=FACE_OUTER_BOUND('',#510,.T.);
#419=FACE_OUTER_BOUND('',#511,.T.);
#420=FACE_OUTER_BOUND('',#512,.T.);
#421=FACE_OUTER_BOUND('',#513,.T.);
#422=FACE_OUTER_BOUND('',#514,.T.);
#423=FACE_OUTER_BOUND('',#515,.T.);
#424=FACE_OUTER_BOUND('',#516,.T.);
#425=FACE_OUTER_BOUND('',#517,.T.);
#426=FACE_OUTER_BOUND('',#518,.T.);
#427=FACE_OUTER_BOUND('',#519,.T.);
#428=FACE_OUTER_BOUND('',#520,.T.);
#429=FACE_OUTER_BOUND('',#526,.T.);
#430=FACE_OUTER_BOUND('',#527,.T.);
#431=FACE_OUTER_BOUND('',#528,.T.);
#432=FACE_OUTER_BOUND('',#529,.T.);
#433=FACE_OUTER_BOUND('',#530,.T.);
#434=FACE_OUTER_BOUND('',#531,.T.);
#435=FACE_OUTER_BOUND('',#532,.T.);
#436=FACE_OUTER_BOUND('',#533,.T.);
#437=FACE_OUTER_BOUND('',#534,.T.);
#438=FACE_OUTER_BOUND('',#535,.T.);
#439=FACE_OUTER_BOUND('',#536,.T.);
#440=FACE_OUTER_BOUND('',#540,.T.);
#441=FACE_OUTER_BOUND('',#541,.T.);
#442=EDGE_LOOP('',(#884));
#443=EDGE_LOOP('',(#885));
#444=EDGE_LOOP('',(#886));
#445=EDGE_LOOP('',(#887));
#446=EDGE_LOOP('',(#888));
#447=EDGE_LOOP('',(#889));
#448=EDGE_LOOP('',(#890));
#449=EDGE_LOOP('',(#891));
#450=EDGE_LOOP('',(#892));
#451=EDGE_LOOP('',(#893));
#452=EDGE_LOOP('',(#894));
#453=EDGE_LOOP('',(#895));
#454=EDGE_LOOP('',(#896));
#455=EDGE_LOOP('',(#897));
#456=EDGE_LOOP('',(#898));
#457=EDGE_LOOP('',(#899));
#458=EDGE_LOOP('',(#900,#901,#902));
#459=EDGE_LOOP('',(#903));
#460=EDGE_LOOP('',(#904));
#461=EDGE_LOOP('',(#905));
#462=EDGE_LOOP('',(#906,#907,#908,#909));
#463=EDGE_LOOP('',(#910,#911,#912,#913,#914,#915,#916,#917));
#464=EDGE_LOOP('',(#918,#919,#920,#921,#922,#923,#924,#925));
#465=EDGE_LOOP('',(#926,#927,#928,#929,#930,#931,#932,#933));
#466=EDGE_LOOP('',(#934,#935,#936,#937,#938));
#467=EDGE_LOOP('',(#939));
#468=EDGE_LOOP('',(#940));
#469=EDGE_LOOP('',(#941,#942,#943,#944,#945));
#470=EDGE_LOOP('',(#946));
#471=EDGE_LOOP('',(#947,#948,#949,#950,#951));
#472=EDGE_LOOP('',(#952,#953,#954,#955,#956,#957,#958,#959,#960,#961,#962,
#963));
#473=EDGE_LOOP('',(#964,#965,#966,#967,#968,#969));
#474=EDGE_LOOP('',(#970,#971,#972,#973,#974,#975));
#475=EDGE_LOOP('',(#976,#977,#978,#979));
#476=EDGE_LOOP('',(#980));
#477=EDGE_LOOP('',(#981));
#478=EDGE_LOOP('',(#982,#983,#984));
#479=EDGE_LOOP('',(#985));
#480=EDGE_LOOP('',(#986,#987,#988,#989,#990,#991,#992,#993));
#481=EDGE_LOOP('',(#994,#995,#996));
#482=EDGE_LOOP('',(#997));
#483=EDGE_LOOP('',(#998));
#484=EDGE_LOOP('',(#999));
#485=EDGE_LOOP('',(#1000,#1001,#1002,#1003));
#486=EDGE_LOOP('',(#1004,#1005,#1006,#1007,#1008,#1009,#1010,#1011));
#487=EDGE_LOOP('',(#1012,#1013,#1014,#1015));
#488=EDGE_LOOP('',(#1016,#1017,#1018,#1019));
#489=EDGE_LOOP('',(#1020,#1021,#1022,#1023));
#490=EDGE_LOOP('',(#1024,#1025,#1026,#1027));
#491=EDGE_LOOP('',(#1028,#1029,#1030,#1031,#1032,#1033));
#492=EDGE_LOOP('',(#1034,#1035,#1036,#1037));
#493=EDGE_LOOP('',(#1038,#1039,#1040,#1041));
#494=EDGE_LOOP('',(#1042,#1043,#1044,#1045,#1046,#1047,#1048));
#495=EDGE_LOOP('',(#1049,#1050,#1051,#1052));
#496=EDGE_LOOP('',(#1053,#1054,#1055,#1056,#1057));
#497=EDGE_LOOP('',(#1058,#1059,#1060,#1061));
#498=EDGE_LOOP('',(#1062,#1063,#1064,#1065));
#499=EDGE_LOOP('',(#1066,#1067,#1068,#1069));
#500=EDGE_LOOP('',(#1070,#1071,#1072,#1073));
#501=EDGE_LOOP('',(#1074,#1075,#1076,#1077));
#502=EDGE_LOOP('',(#1078,#1079,#1080,#1081));
#503=EDGE_LOOP('',(#1082,#1083,#1084,#1085));
#504=EDGE_LOOP('',(#1086,#1087,#1088,#1089));
#505=EDGE_LOOP('',(#1090,#1091,#1092,#1093));
#506=EDGE_LOOP('',(#1094,#1095,#1096,#1097));
#507=EDGE_LOOP('',(#1098,#1099,#1100,#1101));
#508=EDGE_LOOP('',(#1102,#1103,#1104,#1105));
#509=EDGE_LOOP('',(#1106,#1107,#1108,#1109));
#510=EDGE_LOOP('',(#1110,#1111,#1112,#1113));
#511=EDGE_LOOP('',(#1114,#1115,#1116,#1117));
#512=EDGE_LOOP('',(#1118,#1119,#1120,#1121));
#513=EDGE_LOOP('',(#1122,#1123,#1124,#1125));
#514=EDGE_LOOP('',(#1126,#1127,#1128,#1129));
#515=EDGE_LOOP('',(#1130,#1131,#1132,#1133));
#516=EDGE_LOOP('',(#1134,#1135,#1136,#1137));
#517=EDGE_LOOP('',(#1138,#1139,#1140,#1141));
#518=EDGE_LOOP('',(#1142,#1143,#1144,#1145));
#519=EDGE_LOOP('',(#1146,#1147,#1148,#1149));
#520=EDGE_LOOP('',(#1150,#1151,#1152,#1153,#1154,#1155,#1156,#1157));
#521=EDGE_LOOP('',(#1158));
#522=EDGE_LOOP('',(#1159));
#523=EDGE_LOOP('',(#1160));
#524=EDGE_LOOP('',(#1161));
#525=EDGE_LOOP('',(#1162,#1163,#1164,#1165,#1166,#1167,#1168,#1169));
#526=EDGE_LOOP('',(#1170,#1171,#1172,#1173));
#527=EDGE_LOOP('',(#1174,#1175,#1176,#1177));
#528=EDGE_LOOP('',(#1178,#1179,#1180,#1181));
#529=EDGE_LOOP('',(#1182,#1183,#1184,#1185));
#530=EDGE_LOOP('',(#1186,#1187,#1188,#1189));
#531=EDGE_LOOP('',(#1190,#1191,#1192,#1193));
#532=EDGE_LOOP('',(#1194,#1195,#1196,#1197));
#533=EDGE_LOOP('',(#1198,#1199,#1200,#1201));
#534=EDGE_LOOP('',(#1202,#1203,#1204,#1205));
#535=EDGE_LOOP('',(#1206,#1207,#1208,#1209));
#536=EDGE_LOOP('',(#1210,#1211,#1212,#1213));
#537=EDGE_LOOP('',(#1214,#1215,#1216,#1217));
#538=EDGE_LOOP('',(#1218,#1219,#1220,#1221));
#539=EDGE_LOOP('',(#1222,#1223,#1224,#1225));
#540=EDGE_LOOP('',(#1226,#1227,#1228,#1229));
#541=EDGE_LOOP('',(#1230,#1231,#1232,#1233,#1234,#1235,#1236,#1237));
#542=EDGE_LOOP('',(#1238,#1239,#1240,#1241));
#543=CIRCLE('',#1339,0.34925);
#544=CIRCLE('',#1340,0.34925);
#545=CIRCLE('',#1342,0.1778);
#546=CIRCLE('',#1344,0.349250000000001);
#547=CIRCLE('',#1345,0.349250000000001);
#548=CIRCLE('',#1347,0.1778);
#549=CIRCLE('',#1349,0.34925);
#550=CIRCLE('',#1350,0.34925);
#551=CIRCLE('',#1352,0.1778);
#552=CIRCLE('',#1354,0.349250000000001);
#553=CIRCLE('',#1355,0.349250000000001);
#554=CIRCLE('',#1357,0.1778);
#555=CIRCLE('',#1359,0.79375);
#556=CIRCLE('',#1360,0.1778);
#557=CIRCLE('',#1363,0.79375);
#558=CIRCLE('',#1366,0.79375);
#559=CIRCLE('',#1367,0.79375);
#560=CIRCLE('',#1368,0.79375);
#561=CIRCLE('',#1369,0.126999999999998);
#562=CIRCLE('',#1370,0.126999999999999);
#563=CIRCLE('',#1371,0.127);
#564=CIRCLE('',#1372,0.126999999999999);
#565=CIRCLE('',#1375,0.79375);
#566=CIRCLE('',#1377,0.1778);
#567=CIRCLE('',#1383,0.79375);
#568=CIRCLE('',#1385,0.1778);
#569=CIRCLE('',#1389,0.79375);
#570=CIRCLE('',#1390,0.1778);
#571=CIRCLE('',#1417,0.327);
#572=CIRCLE('',#1418,0.127);
#573=CIRCLE('',#1421,0.327);
#574=CIRCLE('',#1422,0.126999999999999);
#575=CIRCLE('',#1425,0.326999999999998);
#576=CIRCLE('',#1426,0.126999999999998);
#577=CIRCLE('',#1429,0.326999999999999);
#578=CIRCLE('',#1430,0.126999999999999);
#579=CIRCLE('',#1436,0.317500000000001);
#580=CIRCLE('',#1437,0.317499999999999);
#581=CIRCLE('',#1438,0.317500000000001);
#582=CIRCLE('',#1439,0.317500000000001);
#583=CIRCLE('',#1446,0.317500000000003);
#584=CIRCLE('',#1449,0.317499999999997);
#585=CIRCLE('',#1452,0.317500000000001);
#586=CIRCLE('',#1455,0.3175);
#587=VERTEX_POINT('',#1833);
#588=VERTEX_POINT('',#1835);
#589=VERTEX_POINT('',#1838);
#590=VERTEX_POINT('',#1841);
#591=VERTEX_POINT('',#1843);
#592=VERTEX_POINT('',#1846);
#593=VERTEX_POINT('',#1849);
#594=VERTEX_POINT('',#1851);
#595=VERTEX_POINT('',#1854);
#596=VERTEX_POINT('',#1857);
#597=VERTEX_POINT('',#1859);
#598=VERTEX_POINT('',#1862);
#599=VERTEX_POINT('',#1865);
#600=VERTEX_POINT('',#1866);
#601=VERTEX_POINT('',#1868);
#602=VERTEX_POINT('',#1871);
#603=VERTEX_POINT('',#1875);
#604=VERTEX_POINT('',#1877);
#605=VERTEX_POINT('',#1881);
#606=VERTEX_POINT('',#1883);
#607=VERTEX_POINT('',#1885);
#608=VERTEX_POINT('',#1887);
#609=VERTEX_POINT('',#1889);
#610=VERTEX_POINT('',#1893);
#611=VERTEX_POINT('',#1895);
#612=VERTEX_POINT('',#1897);
#613=VERTEX_POINT('',#1899);
#614=VERTEX_POINT('',#1901);
#615=VERTEX_POINT('',#1904);
#616=VERTEX_POINT('',#1905);
#617=VERTEX_POINT('',#1907);
#618=VERTEX_POINT('',#1909);
#619=VERTEX_POINT('',#1911);
#620=VERTEX_POINT('',#1913);
#621=VERTEX_POINT('',#1915);
#622=VERTEX_POINT('',#1917);
#623=VERTEX_POINT('',#1921);
#624=VERTEX_POINT('',#1923);
#625=VERTEX_POINT('',#1925);
#626=VERTEX_POINT('',#1929);
#627=VERTEX_POINT('',#1932);
#628=VERTEX_POINT('',#1934);
#629=VERTEX_POINT('',#1936);
#630=VERTEX_POINT('',#1940);
#631=VERTEX_POINT('',#1942);
#632=VERTEX_POINT('',#1944);
#633=VERTEX_POINT('',#1948);
#634=VERTEX_POINT('',#1950);
#635=VERTEX_POINT('',#1953);
#636=VERTEX_POINT('',#1955);
#637=VERTEX_POINT('',#1957);
#638=VERTEX_POINT('',#1959);
#639=VERTEX_POINT('',#1962);
#640=VERTEX_POINT('',#1963);
#641=VERTEX_POINT('',#1965);
#642=VERTEX_POINT('',#1967);
#643=VERTEX_POINT('',#1969);
#644=VERTEX_POINT('',#1971);
#645=VERTEX_POINT('',#1975);
#646=VERTEX_POINT('',#1979);
#647=VERTEX_POINT('',#1983);
#648=VERTEX_POINT('',#1990);
#649=VERTEX_POINT('',#1993);
#650=VERTEX_POINT('',#2001);
#651=VERTEX_POINT('',#2007);
#652=VERTEX_POINT('',#2009);
#653=VERTEX_POINT('',#2013);
#654=VERTEX_POINT('',#2017);
#655=VERTEX_POINT('',#2018);
#656=VERTEX_POINT('',#2020);
#657=VERTEX_POINT('',#2022);
#658=VERTEX_POINT('',#2027);
#659=VERTEX_POINT('',#2031);
#660=VERTEX_POINT('',#2035);
#661=VERTEX_POINT('',#2037);
#662=VERTEX_POINT('',#2042);
#663=VERTEX_POINT('',#2046);
#664=VERTEX_POINT('',#2050);
#665=VERTEX_POINT('',#2052);
#666=VERTEX_POINT('',#2056);
#667=VERTEX_POINT('',#2062);
#668=VERTEX_POINT('',#2064);
#669=VERTEX_POINT('',#2068);
#670=VERTEX_POINT('',#2072);
#671=VERTEX_POINT('',#2078);
#672=VERTEX_POINT('',#2084);
#673=VERTEX_POINT('',#2090);
#674=VERTEX_POINT('',#2091);
#675=VERTEX_POINT('',#2093);
#676=VERTEX_POINT('',#2095);
#677=VERTEX_POINT('',#2099);
#678=VERTEX_POINT('',#2100);
#679=VERTEX_POINT('',#2105);
#680=VERTEX_POINT('',#2106);
#681=VERTEX_POINT('',#2111);
#682=VERTEX_POINT('',#2112);
#683=VERTEX_POINT('',#2117);
#684=VERTEX_POINT('',#2118);
#685=VERTEX_POINT('',#2123);
#686=VERTEX_POINT('',#2124);
#687=VERTEX_POINT('',#2129);
#688=VERTEX_POINT('',#2130);
#689=VERTEX_POINT('',#2147);
#690=VERTEX_POINT('',#2148);
#691=VERTEX_POINT('',#2150);
#692=VERTEX_POINT('',#2152);
#693=VERTEX_POINT('',#2154);
#694=VERTEX_POINT('',#2156);
#695=VERTEX_POINT('',#2158);
#696=VERTEX_POINT('',#2160);
#697=VERTEX_POINT('',#2171);
#698=VERTEX_POINT('',#2172);
#699=VERTEX_POINT('',#2177);
#700=VERTEX_POINT('',#2181);
#701=VERTEX_POINT('',#2185);
#702=VERTEX_POINT('',#2189);
#703=VERTEX_POINT('',#2193);
#704=VERTEX_POINT('',#2197);
#705=EDGE_CURVE('',#587,#587,#543,.T.);
#706=EDGE_CURVE('',#588,#588,#544,.T.);
#707=EDGE_CURVE('',#589,#589,#545,.T.);
#708=EDGE_CURVE('',#590,#590,#546,.T.);
#709=EDGE_CURVE('',#591,#591,#547,.T.);
#710=EDGE_CURVE('',#592,#592,#548,.T.);
#711=EDGE_CURVE('',#593,#593,#549,.T.);
#712=EDGE_CURVE('',#594,#594,#550,.T.);
#713=EDGE_CURVE('',#595,#595,#551,.T.);
#714=EDGE_CURVE('',#596,#596,#552,.T.);
#715=EDGE_CURVE('',#597,#597,#553,.T.);
#716=EDGE_CURVE('',#598,#598,#554,.T.);
#717=EDGE_CURVE('',#599,#600,#23,.T.);
#718=EDGE_CURVE('',#601,#599,#24,.T.);
#719=EDGE_CURVE('',#601,#600,#555,.T.);
#720=EDGE_CURVE('',#602,#602,#556,.T.);
#721=EDGE_CURVE('',#600,#603,#25,.T.);
#722=EDGE_CURVE('',#604,#601,#26,.T.);
#723=EDGE_CURVE('',#603,#604,#557,.T.);
#724=EDGE_CURVE('',#605,#603,#27,.T.);
#725=EDGE_CURVE('',#605,#606,#28,.T.);
#726=EDGE_CURVE('',#606,#607,#29,.T.);
#727=EDGE_CURVE('',#608,#607,#30,.T.);
#728=EDGE_CURVE('',#609,#608,#31,.T.);
#729=EDGE_CURVE('',#609,#599,#32,.T.);
#730=EDGE_CURVE('',#604,#610,#33,.T.);
#731=EDGE_CURVE('',#610,#611,#558,.T.);
#732=EDGE_CURVE('',#611,#612,#34,.T.);
#733=EDGE_CURVE('',#612,#613,#559,.T.);
#734=EDGE_CURVE('',#613,#614,#35,.T.);
#735=EDGE_CURVE('',#614,#605,#560,.T.);
#736=EDGE_CURVE('',#615,#616,#561,.T.);
#737=EDGE_CURVE('',#617,#615,#36,.T.);
#738=EDGE_CURVE('',#618,#617,#562,.T.);
#739=EDGE_CURVE('',#619,#618,#37,.T.);
#740=EDGE_CURVE('',#620,#619,#563,.T.);
#741=EDGE_CURVE('',#621,#620,#38,.T.);
#742=EDGE_CURVE('',#622,#621,#564,.T.);
#743=EDGE_CURVE('',#616,#622,#39,.T.);
#744=EDGE_CURVE('',#613,#623,#40,.T.);
#745=EDGE_CURVE('',#624,#612,#41,.T.);
#746=EDGE_CURVE('',#625,#624,#22,.T.);
#747=EDGE_CURVE('',#623,#625,#565,.T.);
#748=EDGE_CURVE('',#626,#626,#566,.T.);
#749=EDGE_CURVE('',#623,#627,#42,.T.);
#750=EDGE_CURVE('',#628,#625,#43,.T.);
#751=EDGE_CURVE('',#629,#628,#44,.T.);
#752=EDGE_CURVE('',#627,#629,#45,.T.);
#753=EDGE_CURVE('',#630,#628,#46,.T.);
#754=EDGE_CURVE('',#630,#631,#47,.T.);
#755=EDGE_CURVE('',#631,#632,#48,.T.);
#756=EDGE_CURVE('',#632,#629,#49,.T.);
#757=EDGE_CURVE('',#633,#632,#50,.T.);
#758=EDGE_CURVE('',#634,#633,#51,.T.);
#759=EDGE_CURVE('',#624,#634,#52,.T.);
#760=EDGE_CURVE('',#611,#635,#53,.T.);
#761=EDGE_CURVE('',#635,#636,#54,.T.);
#762=EDGE_CURVE('',#637,#636,#55,.T.);
#763=EDGE_CURVE('',#638,#637,#56,.T.);
#764=EDGE_CURVE('',#638,#627,#57,.T.);
#765=EDGE_CURVE('',#639,#640,#58,.T.);
#766=EDGE_CURVE('',#641,#639,#59,.T.);
#767=EDGE_CURVE('',#642,#641,#60,.T.);
#768=EDGE_CURVE('',#643,#642,#61,.T.);
#769=EDGE_CURVE('',#644,#643,#62,.T.);
#770=EDGE_CURVE('',#640,#644,#63,.T.);
#771=EDGE_CURVE('',#645,#634,#64,.T.);
#772=EDGE_CURVE('',#645,#630,#65,.T.);
#773=EDGE_CURVE('',#646,#614,#66,.T.);
#774=EDGE_CURVE('',#606,#646,#567,.T.);
#775=EDGE_CURVE('',#647,#647,#568,.T.);
#776=EDGE_CURVE('',#607,#646,#67,.T.);
#777=EDGE_CURVE('',#608,#638,#68,.T.);
#778=EDGE_CURVE('',#636,#648,#69,.T.);
#779=EDGE_CURVE('',#635,#648,#569,.T.);
#780=EDGE_CURVE('',#649,#649,#570,.T.);
#781=EDGE_CURVE('',#648,#610,#70,.T.);
#782=EDGE_CURVE('',#637,#609,#71,.T.);
#783=EDGE_CURVE('',#650,#645,#72,.T.);
#784=EDGE_CURVE('',#633,#650,#73,.T.);
#785=EDGE_CURVE('',#631,#650,#74,.T.);
#786=EDGE_CURVE('',#651,#645,#75,.T.);
#787=EDGE_CURVE('',#652,#651,#76,.T.);
#788=EDGE_CURVE('',#652,#630,#77,.T.);
#789=EDGE_CURVE('',#653,#650,#78,.T.);
#790=EDGE_CURVE('',#651,#653,#79,.T.);
#791=EDGE_CURVE('',#654,#655,#80,.T.);
#792=EDGE_CURVE('',#655,#656,#81,.T.);
#793=EDGE_CURVE('',#656,#657,#82,.T.);
#794=EDGE_CURVE('',#657,#643,#83,.T.);
#795=EDGE_CURVE('',#642,#654,#84,.T.);
#796=EDGE_CURVE('',#657,#658,#85,.T.);
#797=EDGE_CURVE('',#658,#644,#86,.T.);
#798=EDGE_CURVE('',#658,#659,#87,.T.);
#799=EDGE_CURVE('',#659,#640,#88,.T.);
#800=EDGE_CURVE('',#660,#655,#89,.T.);
#801=EDGE_CURVE('',#660,#661,#90,.T.);
#802=EDGE_CURVE('',#639,#661,#91,.T.);
#803=EDGE_CURVE('',#659,#656,#92,.T.);
#804=EDGE_CURVE('',#662,#654,#93,.T.);
#805=EDGE_CURVE('',#662,#660,#94,.T.);
#806=EDGE_CURVE('',#663,#641,#95,.T.);
#807=EDGE_CURVE('',#663,#662,#96,.T.);
#808=EDGE_CURVE('',#664,#657,#97,.T.);
#809=EDGE_CURVE('',#665,#664,#98,.T.);
#810=EDGE_CURVE('',#665,#658,#99,.T.);
#811=EDGE_CURVE('',#666,#656,#100,.T.);
#812=EDGE_CURVE('',#664,#666,#101,.T.);
#813=EDGE_CURVE('',#661,#663,#102,.T.);
#814=EDGE_CURVE('',#667,#663,#103,.T.);
#815=EDGE_CURVE('',#668,#667,#104,.T.);
#816=EDGE_CURVE('',#668,#662,#105,.T.);
#817=EDGE_CURVE('',#669,#661,#106,.T.);
#818=EDGE_CURVE('',#667,#669,#107,.T.);
#819=EDGE_CURVE('',#670,#652,#108,.T.);
#820=EDGE_CURVE('',#670,#631,#109,.T.);
#821=EDGE_CURVE('',#653,#670,#110,.T.);
#822=EDGE_CURVE('',#671,#665,#111,.T.);
#823=EDGE_CURVE('',#671,#659,#112,.T.);
#824=EDGE_CURVE('',#666,#671,#113,.T.);
#825=EDGE_CURVE('',#672,#668,#114,.T.);
#826=EDGE_CURVE('',#672,#660,#115,.T.);
#827=EDGE_CURVE('',#669,#672,#116,.T.);
#828=EDGE_CURVE('',#673,#674,#117,.T.);
#829=EDGE_CURVE('',#674,#675,#118,.T.);
#830=EDGE_CURVE('',#675,#676,#119,.T.);
#831=EDGE_CURVE('',#676,#673,#120,.T.);
#832=EDGE_CURVE('',#677,#678,#121,.T.);
#833=EDGE_CURVE('',#678,#674,#571,.T.);
#834=EDGE_CURVE('',#673,#677,#572,.T.);
#835=EDGE_CURVE('',#679,#680,#122,.T.);
#836=EDGE_CURVE('',#680,#678,#123,.T.);
#837=EDGE_CURVE('',#677,#679,#124,.T.);
#838=EDGE_CURVE('',#681,#682,#125,.T.);
#839=EDGE_CURVE('',#682,#680,#573,.T.);
#840=EDGE_CURVE('',#679,#681,#574,.T.);
#841=EDGE_CURVE('',#683,#684,#126,.T.);
#842=EDGE_CURVE('',#684,#682,#127,.T.);
#843=EDGE_CURVE('',#681,#683,#128,.T.);
#844=EDGE_CURVE('',#685,#686,#129,.T.);
#845=EDGE_CURVE('',#686,#684,#575,.T.);
#846=EDGE_CURVE('',#683,#685,#576,.T.);
#847=EDGE_CURVE('',#687,#688,#130,.T.);
#848=EDGE_CURVE('',#688,#686,#131,.T.);
#849=EDGE_CURVE('',#685,#687,#132,.T.);
#850=EDGE_CURVE('',#675,#688,#577,.T.);
#851=EDGE_CURVE('',#687,#676,#578,.T.);
#852=EDGE_CURVE('',#618,#679,#133,.T.);
#853=EDGE_CURVE('',#617,#681,#134,.T.);
#854=EDGE_CURVE('',#619,#677,#135,.T.);
#855=EDGE_CURVE('',#620,#673,#136,.T.);
#856=EDGE_CURVE('',#621,#676,#137,.T.);
#857=EDGE_CURVE('',#689,#690,#138,.T.);
#858=EDGE_CURVE('',#690,#691,#579,.T.);
#859=EDGE_CURVE('',#691,#692,#139,.T.);
#860=EDGE_CURVE('',#692,#693,#580,.T.);
#861=EDGE_CURVE('',#693,#694,#140,.T.);
#862=EDGE_CURVE('',#694,#695,#581,.T.);
#863=EDGE_CURVE('',#695,#696,#141,.T.);
#864=EDGE_CURVE('',#696,#689,#582,.T.);
#865=EDGE_CURVE('',#615,#683,#142,.T.);
#866=EDGE_CURVE('',#622,#687,#143,.T.);
#867=EDGE_CURVE('',#616,#685,#144,.T.);
#868=EDGE_CURVE('',#697,#698,#145,.T.);
#869=EDGE_CURVE('',#697,#690,#146,.T.);
#870=EDGE_CURVE('',#698,#689,#147,.T.);
#871=EDGE_CURVE('',#698,#699,#583,.T.);
#872=EDGE_CURVE('',#699,#696,#148,.T.);
#873=EDGE_CURVE('',#699,#700,#149,.T.);
#874=EDGE_CURVE('',#700,#695,#150,.T.);
#875=EDGE_CURVE('',#700,#701,#584,.T.);
#876=EDGE_CURVE('',#701,#694,#151,.T.);
#877=EDGE_CURVE('',#701,#702,#152,.T.);
#878=EDGE_CURVE('',#702,#693,#153,.T.);
#879=EDGE_CURVE('',#702,#703,#585,.T.);
#880=EDGE_CURVE('',#703,#692,#154,.T.);
#881=EDGE_CURVE('',#703,#704,#155,.T.);
#882=EDGE_CURVE('',#704,#691,#156,.T.);
#883=EDGE_CURVE('',#704,#697,#586,.T.);
#884=ORIENTED_EDGE('',*,*,#705,.F.);
#885=ORIENTED_EDGE('',*,*,#706,.T.);
#886=ORIENTED_EDGE('',*,*,#706,.F.);
#887=ORIENTED_EDGE('',*,*,#707,.F.);
#888=ORIENTED_EDGE('',*,*,#708,.F.);
#889=ORIENTED_EDGE('',*,*,#709,.T.);
#890=ORIENTED_EDGE('',*,*,#709,.F.);
#891=ORIENTED_EDGE('',*,*,#710,.F.);
#892=ORIENTED_EDGE('',*,*,#711,.F.);
#893=ORIENTED_EDGE('',*,*,#712,.T.);
#894=ORIENTED_EDGE('',*,*,#712,.F.);
#895=ORIENTED_EDGE('',*,*,#713,.F.);
#896=ORIENTED_EDGE('',*,*,#714,.F.);
#897=ORIENTED_EDGE('',*,*,#715,.T.);
#898=ORIENTED_EDGE('',*,*,#715,.F.);
#899=ORIENTED_EDGE('',*,*,#716,.F.);
#900=ORIENTED_EDGE('',*,*,#717,.F.);
#901=ORIENTED_EDGE('',*,*,#718,.F.);
#902=ORIENTED_EDGE('',*,*,#719,.T.);
#903=ORIENTED_EDGE('',*,*,#720,.T.);
#904=ORIENTED_EDGE('',*,*,#716,.T.);
#905=ORIENTED_EDGE('',*,*,#720,.F.);
#906=ORIENTED_EDGE('',*,*,#721,.F.);
#907=ORIENTED_EDGE('',*,*,#719,.F.);
#908=ORIENTED_EDGE('',*,*,#722,.F.);
#909=ORIENTED_EDGE('',*,*,#723,.F.);
#910=ORIENTED_EDGE('',*,*,#717,.T.);
#911=ORIENTED_EDGE('',*,*,#721,.T.);
#912=ORIENTED_EDGE('',*,*,#724,.F.);
#913=ORIENTED_EDGE('',*,*,#725,.T.);
#914=ORIENTED_EDGE('',*,*,#726,.T.);
#915=ORIENTED_EDGE('',*,*,#727,.F.);
#916=ORIENTED_EDGE('',*,*,#728,.F.);
#917=ORIENTED_EDGE('',*,*,#729,.T.);
#918=ORIENTED_EDGE('',*,*,#723,.T.);
#919=ORIENTED_EDGE('',*,*,#730,.T.);
#920=ORIENTED_EDGE('',*,*,#731,.T.);
#921=ORIENTED_EDGE('',*,*,#732,.T.);
#922=ORIENTED_EDGE('',*,*,#733,.T.);
#923=ORIENTED_EDGE('',*,*,#734,.T.);
#924=ORIENTED_EDGE('',*,*,#735,.T.);
#925=ORIENTED_EDGE('',*,*,#724,.T.);
#926=ORIENTED_EDGE('',*,*,#736,.F.);
#927=ORIENTED_EDGE('',*,*,#737,.F.);
#928=ORIENTED_EDGE('',*,*,#738,.F.);
#929=ORIENTED_EDGE('',*,*,#739,.F.);
#930=ORIENTED_EDGE('',*,*,#740,.F.);
#931=ORIENTED_EDGE('',*,*,#741,.F.);
#932=ORIENTED_EDGE('',*,*,#742,.F.);
#933=ORIENTED_EDGE('',*,*,#743,.F.);
#934=ORIENTED_EDGE('',*,*,#744,.F.);
#935=ORIENTED_EDGE('',*,*,#733,.F.);
#936=ORIENTED_EDGE('',*,*,#745,.F.);
#937=ORIENTED_EDGE('',*,*,#746,.F.);
#938=ORIENTED_EDGE('',*,*,#747,.F.);
#939=ORIENTED_EDGE('',*,*,#713,.T.);
#940=ORIENTED_EDGE('',*,*,#748,.F.);
#941=ORIENTED_EDGE('',*,*,#749,.F.);
#942=ORIENTED_EDGE('',*,*,#747,.T.);
#943=ORIENTED_EDGE('',*,*,#750,.F.);
#944=ORIENTED_EDGE('',*,*,#751,.F.);
#945=ORIENTED_EDGE('',*,*,#752,.F.);
#946=ORIENTED_EDGE('',*,*,#748,.T.);
#947=ORIENTED_EDGE('',*,*,#751,.T.);
#948=ORIENTED_EDGE('',*,*,#753,.F.);
#949=ORIENTED_EDGE('',*,*,#754,.T.);
#950=ORIENTED_EDGE('',*,*,#755,.T.);
#951=ORIENTED_EDGE('',*,*,#756,.T.);
#952=ORIENTED_EDGE('',*,*,#752,.T.);
#953=ORIENTED_EDGE('',*,*,#756,.F.);
#954=ORIENTED_EDGE('',*,*,#757,.F.);
#955=ORIENTED_EDGE('',*,*,#758,.F.);
#956=ORIENTED_EDGE('',*,*,#759,.F.);
#957=ORIENTED_EDGE('',*,*,#745,.T.);
#958=ORIENTED_EDGE('',*,*,#732,.F.);
#959=ORIENTED_EDGE('',*,*,#760,.T.);
#960=ORIENTED_EDGE('',*,*,#761,.T.);
#961=ORIENTED_EDGE('',*,*,#762,.F.);
#962=ORIENTED_EDGE('',*,*,#763,.F.);
#963=ORIENTED_EDGE('',*,*,#764,.T.);
#964=ORIENTED_EDGE('',*,*,#765,.F.);
#965=ORIENTED_EDGE('',*,*,#766,.F.);
#966=ORIENTED_EDGE('',*,*,#767,.F.);
#967=ORIENTED_EDGE('',*,*,#768,.F.);
#968=ORIENTED_EDGE('',*,*,#769,.F.);
#969=ORIENTED_EDGE('',*,*,#770,.F.);
#970=ORIENTED_EDGE('',*,*,#750,.T.);
#971=ORIENTED_EDGE('',*,*,#746,.T.);
#972=ORIENTED_EDGE('',*,*,#759,.T.);
#973=ORIENTED_EDGE('',*,*,#771,.F.);
#974=ORIENTED_EDGE('',*,*,#772,.T.);
#975=ORIENTED_EDGE('',*,*,#753,.T.);
#976=ORIENTED_EDGE('',*,*,#725,.F.);
#977=ORIENTED_EDGE('',*,*,#735,.F.);
#978=ORIENTED_EDGE('',*,*,#773,.F.);
#979=ORIENTED_EDGE('',*,*,#774,.F.);
#980=ORIENTED_EDGE('',*,*,#710,.T.);
#981=ORIENTED_EDGE('',*,*,#775,.F.);
#982=ORIENTED_EDGE('',*,*,#726,.F.);
#983=ORIENTED_EDGE('',*,*,#774,.T.);
#984=ORIENTED_EDGE('',*,*,#776,.F.);
#985=ORIENTED_EDGE('',*,*,#775,.T.);
#986=ORIENTED_EDGE('',*,*,#749,.T.);
#987=ORIENTED_EDGE('',*,*,#764,.F.);
#988=ORIENTED_EDGE('',*,*,#777,.F.);
#989=ORIENTED_EDGE('',*,*,#727,.T.);
#990=ORIENTED_EDGE('',*,*,#776,.T.);
#991=ORIENTED_EDGE('',*,*,#773,.T.);
#992=ORIENTED_EDGE('',*,*,#734,.F.);
#993=ORIENTED_EDGE('',*,*,#744,.T.);
#994=ORIENTED_EDGE('',*,*,#778,.F.);
#995=ORIENTED_EDGE('',*,*,#761,.F.);
#996=ORIENTED_EDGE('',*,*,#779,.T.);
#997=ORIENTED_EDGE('',*,*,#780,.T.);
#998=ORIENTED_EDGE('',*,*,#707,.T.);
#999=ORIENTED_EDGE('',*,*,#780,.F.);
#1000=ORIENTED_EDGE('',*,*,#781,.F.);
#1001=ORIENTED_EDGE('',*,*,#779,.F.);
#1002=ORIENTED_EDGE('',*,*,#760,.F.);
#1003=ORIENTED_EDGE('',*,*,#731,.F.);
#1004=ORIENTED_EDGE('',*,*,#718,.T.);
#1005=ORIENTED_EDGE('',*,*,#729,.F.);
#1006=ORIENTED_EDGE('',*,*,#782,.F.);
#1007=ORIENTED_EDGE('',*,*,#762,.T.);
#1008=ORIENTED_EDGE('',*,*,#778,.T.);
#1009=ORIENTED_EDGE('',*,*,#781,.T.);
#1010=ORIENTED_EDGE('',*,*,#730,.F.);
#1011=ORIENTED_EDGE('',*,*,#722,.T.);
#1012=ORIENTED_EDGE('',*,*,#783,.T.);
#1013=ORIENTED_EDGE('',*,*,#771,.T.);
#1014=ORIENTED_EDGE('',*,*,#758,.T.);
#1015=ORIENTED_EDGE('',*,*,#784,.T.);
#1016=ORIENTED_EDGE('',*,*,#757,.T.);
#1017=ORIENTED_EDGE('',*,*,#755,.F.);
#1018=ORIENTED_EDGE('',*,*,#785,.T.);
#1019=ORIENTED_EDGE('',*,*,#784,.F.);
#1020=ORIENTED_EDGE('',*,*,#772,.F.);
#1021=ORIENTED_EDGE('',*,*,#786,.F.);
#1022=ORIENTED_EDGE('',*,*,#787,.F.);
#1023=ORIENTED_EDGE('',*,*,#788,.T.);
#1024=ORIENTED_EDGE('',*,*,#783,.F.);
#1025=ORIENTED_EDGE('',*,*,#789,.F.);
#1026=ORIENTED_EDGE('',*,*,#790,.F.);
#1027=ORIENTED_EDGE('',*,*,#786,.T.);
#1028=ORIENTED_EDGE('',*,*,#791,.T.);
#1029=ORIENTED_EDGE('',*,*,#792,.T.);
#1030=ORIENTED_EDGE('',*,*,#793,.T.);
#1031=ORIENTED_EDGE('',*,*,#794,.T.);
#1032=ORIENTED_EDGE('',*,*,#768,.T.);
#1033=ORIENTED_EDGE('',*,*,#795,.T.);
#1034=ORIENTED_EDGE('',*,*,#769,.T.);
#1035=ORIENTED_EDGE('',*,*,#794,.F.);
#1036=ORIENTED_EDGE('',*,*,#796,.T.);
#1037=ORIENTED_EDGE('',*,*,#797,.T.);
#1038=ORIENTED_EDGE('',*,*,#770,.T.);
#1039=ORIENTED_EDGE('',*,*,#797,.F.);
#1040=ORIENTED_EDGE('',*,*,#798,.T.);
#1041=ORIENTED_EDGE('',*,*,#799,.T.);
#1042=ORIENTED_EDGE('',*,*,#800,.F.);
#1043=ORIENTED_EDGE('',*,*,#801,.T.);
#1044=ORIENTED_EDGE('',*,*,#802,.F.);
#1045=ORIENTED_EDGE('',*,*,#765,.T.);
#1046=ORIENTED_EDGE('',*,*,#799,.F.);
#1047=ORIENTED_EDGE('',*,*,#803,.T.);
#1048=ORIENTED_EDGE('',*,*,#792,.F.);
#1049=ORIENTED_EDGE('',*,*,#791,.F.);
#1050=ORIENTED_EDGE('',*,*,#804,.F.);
#1051=ORIENTED_EDGE('',*,*,#805,.T.);
#1052=ORIENTED_EDGE('',*,*,#800,.T.);
#1053=ORIENTED_EDGE('',*,*,#795,.F.);
#1054=ORIENTED_EDGE('',*,*,#767,.T.);
#1055=ORIENTED_EDGE('',*,*,#806,.F.);
#1056=ORIENTED_EDGE('',*,*,#807,.T.);
#1057=ORIENTED_EDGE('',*,*,#804,.T.);
#1058=ORIENTED_EDGE('',*,*,#796,.F.);
#1059=ORIENTED_EDGE('',*,*,#808,.F.);
#1060=ORIENTED_EDGE('',*,*,#809,.F.);
#1061=ORIENTED_EDGE('',*,*,#810,.T.);
#1062=ORIENTED_EDGE('',*,*,#793,.F.);
#1063=ORIENTED_EDGE('',*,*,#811,.F.);
#1064=ORIENTED_EDGE('',*,*,#812,.F.);
#1065=ORIENTED_EDGE('',*,*,#808,.T.);
#1066=ORIENTED_EDGE('',*,*,#813,.T.);
#1067=ORIENTED_EDGE('',*,*,#806,.T.);
#1068=ORIENTED_EDGE('',*,*,#766,.T.);
#1069=ORIENTED_EDGE('',*,*,#802,.T.);
#1070=ORIENTED_EDGE('',*,*,#807,.F.);
#1071=ORIENTED_EDGE('',*,*,#814,.F.);
#1072=ORIENTED_EDGE('',*,*,#815,.F.);
#1073=ORIENTED_EDGE('',*,*,#816,.T.);
#1074=ORIENTED_EDGE('',*,*,#813,.F.);
#1075=ORIENTED_EDGE('',*,*,#817,.F.);
#1076=ORIENTED_EDGE('',*,*,#818,.F.);
#1077=ORIENTED_EDGE('',*,*,#814,.T.);
#1078=ORIENTED_EDGE('',*,*,#754,.F.);
#1079=ORIENTED_EDGE('',*,*,#788,.F.);
#1080=ORIENTED_EDGE('',*,*,#819,.F.);
#1081=ORIENTED_EDGE('',*,*,#820,.T.);
#1082=ORIENTED_EDGE('',*,*,#785,.F.);
#1083=ORIENTED_EDGE('',*,*,#820,.F.);
#1084=ORIENTED_EDGE('',*,*,#821,.F.);
#1085=ORIENTED_EDGE('',*,*,#789,.T.);
#1086=ORIENTED_EDGE('',*,*,#798,.F.);
#1087=ORIENTED_EDGE('',*,*,#810,.F.);
#1088=ORIENTED_EDGE('',*,*,#822,.F.);
#1089=ORIENTED_EDGE('',*,*,#823,.T.);
#1090=ORIENTED_EDGE('',*,*,#803,.F.);
#1091=ORIENTED_EDGE('',*,*,#823,.F.);
#1092=ORIENTED_EDGE('',*,*,#824,.F.);
#1093=ORIENTED_EDGE('',*,*,#811,.T.);
#1094=ORIENTED_EDGE('',*,*,#805,.F.);
#1095=ORIENTED_EDGE('',*,*,#816,.F.);
#1096=ORIENTED_EDGE('',*,*,#825,.F.);
#1097=ORIENTED_EDGE('',*,*,#826,.T.);
#1098=ORIENTED_EDGE('',*,*,#801,.F.);
#1099=ORIENTED_EDGE('',*,*,#826,.F.);
#1100=ORIENTED_EDGE('',*,*,#827,.F.);
#1101=ORIENTED_EDGE('',*,*,#817,.T.);
#1102=ORIENTED_EDGE('',*,*,#828,.T.);
#1103=ORIENTED_EDGE('',*,*,#829,.T.);
#1104=ORIENTED_EDGE('',*,*,#830,.T.);
#1105=ORIENTED_EDGE('',*,*,#831,.T.);
#1106=ORIENTED_EDGE('',*,*,#832,.T.);
#1107=ORIENTED_EDGE('',*,*,#833,.T.);
#1108=ORIENTED_EDGE('',*,*,#828,.F.);
#1109=ORIENTED_EDGE('',*,*,#834,.T.);
#1110=ORIENTED_EDGE('',*,*,#835,.T.);
#1111=ORIENTED_EDGE('',*,*,#836,.T.);
#1112=ORIENTED_EDGE('',*,*,#832,.F.);
#1113=ORIENTED_EDGE('',*,*,#837,.T.);
#1114=ORIENTED_EDGE('',*,*,#838,.T.);
#1115=ORIENTED_EDGE('',*,*,#839,.T.);
#1116=ORIENTED_EDGE('',*,*,#835,.F.);
#1117=ORIENTED_EDGE('',*,*,#840,.T.);
#1118=ORIENTED_EDGE('',*,*,#841,.T.);
#1119=ORIENTED_EDGE('',*,*,#842,.T.);
#1120=ORIENTED_EDGE('',*,*,#838,.F.);
#1121=ORIENTED_EDGE('',*,*,#843,.T.);
#1122=ORIENTED_EDGE('',*,*,#844,.T.);
#1123=ORIENTED_EDGE('',*,*,#845,.T.);
#1124=ORIENTED_EDGE('',*,*,#841,.F.);
#1125=ORIENTED_EDGE('',*,*,#846,.T.);
#1126=ORIENTED_EDGE('',*,*,#847,.T.);
#1127=ORIENTED_EDGE('',*,*,#848,.T.);
#1128=ORIENTED_EDGE('',*,*,#844,.F.);
#1129=ORIENTED_EDGE('',*,*,#849,.T.);
#1130=ORIENTED_EDGE('',*,*,#830,.F.);
#1131=ORIENTED_EDGE('',*,*,#850,.T.);
#1132=ORIENTED_EDGE('',*,*,#847,.F.);
#1133=ORIENTED_EDGE('',*,*,#851,.T.);
#1134=ORIENTED_EDGE('',*,*,#840,.F.);
#1135=ORIENTED_EDGE('',*,*,#852,.F.);
#1136=ORIENTED_EDGE('',*,*,#738,.T.);
#1137=ORIENTED_EDGE('',*,*,#853,.T.);
#1138=ORIENTED_EDGE('',*,*,#837,.F.);
#1139=ORIENTED_EDGE('',*,*,#854,.F.);
#1140=ORIENTED_EDGE('',*,*,#739,.T.);
#1141=ORIENTED_EDGE('',*,*,#852,.T.);
#1142=ORIENTED_EDGE('',*,*,#834,.F.);
#1143=ORIENTED_EDGE('',*,*,#855,.F.);
#1144=ORIENTED_EDGE('',*,*,#740,.T.);
#1145=ORIENTED_EDGE('',*,*,#854,.T.);
#1146=ORIENTED_EDGE('',*,*,#831,.F.);
#1147=ORIENTED_EDGE('',*,*,#856,.F.);
#1148=ORIENTED_EDGE('',*,*,#741,.T.);
#1149=ORIENTED_EDGE('',*,*,#855,.T.);
#1150=ORIENTED_EDGE('',*,*,#857,.T.);
#1151=ORIENTED_EDGE('',*,*,#858,.T.);
#1152=ORIENTED_EDGE('',*,*,#859,.T.);
#1153=ORIENTED_EDGE('',*,*,#860,.T.);
#1154=ORIENTED_EDGE('',*,*,#861,.T.);
#1155=ORIENTED_EDGE('',*,*,#862,.T.);
#1156=ORIENTED_EDGE('',*,*,#863,.T.);
#1157=ORIENTED_EDGE('',*,*,#864,.T.);
#1158=ORIENTED_EDGE('',*,*,#705,.T.);
#1159=ORIENTED_EDGE('',*,*,#708,.T.);
#1160=ORIENTED_EDGE('',*,*,#711,.T.);
#1161=ORIENTED_EDGE('',*,*,#714,.T.);
#1162=ORIENTED_EDGE('',*,*,#829,.F.);
#1163=ORIENTED_EDGE('',*,*,#833,.F.);
#1164=ORIENTED_EDGE('',*,*,#836,.F.);
#1165=ORIENTED_EDGE('',*,*,#839,.F.);
#1166=ORIENTED_EDGE('',*,*,#842,.F.);
#1167=ORIENTED_EDGE('',*,*,#845,.F.);
#1168=ORIENTED_EDGE('',*,*,#848,.F.);
#1169=ORIENTED_EDGE('',*,*,#850,.F.);
#1170=ORIENTED_EDGE('',*,*,#843,.F.);
#1171=ORIENTED_EDGE('',*,*,#853,.F.);
#1172=ORIENTED_EDGE('',*,*,#737,.T.);
#1173=ORIENTED_EDGE('',*,*,#865,.T.);
#1174=ORIENTED_EDGE('',*,*,#851,.F.);
#1175=ORIENTED_EDGE('',*,*,#866,.F.);
#1176=ORIENTED_EDGE('',*,*,#742,.T.);
#1177=ORIENTED_EDGE('',*,*,#856,.T.);
#1178=ORIENTED_EDGE('',*,*,#849,.F.);
#1179=ORIENTED_EDGE('',*,*,#867,.F.);
#1180=ORIENTED_EDGE('',*,*,#743,.T.);
#1181=ORIENTED_EDGE('',*,*,#866,.T.);
#1182=ORIENTED_EDGE('',*,*,#846,.F.);
#1183=ORIENTED_EDGE('',*,*,#865,.F.);
#1184=ORIENTED_EDGE('',*,*,#736,.T.);
#1185=ORIENTED_EDGE('',*,*,#867,.T.);
#1186=ORIENTED_EDGE('',*,*,#868,.F.);
#1187=ORIENTED_EDGE('',*,*,#869,.T.);
#1188=ORIENTED_EDGE('',*,*,#857,.F.);
#1189=ORIENTED_EDGE('',*,*,#870,.F.);
#1190=ORIENTED_EDGE('',*,*,#871,.F.);
#1191=ORIENTED_EDGE('',*,*,#870,.T.);
#1192=ORIENTED_EDGE('',*,*,#864,.F.);
#1193=ORIENTED_EDGE('',*,*,#872,.F.);
#1194=ORIENTED_EDGE('',*,*,#873,.F.);
#1195=ORIENTED_EDGE('',*,*,#872,.T.);
#1196=ORIENTED_EDGE('',*,*,#863,.F.);
#1197=ORIENTED_EDGE('',*,*,#874,.F.);
#1198=ORIENTED_EDGE('',*,*,#875,.F.);
#1199=ORIENTED_EDGE('',*,*,#874,.T.);
#1200=ORIENTED_EDGE('',*,*,#862,.F.);
#1201=ORIENTED_EDGE('',*,*,#876,.F.);
#1202=ORIENTED_EDGE('',*,*,#877,.F.);
#1203=ORIENTED_EDGE('',*,*,#876,.T.);
#1204=ORIENTED_EDGE('',*,*,#861,.F.);
#1205=ORIENTED_EDGE('',*,*,#878,.F.);
#1206=ORIENTED_EDGE('',*,*,#879,.F.);
#1207=ORIENTED_EDGE('',*,*,#878,.T.);
#1208=ORIENTED_EDGE('',*,*,#860,.F.);
#1209=ORIENTED_EDGE('',*,*,#880,.F.);
#1210=ORIENTED_EDGE('',*,*,#881,.F.);
#1211=ORIENTED_EDGE('',*,*,#880,.T.);
#1212=ORIENTED_EDGE('',*,*,#859,.F.);
#1213=ORIENTED_EDGE('',*,*,#882,.F.);
#1214=ORIENTED_EDGE('',*,*,#790,.T.);
#1215=ORIENTED_EDGE('',*,*,#821,.T.);
#1216=ORIENTED_EDGE('',*,*,#819,.T.);
#1217=ORIENTED_EDGE('',*,*,#787,.T.);
#1218=ORIENTED_EDGE('',*,*,#812,.T.);
#1219=ORIENTED_EDGE('',*,*,#824,.T.);
#1220=ORIENTED_EDGE('',*,*,#822,.T.);
#1221=ORIENTED_EDGE('',*,*,#809,.T.);
#1222=ORIENTED_EDGE('',*,*,#818,.T.);
#1223=ORIENTED_EDGE('',*,*,#827,.T.);
#1224=ORIENTED_EDGE('',*,*,#825,.T.);
#1225=ORIENTED_EDGE('',*,*,#815,.T.);
#1226=ORIENTED_EDGE('',*,*,#883,.F.);
#1227=ORIENTED_EDGE('',*,*,#882,.T.);
#1228=ORIENTED_EDGE('',*,*,#858,.F.);
#1229=ORIENTED_EDGE('',*,*,#869,.F.);
#1230=ORIENTED_EDGE('',*,*,#883,.T.);
#1231=ORIENTED_EDGE('',*,*,#868,.T.);
#1232=ORIENTED_EDGE('',*,*,#871,.T.);
#1233=ORIENTED_EDGE('',*,*,#873,.T.);
#1234=ORIENTED_EDGE('',*,*,#875,.T.);
#1235=ORIENTED_EDGE('',*,*,#877,.T.);
#1236=ORIENTED_EDGE('',*,*,#879,.T.);
#1237=ORIENTED_EDGE('',*,*,#881,.T.);
#1238=ORIENTED_EDGE('',*,*,#728,.T.);
#1239=ORIENTED_EDGE('',*,*,#777,.T.);
#1240=ORIENTED_EDGE('',*,*,#763,.T.);
#1241=ORIENTED_EDGE('',*,*,#782,.T.);
#1242=CYLINDRICAL_SURFACE('',#1338,0.34925);
#1243=CYLINDRICAL_SURFACE('',#1343,0.349250000000001);
#1244=CYLINDRICAL_SURFACE('',#1348,0.34925);
#1245=CYLINDRICAL_SURFACE('',#1353,0.349250000000001);
#1246=CYLINDRICAL_SURFACE('',#1361,0.1778);
#1247=CYLINDRICAL_SURFACE('',#1362,0.79375);
#1248=CYLINDRICAL_SURFACE('',#1373,0.79375);
#1249=CYLINDRICAL_SURFACE('',#1376,0.1778);
#1250=CYLINDRICAL_SURFACE('',#1382,0.79375);
#1251=CYLINDRICAL_SURFACE('',#1384,0.1778);
#1252=CYLINDRICAL_SURFACE('',#1391,0.1778);
#1253=CYLINDRICAL_SURFACE('',#1392,0.79375);
#1254=CYLINDRICAL_SURFACE('',#1431,0.126999999999999);
#1255=CYLINDRICAL_SURFACE('',#1433,0.127);
#1256=CYLINDRICAL_SURFACE('',#1441,0.126999999999999);
#1257=CYLINDRICAL_SURFACE('',#1443,0.126999999999998);
#1258=CYLINDRICAL_SURFACE('',#1445,0.317500000000003);
#1259=CYLINDRICAL_SURFACE('',#1448,0.317499999999997);
#1260=CYLINDRICAL_SURFACE('',#1451,0.317500000000001);
#1261=CYLINDRICAL_SURFACE('',#1454,0.3175);
#1262=ADVANCED_FACE('',(#368,#341),#1242,.F.);
#1263=ADVANCED_FACE('',(#369,#342),#291,.F.);
#1264=ADVANCED_FACE('',(#370,#343),#1243,.F.);
#1265=ADVANCED_FACE('',(#371,#344),#292,.F.);
#1266=ADVANCED_FACE('',(#372,#345),#1244,.F.);
#1267=ADVANCED_FACE('',(#373,#346),#293,.F.);
#1268=ADVANCED_FACE('',(#374,#347),#1245,.F.);
#1269=ADVANCED_FACE('',(#375,#348),#294,.F.);
#1270=ADVANCED_FACE('',(#376,#349),#295,.T.);
#1271=ADVANCED_FACE('',(#377,#350),#1246,.F.);
#1272=ADVANCED_FACE('',(#378),#1247,.T.);
#1273=ADVANCED_FACE('',(#379),#296,.T.);
#1274=ADVANCED_FACE('',(#380,#351),#297,.F.);
#1275=ADVANCED_FACE('',(#381),#1248,.T.);
#1276=ADVANCED_FACE('',(#382,#352),#1249,.F.);
#1277=ADVANCED_FACE('',(#383,#353),#298,.T.);
#1278=ADVANCED_FACE('',(#384),#299,.T.);
#1279=ADVANCED_FACE('',(#385,#354),#300,.T.);
#1280=ADVANCED_FACE('',(#386),#301,.T.);
#1281=ADVANCED_FACE('',(#387),#1250,.T.);
#1282=ADVANCED_FACE('',(#388,#355),#1251,.F.);
#1283=ADVANCED_FACE('',(#389,#356),#302,.T.);
#1284=ADVANCED_FACE('',(#390),#303,.T.);
#1285=ADVANCED_FACE('',(#391,#357),#304,.T.);
#1286=ADVANCED_FACE('',(#392,#358),#1252,.F.);
#1287=ADVANCED_FACE('',(#393),#1253,.T.);
#1288=ADVANCED_FACE('',(#394),#305,.T.);
#1289=ADVANCED_FACE('',(#395),#306,.T.);
#1290=ADVANCED_FACE('',(#396),#307,.T.);
#1291=ADVANCED_FACE('',(#397),#308,.F.);
#1292=ADVANCED_FACE('',(#398),#309,.F.);
#1293=ADVANCED_FACE('',(#399),#310,.T.);
#1294=ADVANCED_FACE('',(#400),#311,.T.);
#1295=ADVANCED_FACE('',(#401),#312,.T.);
#1296=ADVANCED_FACE('',(#402),#313,.T.);
#1297=ADVANCED_FACE('',(#403),#314,.T.);
#1298=ADVANCED_FACE('',(#404),#315,.T.);
#1299=ADVANCED_FACE('',(#405),#316,.F.);
#1300=ADVANCED_FACE('',(#406),#317,.F.);
#1301=ADVANCED_FACE('',(#407),#318,.T.);
#1302=ADVANCED_FACE('',(#408),#319,.F.);
#1303=ADVANCED_FACE('',(#409),#320,.F.);
#1304=ADVANCED_FACE('',(#410),#321,.F.);
#1305=ADVANCED_FACE('',(#411),#322,.F.);
#1306=ADVANCED_FACE('',(#412),#323,.F.);
#1307=ADVANCED_FACE('',(#413),#324,.F.);
#1308=ADVANCED_FACE('',(#414),#325,.F.);
#1309=ADVANCED_FACE('',(#415),#326,.F.);
#1310=ADVANCED_FACE('',(#416),#327,.T.);
#1311=ADVANCED_FACE('',(#417),#18,.F.);
#1312=ADVANCED_FACE('',(#418),#328,.T.);
#1313=ADVANCED_FACE('',(#419),#19,.F.);
#1314=ADVANCED_FACE('',(#420),#329,.T.);
#1315=ADVANCED_FACE('',(#421),#20,.F.);
#1316=ADVANCED_FACE('',(#422),#330,.T.);
#1317=ADVANCED_FACE('',(#423),#21,.F.);
#1318=ADVANCED_FACE('',(#424),#1254,.F.);
#1319=ADVANCED_FACE('',(#425),#331,.T.);
#1320=ADVANCED_FACE('',(#426),#1255,.F.);
#1321=ADVANCED_FACE('',(#427),#332,.T.);
#1322=ADVANCED_FACE('',(#428,#359,#360,#361,#362,#363),#333,.T.);
#1323=ADVANCED_FACE('',(#429),#334,.T.);
#1324=ADVANCED_FACE('',(#430),#1256,.F.);
#1325=ADVANCED_FACE('',(#431),#335,.T.);
#1326=ADVANCED_FACE('',(#432),#1257,.F.);
#1327=ADVANCED_FACE('',(#433),#336,.T.);
#1328=ADVANCED_FACE('',(#434),#1258,.T.);
#1329=ADVANCED_FACE('',(#435),#337,.T.);
#1330=ADVANCED_FACE('',(#436),#1259,.T.);
#1331=ADVANCED_FACE('',(#437),#338,.T.);
#1332=ADVANCED_FACE('',(#438),#1260,.T.);
#1333=ADVANCED_FACE('',(#439,#364,#365,#366),#339,.T.);
#1334=ADVANCED_FACE('',(#440),#1261,.T.);
#1335=ADVANCED_FACE('',(#441,#367),#340,.T.);
#1336=CLOSED_SHELL('',(#1262,#1263,#1264,#1265,#1266,#1267,#1268,#1269,
#1270,#1271,#1272,#1273,#1274,#1275,#1276,#1277,#1278,#1279,#1280,#1281,
#1282,#1283,#1284,#1285,#1286,#1287,#1288,#1289,#1290,#1291,#1292,#1293,
#1294,#1295,#1296,#1297,#1298,#1299,#1300,#1301,#1302,#1303,#1304,#1305,
#1306,#1307,#1308,#1309,#1310,#1311,#1312,#1313,#1314,#1315,#1316,#1317,
#1318,#1319,#1320,#1321,#1322,#1323,#1324,#1325,#1326,#1327,#1328,#1329,
#1330,#1331,#1332,#1333,#1334,#1335));
#1337=AXIS2_PLACEMENT_3D('placement',#1831,#1457,#1458);
#1338=AXIS2_PLACEMENT_3D('',#1832,#1459,#1460);
#1339=AXIS2_PLACEMENT_3D('',#1834,#1461,#1462);
#1340=AXIS2_PLACEMENT_3D('',#1836,#1463,#1464);
#1341=AXIS2_PLACEMENT_3D('',#1837,#1465,#1466);
#1342=AXIS2_PLACEMENT_3D('',#1839,#1467,#1468);
#1343=AXIS2_PLACEMENT_3D('',#1840,#1469,#1470);
#1344=AXIS2_PLACEMENT_3D('',#1842,#1471,#1472);
#1345=AXIS2_PLACEMENT_3D('',#1844,#1473,#1474);
#1346=AXIS2_PLACEMENT_3D('',#1845,#1475,#1476);
#1347=AXIS2_PLACEMENT_3D('',#1847,#1477,#1478);
#1348=AXIS2_PLACEMENT_3D('',#1848,#1479,#1480);
#1349=AXIS2_PLACEMENT_3D('',#1850,#1481,#1482);
#1350=AXIS2_PLACEMENT_3D('',#1852,#1483,#1484);
#1351=AXIS2_PLACEMENT_3D('',#1853,#1485,#1486);
#1352=AXIS2_PLACEMENT_3D('',#1855,#1487,#1488);
#1353=AXIS2_PLACEMENT_3D('',#1856,#1489,#1490);
#1354=AXIS2_PLACEMENT_3D('',#1858,#1491,#1492);
#1355=AXIS2_PLACEMENT_3D('',#1860,#1493,#1494);
#1356=AXIS2_PLACEMENT_3D('',#1861,#1495,#1496);
#1357=AXIS2_PLACEMENT_3D('',#1863,#1497,#1498);
#1358=AXIS2_PLACEMENT_3D('',#1864,#1499,#1500);
#1359=AXIS2_PLACEMENT_3D('',#1870,#1503,#1504);
#1360=AXIS2_PLACEMENT_3D('',#1872,#1505,#1506);
#1361=AXIS2_PLACEMENT_3D('',#1873,#1507,#1508);
#1362=AXIS2_PLACEMENT_3D('',#1874,#1509,#1510);
#1363=AXIS2_PLACEMENT_3D('',#1879,#1513,#1514);
#1364=AXIS2_PLACEMENT_3D('',#1880,#1515,#1516);
#1365=AXIS2_PLACEMENT_3D('',#1892,#1523,#1524);
#1366=AXIS2_PLACEMENT_3D('',#1896,#1526,#1527);
#1367=AXIS2_PLACEMENT_3D('',#1900,#1529,#1530);
#1368=AXIS2_PLACEMENT_3D('',#1903,#1532,#1533);
#1369=AXIS2_PLACEMENT_3D('',#1906,#1534,#1535);
#1370=AXIS2_PLACEMENT_3D('',#1910,#1537,#1538);
#1371=AXIS2_PLACEMENT_3D('',#1914,#1540,#1541);
#1372=AXIS2_PLACEMENT_3D('',#1918,#1543,#1544);
#1373=AXIS2_PLACEMENT_3D('',#1920,#1546,#1547);
#1374=AXIS2_PLACEMENT_3D('',#1926,#1550,#1551);
#1375=AXIS2_PLACEMENT_3D('',#1927,#1552,#1553);
#1376=AXIS2_PLACEMENT_3D('',#1928,#1554,#1555);
#1377=AXIS2_PLACEMENT_3D('',#1930,#1556,#1557);
#1378=AXIS2_PLACEMENT_3D('',#1931,#1558,#1559);
#1379=AXIS2_PLACEMENT_3D('',#1939,#1564,#1565);
#1380=AXIS2_PLACEMENT_3D('',#1947,#1570,#1571);
#1381=AXIS2_PLACEMENT_3D('',#1974,#1586,#1587);
#1382=AXIS2_PLACEMENT_3D('',#1978,#1590,#1591);
#1383=AXIS2_PLACEMENT_3D('',#1981,#1593,#1594);
#1384=AXIS2_PLACEMENT_3D('',#1982,#1595,#1596);
#1385=AXIS2_PLACEMENT_3D('',#1984,#1597,#1598);
#1386=AXIS2_PLACEMENT_3D('',#1985,#1599,#1600);
#1387=AXIS2_PLACEMENT_3D('',#1987,#1602,#1603);
#1388=AXIS2_PLACEMENT_3D('',#1989,#1605,#1606);
#1389=AXIS2_PLACEMENT_3D('',#1992,#1608,#1609);
#1390=AXIS2_PLACEMENT_3D('',#1994,#1610,#1611);
#1391=AXIS2_PLACEMENT_3D('',#1995,#1612,#1613);
#1392=AXIS2_PLACEMENT_3D('',#1996,#1614,#1615);
#1393=AXIS2_PLACEMENT_3D('',#1998,#1617,#1618);
#1394=AXIS2_PLACEMENT_3D('',#2000,#1620,#1621);
#1395=AXIS2_PLACEMENT_3D('',#2004,#1624,#1625);
#1396=AXIS2_PLACEMENT_3D('',#2006,#1627,#1628);
#1397=AXIS2_PLACEMENT_3D('',#2012,#1632,#1633);
#1398=AXIS2_PLACEMENT_3D('',#2016,#1636,#1637);
#1399=AXIS2_PLACEMENT_3D('',#2026,#1643,#1644);
#1400=AXIS2_PLACEMENT_3D('',#2030,#1647,#1648);
#1401=AXIS2_PLACEMENT_3D('',#2034,#1651,#1652);
#1402=AXIS2_PLACEMENT_3D('',#2041,#1657,#1658);
#1403=AXIS2_PLACEMENT_3D('',#2045,#1661,#1662);
#1404=AXIS2_PLACEMENT_3D('',#2049,#1665,#1666);
#1405=AXIS2_PLACEMENT_3D('',#2055,#1670,#1671);
#1406=AXIS2_PLACEMENT_3D('',#2059,#1674,#1675);
#1407=AXIS2_PLACEMENT_3D('',#2061,#1677,#1678);
#1408=AXIS2_PLACEMENT_3D('',#2067,#1682,#1683);
#1409=AXIS2_PLACEMENT_3D('',#2071,#1686,#1687);
#1410=AXIS2_PLACEMENT_3D('',#2075,#1690,#1691);
#1411=AXIS2_PLACEMENT_3D('',#2077,#1693,#1694);
#1412=AXIS2_PLACEMENT_3D('',#2081,#1697,#1698);
#1413=AXIS2_PLACEMENT_3D('',#2083,#1700,#1701);
#1414=AXIS2_PLACEMENT_3D('',#2087,#1704,#1705);
#1415=AXIS2_PLACEMENT_3D('',#2089,#1707,#1708);
#1416=AXIS2_PLACEMENT_3D('',#2098,#1713,#1714);
#1417=AXIS2_PLACEMENT_3D('',#2102,#1716,#1717);
#1418=AXIS2_PLACEMENT_3D('',#2103,#1718,#1719);
#1419=AXIS2_PLACEMENT_3D('',#2104,#1720,#1721);
#1420=AXIS2_PLACEMENT_3D('',#2110,#1725,#1726);
#1421=AXIS2_PLACEMENT_3D('',#2114,#1728,#1729);
#1422=AXIS2_PLACEMENT_3D('',#2115,#1730,#1731);
#1423=AXIS2_PLACEMENT_3D('',#2116,#1732,#1733);
#1424=AXIS2_PLACEMENT_3D('',#2122,#1737,#1738);
#1425=AXIS2_PLACEMENT_3D('',#2126,#1740,#1741);
#1426=AXIS2_PLACEMENT_3D('',#2127,#1742,#1743);
#1427=AXIS2_PLACEMENT_3D('',#2128,#1744,#1745);
#1428=AXIS2_PLACEMENT_3D('',#2134,#1749,#1750);
#1429=AXIS2_PLACEMENT_3D('',#2135,#1751,#1752);
#1430=AXIS2_PLACEMENT_3D('',#2136,#1753,#1754);
#1431=AXIS2_PLACEMENT_3D('',#2137,#1755,#1756);
#1432=AXIS2_PLACEMENT_3D('',#2140,#1759,#1760);
#1433=AXIS2_PLACEMENT_3D('',#2142,#1762,#1763);
#1434=AXIS2_PLACEMENT_3D('',#2144,#1765,#1766);
#1435=AXIS2_PLACEMENT_3D('',#2146,#1768,#1769);
#1436=AXIS2_PLACEMENT_3D('',#2151,#1771,#1772);
#1437=AXIS2_PLACEMENT_3D('',#2155,#1774,#1775);
#1438=AXIS2_PLACEMENT_3D('',#2159,#1777,#1778);
#1439=AXIS2_PLACEMENT_3D('',#2162,#1780,#1781);
#1440=AXIS2_PLACEMENT_3D('',#2163,#1782,#1783);
#1441=AXIS2_PLACEMENT_3D('',#2165,#1785,#1786);
#1442=AXIS2_PLACEMENT_3D('',#2167,#1788,#1789);
#1443=AXIS2_PLACEMENT_3D('',#2169,#1791,#1792);
#1444=AXIS2_PLACEMENT_3D('',#2170,#1793,#1794);
#1445=AXIS2_PLACEMENT_3D('',#2176,#1798,#1799);
#1446=AXIS2_PLACEMENT_3D('',#2178,#1800,#1801);
#1447=AXIS2_PLACEMENT_3D('',#2180,#1803,#1804);
#1448=AXIS2_PLACEMENT_3D('',#2184,#1807,#1808);
#1449=AXIS2_PLACEMENT_3D('',#2186,#1809,#1810);
#1450=AXIS2_PLACEMENT_3D('',#2188,#1812,#1813);
#1451=AXIS2_PLACEMENT_3D('',#2192,#1816,#1817);
#1452=AXIS2_PLACEMENT_3D('',#2194,#1818,#1819);
#1453=AXIS2_PLACEMENT_3D('',#2196,#1821,#1822);
#1454=AXIS2_PLACEMENT_3D('',#2200,#1825,#1826);
#1455=AXIS2_PLACEMENT_3D('',#2201,#1827,#1828);
#1456=AXIS2_PLACEMENT_3D('',#2202,#1829,#1830);
#1457=DIRECTION('axis',(0.,0.,1.));
#1458=DIRECTION('refdir',(1.,0.,0.));
#1459=DIRECTION('center_axis',(0.,-2.91397119324188E-16,1.));
#1460=DIRECTION('ref_axis',(1.,0.,0.));
#1461=DIRECTION('center_axis',(0.,0.,-1.));
#1462=DIRECTION('ref_axis',(1.,0.,0.));
#1463=DIRECTION('center_axis',(0.,2.7995587892289E-16,-1.));
#1464=DIRECTION('ref_axis',(1.,0.,0.));
#1465=DIRECTION('center_axis',(0.,2.7995587892289E-16,-1.));
#1466=DIRECTION('ref_axis',(1.,0.,0.));
#1467=DIRECTION('center_axis',(0.,-2.7995587892289E-16,1.));
#1468=DIRECTION('ref_axis',(1.,0.,0.));
#1469=DIRECTION('center_axis',(0.,0.,1.));
#1470=DIRECTION('ref_axis',(1.,0.,0.));
#1471=DIRECTION('center_axis',(0.,0.,-1.));
#1472=DIRECTION('ref_axis',(1.,0.,0.));
#1473=DIRECTION('center_axis',(0.,2.7995587892289E-16,-1.));
#1474=DIRECTION('ref_axis',(1.,0.,0.));
#1475=DIRECTION('center_axis',(0.,2.7995587892289E-16,-1.));
#1476=DIRECTION('ref_axis',(1.,0.,0.));
#1477=DIRECTION('center_axis',(0.,-2.7995587892289E-16,1.));
#1478=DIRECTION('ref_axis',(1.,0.,0.));
#1479=DIRECTION('center_axis',(0.,-2.91397119324188E-16,1.));
#1480=DIRECTION('ref_axis',(1.,0.,0.));
#1481=DIRECTION('center_axis',(0.,0.,-1.));
#1482=DIRECTION('ref_axis',(1.,0.,0.));
#1483=DIRECTION('center_axis',(0.,2.7995587892289E-16,-1.));
#1484=DIRECTION('ref_axis',(1.,0.,0.));
#1485=DIRECTION('center_axis',(0.,2.7995587892289E-16,-1.));
#1486=DIRECTION('ref_axis',(1.,0.,0.));
#1487=DIRECTION('center_axis',(0.,-2.7995587892289E-16,1.));
#1488=DIRECTION('ref_axis',(1.,0.,0.));
#1489=DIRECTION('center_axis',(0.,0.,1.));
#1490=DIRECTION('ref_axis',(1.,0.,0.));
#1491=DIRECTION('center_axis',(0.,0.,-1.));
#1492=DIRECTION('ref_axis',(1.,0.,0.));
#1493=DIRECTION('center_axis',(0.,2.7995587892289E-16,-1.));
#1494=DIRECTION('ref_axis',(1.,0.,0.));
#1495=DIRECTION('center_axis',(0.,2.7995587892289E-16,-1.));
#1496=DIRECTION('ref_axis',(1.,0.,0.));
#1497=DIRECTION('center_axis',(0.,-2.7995587892289E-16,1.));
#1498=DIRECTION('ref_axis',(1.,0.,0.));
#1499=DIRECTION('center_axis',(0.,0.,-1.));
#1500=DIRECTION('ref_axis',(1.,0.,0.));
#1501=DIRECTION('',(-1.,0.,0.));
#1502=DIRECTION('',(0.,1.,0.));
#1503=DIRECTION('center_axis',(0.,0.,-1.));
#1504=DIRECTION('ref_axis',(1.,0.,0.));
#1505=DIRECTION('center_axis',(0.,0.,1.));
#1506=DIRECTION('ref_axis',(1.,0.,0.));
#1507=DIRECTION('center_axis',(0.,0.,1.));
#1508=DIRECTION('ref_axis',(1.,0.,0.));
#1509=DIRECTION('center_axis',(0.,0.,1.));
#1510=DIRECTION('ref_axis',(1.,0.,0.));
#1511=DIRECTION('',(0.,0.,1.));
#1512=DIRECTION('',(0.,0.,-1.));
#1513=DIRECTION('center_axis',(0.,0.,1.));
#1514=DIRECTION('ref_axis',(1.,0.,0.));
#1515=DIRECTION('center_axis',(0.,-1.,0.));
#1516=DIRECTION('ref_axis',(1.,0.,0.));
#1517=DIRECTION('',(1.,0.,0.));
#1518=DIRECTION('',(0.,0.,-1.));
#1519=DIRECTION('',(-1.,0.,0.));
#1520=DIRECTION('',(0.,0.,1.));
#1521=DIRECTION('',(-1.,0.,0.));
#1522=DIRECTION('',(0.,0.,1.));
#1523=DIRECTION('center_axis',(0.,0.,1.));
#1524=DIRECTION('ref_axis',(-1.,0.,0.));
#1525=DIRECTION('',(0.,-1.,0.));
#1526=DIRECTION('center_axis',(0.,0.,1.));
#1527=DIRECTION('ref_axis',(1.,0.,0.));
#1528=DIRECTION('',(-1.,-6.15627716882088E-17,0.));
#1529=DIRECTION('center_axis',(0.,0.,1.));
#1530=DIRECTION('ref_axis',(1.,0.,0.));
#1531=DIRECTION('',(-1.16870502402749E-17,1.,0.));
#1532=DIRECTION('center_axis',(0.,0.,1.));
#1533=DIRECTION('ref_axis',(1.,0.,0.));
#1534=DIRECTION('center_axis',(0.,0.,-1.));
#1535=DIRECTION('ref_axis',(1.22386790116161E-14,1.,0.));
#1536=DIRECTION('',(2.28206171557072E-16,1.,0.));
#1537=DIRECTION('center_axis',(0.,0.,-1.));
#1538=DIRECTION('ref_axis',(-1.,6.99353086378055E-15,0.));
#1539=DIRECTION('',(-1.,0.,0.));
#1540=DIRECTION('center_axis',(0.,0.,-1.));
#1541=DIRECTION('ref_axis',(-6.99353086378053E-15,-1.,0.));
#1542=DIRECTION('',(0.,-1.,0.));
#1543=DIRECTION('center_axis',(0.,0.,-1.));
#1544=DIRECTION('ref_axis',(1.,-1.39870617275611E-14,0.));
#1545=DIRECTION('',(1.,1.54573341402737E-16,0.));
#1546=DIRECTION('center_axis',(0.,0.,1.));
#1547=DIRECTION('ref_axis',(1.,0.,0.));
#1548=DIRECTION('',(0.,0.,-1.));
#1549=DIRECTION('',(0.,0.,1.));
#1550=DIRECTION('center_axis',(4.35314533293716E-17,-0.707106781186548,
0.707106781186548));
#1551=DIRECTION('ref_axis',(0.,0.707106781186548,0.707106781186547));
#1552=DIRECTION('center_axis',(0.,0.,-1.));
#1553=DIRECTION('ref_axis',(1.,0.,0.));
#1554=DIRECTION('center_axis',(0.,0.,1.));
#1555=DIRECTION('ref_axis',(1.,0.,0.));
#1556=DIRECTION('center_axis',(0.,0.,1.));
#1557=DIRECTION('ref_axis',(1.,0.,0.));
#1558=DIRECTION('center_axis',(0.,0.,-1.));
#1559=DIRECTION('ref_axis',(1.,0.,0.));
#1560=DIRECTION('',(1.16870502402749E-17,-1.,0.));
#1561=DIRECTION('',(1.,6.15627716882088E-17,0.));
#1562=DIRECTION('',(0.707106781186547,-0.707106781186548,0.));
#1563=DIRECTION('',(1.,6.15627716882088E-17,0.));
#1564=DIRECTION('center_axis',(0.707106781186548,0.707106781186547,0.));
#1565=DIRECTION('ref_axis',(0.,0.,-1.));
#1566=DIRECTION('',(-0.577350269189625,0.577350269189626,0.577350269189627));
#1567=DIRECTION('',(0.,0.,-1.));
#1568=DIRECTION('',(-0.577350269189625,0.577350269189626,-0.577350269189626));
#1569=DIRECTION('',(0.,0.,1.));
#1570=DIRECTION('center_axis',(-6.15627716882088E-17,1.,0.));
#1571=DIRECTION('ref_axis',(-1.,-6.15627716882088E-17,0.));
#1572=DIRECTION('',(-1.,-6.15627716882088E-17,2.03256148567818E-17));
#1573=DIRECTION('',(0.,0.,-1.));
#1574=DIRECTION('',(1.,6.15627716882088E-17,0.));
#1575=DIRECTION('',(0.,0.,-1.));
#1576=DIRECTION('',(1.,6.15627716882088E-17,0.));
#1577=DIRECTION('',(0.,0.,1.));
#1578=DIRECTION('',(1.,6.15627716882088E-17,0.));
#1579=DIRECTION('',(0.,0.,1.));
#1580=DIRECTION('',(-1.,-6.15627716882088E-17,-2.67022736222823E-17));
#1581=DIRECTION('',(0.,0.,-1.));
#1582=DIRECTION('',(1.,6.15627716882088E-17,0.));
#1583=DIRECTION('',(0.,0.,-1.));
#1584=DIRECTION('',(1.,6.15627716882088E-17,0.));
#1585=DIRECTION('',(0.,0.,1.));
#1586=DIRECTION('center_axis',(-4.35314533293716E-17,0.707106781186548,
-0.707106781186548));
#1587=DIRECTION('ref_axis',(-1.,0.,6.15627716882088E-17));
#1588=DIRECTION('',(0.577350269189625,0.577350269189626,0.577350269189626));
#1589=DIRECTION('',(-1.,-6.15627716882088E-17,0.));
#1590=DIRECTION('center_axis',(0.,0.,1.));
#1591=DIRECTION('ref_axis',(1.,0.,0.));
#1592=DIRECTION('',(0.,0.,1.));
#1593=DIRECTION('center_axis',(0.,0.,-1.));
#1594=DIRECTION('ref_axis',(1.,0.,0.));
#1595=DIRECTION('center_axis',(0.,0.,1.));
#1596=DIRECTION('ref_axis',(1.,0.,0.));
#1597=DIRECTION('center_axis',(0.,0.,1.));
#1598=DIRECTION('ref_axis',(1.,0.,0.));
#1599=DIRECTION('center_axis',(0.,0.,-1.));
#1600=DIRECTION('ref_axis',(1.,0.,0.));
#1601=DIRECTION('',(1.16870502402749E-17,-1.,0.));
#1602=DIRECTION('center_axis',(1.,1.16870502402749E-17,0.));
#1603=DIRECTION('ref_axis',(-1.16870502402749E-17,1.,0.));
#1604=DIRECTION('',(1.16870502402749E-17,-1.,0.));
#1605=DIRECTION('center_axis',(0.,0.,-1.));
#1606=DIRECTION('ref_axis',(1.,0.,0.));
#1607=DIRECTION('',(0.,1.,0.));
#1608=DIRECTION('center_axis',(0.,0.,-1.));
#1609=DIRECTION('ref_axis',(1.,0.,0.));
#1610=DIRECTION('center_axis',(0.,0.,1.));
#1611=DIRECTION('ref_axis',(1.,0.,0.));
#1612=DIRECTION('center_axis',(0.,0.,1.));
#1613=DIRECTION('ref_axis',(1.,0.,0.));
#1614=DIRECTION('center_axis',(0.,0.,1.));
#1615=DIRECTION('ref_axis',(1.,0.,0.));
#1616=DIRECTION('',(0.,0.,1.));
#1617=DIRECTION('center_axis',(-1.,0.,0.));
#1618=DIRECTION('ref_axis',(0.,-1.,0.));
#1619=DIRECTION('',(0.,1.,0.));
#1620=DIRECTION('center_axis',(-0.707106781186548,0.707106781186547,0.));
#1621=DIRECTION('ref_axis',(0.,0.,1.));
#1622=DIRECTION('',(0.,0.,1.));
#1623=DIRECTION('',(-0.577350269189625,-0.577350269189626,0.577350269189626));
#1624=DIRECTION('center_axis',(-2.91590732323551E-17,0.707106781186547,
0.707106781186548));
#1625=DIRECTION('ref_axis',(1.,0.,4.12371568314269E-17));
#1626=DIRECTION('',(1.,6.15627716882088E-17,-2.03256148567818E-17));
#1627=DIRECTION('center_axis',(0.,0.,1.));
#1628=DIRECTION('ref_axis',(1.,1.35438097714059E-16,0.));
#1629=DIRECTION('',(0.,1.,0.));
#1630=DIRECTION('',(1.,1.35438097714059E-16,0.));
#1631=DIRECTION('',(0.,1.,0.));
#1632=DIRECTION('center_axis',(1.,0.,0.));
#1633=DIRECTION('ref_axis',(0.,0.,-1.));
#1634=DIRECTION('',(0.,1.,0.));
#1635=DIRECTION('',(0.,0.,-1.));
#1636=DIRECTION('center_axis',(-0.707106781186546,0.707106781186549,0.));
#1637=DIRECTION('ref_axis',(0.,0.,1.));
#1638=DIRECTION('',(0.,0.,-1.));
#1639=DIRECTION('',(-0.577350269189628,-0.577350269189625,0.577350269189625));
#1640=DIRECTION('',(0.,0.,1.));
#1641=DIRECTION('',(0.577350269189628,0.577350269189625,0.577350269189625));
#1642=DIRECTION('',(-0.577350269189628,-0.577350269189625,-0.577350269189625));
#1643=DIRECTION('center_axis',(-4.35314533293716E-17,0.707106781186548,
-0.707106781186547));
#1644=DIRECTION('ref_axis',(-1.,0.,6.15627716882088E-17));
#1645=DIRECTION('',(-1.,-6.15627716882088E-17,0.));
#1646=DIRECTION('',(-0.577350269189628,0.577350269189625,0.577350269189625));
#1647=DIRECTION('center_axis',(0.707106781186546,0.707106781186549,0.));
#1648=DIRECTION('ref_axis',(0.,0.,-1.));
#1649=DIRECTION('',(0.,0.,-1.));
#1650=DIRECTION('',(-0.577350269189628,0.577350269189625,-0.577350269189625));
#1651=DIRECTION('center_axis',(-4.35314533293716E-17,0.707106781186548,
0.707106781186547));
#1652=DIRECTION('ref_axis',(1.,0.,6.15627716882088E-17));
#1653=DIRECTION('',(-0.577350269189625,0.577350269189626,-0.577350269189626));
#1654=DIRECTION('',(1.,6.15627716882088E-17,0.));
#1655=DIRECTION('',(-0.577350269189633,-0.577350269189622,0.577350269189622));
#1656=DIRECTION('',(1.,6.15627716882088E-17,2.67022736222823E-17));
#1657=DIRECTION('center_axis',(0.707106781186548,0.707106781186547,0.));
#1658=DIRECTION('ref_axis',(0.,0.,-1.));
#1659=DIRECTION('',(-0.577350269189625,0.577350269189626,0.577350269189627));
#1660=DIRECTION('',(0.,0.,-1.));
#1661=DIRECTION('center_axis',(-4.35314533293716E-17,0.707106781186548,
-0.707106781186547));
#1662=DIRECTION('ref_axis',(-1.,0.,6.15627716882088E-17));
#1663=DIRECTION('',(0.577350269189633,0.577350269189622,0.577350269189622));
#1664=DIRECTION('',(-1.,-6.15627716882088E-17,0.));
#1665=DIRECTION('center_axis',(0.,0.,1.));
#1666=DIRECTION('ref_axis',(1.,1.35438097714059E-16,0.));
#1667=DIRECTION('',(0.,1.,0.));
#1668=DIRECTION('',(1.,1.35438097714059E-16,0.));
#1669=DIRECTION('',(0.,1.,0.));
#1670=DIRECTION('center_axis',(1.,0.,0.));
#1671=DIRECTION('ref_axis',(0.,0.,-1.));
#1672=DIRECTION('',(0.,1.,0.));
#1673=DIRECTION('',(0.,0.,-1.));
#1674=DIRECTION('center_axis',(-0.707106781186541,0.707106781186554,0.));
#1675=DIRECTION('ref_axis',(0.,0.,1.));
#1676=DIRECTION('',(0.,0.,1.));
#1677=DIRECTION('center_axis',(0.,0.,1.));
#1678=DIRECTION('ref_axis',(1.,1.35438097714059E-16,0.));
#1679=DIRECTION('',(0.,1.,0.));
#1680=DIRECTION('',(1.,1.35438097714059E-16,0.));
#1681=DIRECTION('',(0.,1.,0.));
#1682=DIRECTION('center_axis',(1.,0.,0.));
#1683=DIRECTION('ref_axis',(0.,0.,-1.));
#1684=DIRECTION('',(0.,1.,0.));
#1685=DIRECTION('',(0.,0.,-1.));
#1686=DIRECTION('center_axis',(-1.,0.,0.));
#1687=DIRECTION('ref_axis',(0.,0.,1.));
#1688=DIRECTION('',(0.,0.,1.));
#1689=DIRECTION('',(0.,1.,0.));
#1690=DIRECTION('center_axis',(-2.03256148567818E-17,0.,-1.));
#1691=DIRECTION('ref_axis',(-1.,-1.35438097714059E-16,2.03256148567818E-17));
#1692=DIRECTION('',(-1.,-1.35438097714059E-16,2.03256148567818E-17));
#1693=DIRECTION('center_axis',(-1.,0.,0.));
#1694=DIRECTION('ref_axis',(0.,0.,1.));
#1695=DIRECTION('',(0.,0.,1.));
#1696=DIRECTION('',(0.,1.,0.));
#1697=DIRECTION('center_axis',(2.67022736222823E-17,0.,-1.));
#1698=DIRECTION('ref_axis',(-1.,-1.35438097714059E-16,-2.67022736222823E-17));
#1699=DIRECTION('',(-1.,-1.35438097714059E-16,-2.67022736222823E-17));
#1700=DIRECTION('center_axis',(-1.,0.,0.));
#1701=DIRECTION('ref_axis',(0.,0.,1.));
#1702=DIRECTION('',(0.,0.,1.));
#1703=DIRECTION('',(0.,1.,0.));
#1704=DIRECTION('center_axis',(0.,0.,-1.));
#1705=DIRECTION('ref_axis',(-1.,-1.35438097714059E-16,0.));
#1706=DIRECTION('',(-1.,-1.35438097714059E-16,0.));
#1707=DIRECTION('center_axis',(-0.707106781186548,0.,0.707106781186548));
#1708=DIRECTION('ref_axis',(0.707106781186548,0.,0.707106781186548));
#1709=DIRECTION('',(0.707106781186548,0.,0.707106781186548));
#1710=DIRECTION('',(0.,1.,0.));
#1711=DIRECTION('',(-0.707106781186548,0.,-0.707106781186548));
#1712=DIRECTION('',(0.,-1.,0.));
#1713=DIRECTION('center_axis',(0.,0.,1.));
#1714=DIRECTION('ref_axis',(-6.99353086378053E-15,-1.,0.));
#1715=DIRECTION('',(-6.2803698347351E-15,-0.707106781186547,0.707106781186548));
#1716=DIRECTION('center_axis',(0.,0.,1.));
#1717=DIRECTION('ref_axis',(-6.99353086378053E-15,-1.,0.));
#1718=DIRECTION('center_axis',(0.,0.,-1.));
#1719=DIRECTION('ref_axis',(-6.99353086378053E-15,-1.,0.));
#1720=DIRECTION('center_axis',(0.,0.707106781186548,0.707106781186548));
#1721=DIRECTION('ref_axis',(1.,0.,0.));
#1722=DIRECTION('',(-1.57009245868377E-15,-0.707106781186548,0.707106781186548));
#1723=DIRECTION('',(1.,0.,0.));
#1724=DIRECTION('',(-1.,0.,0.));
#1725=DIRECTION('center_axis',(0.,0.,1.));
#1726=DIRECTION('ref_axis',(-1.,6.99353086378055E-15,0.));
#1727=DIRECTION('',(-0.707106781186548,4.71027737605132E-15,0.707106781186548));
#1728=DIRECTION('center_axis',(0.,0.,1.));
#1729=DIRECTION('ref_axis',(-1.,6.99353086378055E-15,0.));
#1730=DIRECTION('center_axis',(0.,0.,-1.));
#1731=DIRECTION('ref_axis',(-1.,6.99353086378055E-15,0.));
#1732=DIRECTION('center_axis',(0.707106781186548,-1.61366131416627E-16,
0.707106781186547));
#1733=DIRECTION('ref_axis',(0.707106781186547,0.,-0.707106781186548));
#1734=DIRECTION('',(-0.707106781186547,0.,0.707106781186548));
#1735=DIRECTION('',(-2.28206171557072E-16,-1.,0.));
#1736=DIRECTION('',(2.28206171557072E-16,1.,0.));
#1737=DIRECTION('center_axis',(0.,0.,1.));
#1738=DIRECTION('ref_axis',(1.22386790116161E-14,1.,0.));
#1739=DIRECTION('',(8.63550852276076E-15,0.707106781186548,0.707106781186548));
#1740=DIRECTION('center_axis',(0.,0.,1.));
#1741=DIRECTION('ref_axis',(1.22386790116161E-14,1.,0.));
#1742=DIRECTION('center_axis',(0.,0.,-1.));
#1743=DIRECTION('ref_axis',(1.22386790116161E-14,1.,0.));
#1744=DIRECTION('center_axis',(1.09299857896538E-16,-0.707106781186548,
0.707106781186548));
#1745=DIRECTION('ref_axis',(1.,0.,-1.54573341402737E-16));
#1746=DIRECTION('',(0.,0.707106781186548,0.707106781186548));
#1747=DIRECTION('',(-1.,-1.54573341402737E-16,0.));
#1748=DIRECTION('',(1.,1.54573341402737E-16,0.));
#1749=DIRECTION('center_axis',(0.,0.,1.));
#1750=DIRECTION('ref_axis',(1.,-1.39870617275611E-14,0.));
#1751=DIRECTION('center_axis',(0.,0.,1.));
#1752=DIRECTION('ref_axis',(1.,-1.39870617275611E-14,0.));
#1753=DIRECTION('center_axis',(0.,0.,-1.));
#1754=DIRECTION('ref_axis',(1.,-1.39870617275611E-14,0.));
#1755=DIRECTION('center_axis',(0.,0.,1.));
#1756=DIRECTION('ref_axis',(-1.,6.99353086378055E-15,0.));
#1757=DIRECTION('',(0.,0.,1.));
#1758=DIRECTION('',(0.,0.,1.));
#1759=DIRECTION('center_axis',(0.,1.,0.));
#1760=DIRECTION('ref_axis',(-1.,0.,0.));
#1761=DIRECTION('',(0.,0.,1.));
#1762=DIRECTION('center_axis',(0.,0.,1.));
#1763=DIRECTION('ref_axis',(-6.99353086378053E-15,-1.,0.));
#1764=DIRECTION('',(0.,0.,1.));
#1765=DIRECTION('center_axis',(-1.,0.,0.));
#1766=DIRECTION('ref_axis',(0.,-1.,0.));
#1767=DIRECTION('',(0.,0.,1.));
#1768=DIRECTION('center_axis',(0.,0.,1.));
#1769=DIRECTION('ref_axis',(-1.,0.,0.));
#1770=DIRECTION('',(-5.60978411533196E-17,-1.,0.));
#1771=DIRECTION('center_axis',(0.,0.,1.));
#1772=DIRECTION('ref_axis',(-1.,-1.66096358014787E-15,0.));
#1773=DIRECTION('',(1.,1.72375760726985E-16,0.));
#1774=DIRECTION('center_axis',(0.,0.,1.));
#1775=DIRECTION('ref_axis',(0.,-1.,0.));
#1776=DIRECTION('',(0.,1.,0.));
#1777=DIRECTION('center_axis',(0.,0.,1.));
#1778=DIRECTION('ref_axis',(1.,5.5948246910244E-15,0.));
#1779=DIRECTION('',(-1.,0.,0.));
#1780=DIRECTION('center_axis',(0.,0.,1.));
#1781=DIRECTION('ref_axis',(0.,1.,0.));
#1782=DIRECTION('center_axis',(1.,-2.28206171557072E-16,0.));
#1783=DIRECTION('ref_axis',(2.28206171557072E-16,1.,0.));
#1784=DIRECTION('',(0.,0.,1.));
#1785=DIRECTION('center_axis',(0.,0.,1.));
#1786=DIRECTION('ref_axis',(1.,-1.39870617275611E-14,0.));
#1787=DIRECTION('',(0.,0.,1.));
#1788=DIRECTION('center_axis',(1.54573341402737E-16,-1.,0.));
#1789=DIRECTION('ref_axis',(1.,1.54573341402737E-16,0.));
#1790=DIRECTION('',(0.,0.,1.));
#1791=DIRECTION('center_axis',(0.,0.,1.));
#1792=DIRECTION('ref_axis',(1.22386790116161E-14,1.,0.));
#1793=DIRECTION('center_axis',(-1.,5.60978411533196E-17,0.));
#1794=DIRECTION('ref_axis',(-5.60978411533196E-17,-1.,0.));
#1795=DIRECTION('',(5.60978411533196E-17,1.,0.));
#1796=DIRECTION('',(0.,0.,1.));
#1797=DIRECTION('',(0.,0.,1.));
#1798=DIRECTION('center_axis',(0.,0.,1.));
#1799=DIRECTION('ref_axis',(-1.,0.,0.));
#1800=DIRECTION('center_axis',(0.,0.,-1.));
#1801=DIRECTION('ref_axis',(-1.,0.,0.));
#1802=DIRECTION('',(0.,0.,1.));
#1803=DIRECTION('center_axis',(0.,1.,0.));
#1804=DIRECTION('ref_axis',(-1.,0.,0.));
#1805=DIRECTION('',(1.,0.,0.));
#1806=DIRECTION('',(0.,0.,1.));
#1807=DIRECTION('center_axis',(0.,0.,1.));
#1808=DIRECTION('ref_axis',(-1.11896493820489E-14,1.,0.));
#1809=DIRECTION('center_axis',(0.,0.,-1.));
#1810=DIRECTION('ref_axis',(-1.11896493820489E-14,1.,0.));
#1811=DIRECTION('',(0.,0.,1.));
#1812=DIRECTION('center_axis',(1.,0.,0.));
#1813=DIRECTION('ref_axis',(0.,1.,0.));
#1814=DIRECTION('',(0.,-1.,0.));
#1815=DIRECTION('',(0.,0.,1.));
#1816=DIRECTION('center_axis',(0.,0.,1.));
#1817=DIRECTION('ref_axis',(1.,-1.01406197524817E-14,0.));
#1818=DIRECTION('center_axis',(0.,0.,-1.));
#1819=DIRECTION('ref_axis',(1.,-1.01406197524817E-14,0.));
#1820=DIRECTION('',(0.,0.,1.));
#1821=DIRECTION('center_axis',(1.35438097714059E-16,-1.,0.));
#1822=DIRECTION('ref_axis',(1.,1.35438097714059E-16,0.));
#1823=DIRECTION('',(-1.,-1.35438097714059E-16,0.));
#1824=DIRECTION('',(0.,0.,1.));
#1825=DIRECTION('center_axis',(0.,0.,1.));
#1826=DIRECTION('ref_axis',(3.49676543189026E-15,-1.,0.));
#1827=DIRECTION('center_axis',(0.,0.,-1.));
#1828=DIRECTION('ref_axis',(3.49676543189026E-15,-1.,0.));
#1829=DIRECTION('center_axis',(0.,0.,-1.));
#1830=DIRECTION('ref_axis',(1.,0.,0.));
#1831=CARTESIAN_POINT('',(0.,0.,0.));
#1832=CARTESIAN_POINT('Origin',(8.4455,0.444499999999999,1.78181));
#1833=CARTESIAN_POINT('',(8.09625,0.444499999999999,2.36375));
#1834=CARTESIAN_POINT('Origin',(8.4455,0.444499999999999,2.36375));
#1835=CARTESIAN_POINT('',(8.09625,0.444499999999999,1.78181));
#1836=CARTESIAN_POINT('Origin',(8.4455,0.444499999999999,1.78181));
#1837=CARTESIAN_POINT('Origin',(8.4455,0.444499999999999,1.78181));
#1838=CARTESIAN_POINT('',(8.2677,0.444499999999999,1.78181));
#1839=CARTESIAN_POINT('Origin',(8.4455,0.444499999999999,1.78181));
#1840=CARTESIAN_POINT('Origin',(0.444500000000001,11.303,1.78181));
#1841=CARTESIAN_POINT('',(0.0952500000000005,11.303,2.36375));
#1842=CARTESIAN_POINT('Origin',(0.444500000000001,11.303,2.36375));
#1843=CARTESIAN_POINT('',(0.0952500000000005,11.303,1.78181));
#1844=CARTESIAN_POINT('Origin',(0.444500000000001,11.303,1.78181));
#1845=CARTESIAN_POINT('Origin',(0.444500000000001,11.303,1.78181));
#1846=CARTESIAN_POINT('',(0.266700000000001,11.303,1.78181));
#1847=CARTESIAN_POINT('Origin',(0.444500000000001,11.303,1.78181));
#1848=CARTESIAN_POINT('Origin',(0.4445,0.444500000000001,1.78181));
#1849=CARTESIAN_POINT('',(0.0952499999999995,0.444500000000001,2.36375));
#1850=CARTESIAN_POINT('Origin',(0.4445,0.444500000000001,2.36375));
#1851=CARTESIAN_POINT('',(0.0952499999999995,0.444500000000001,1.78181));
#1852=CARTESIAN_POINT('Origin',(0.4445,0.444500000000001,1.78181));
#1853=CARTESIAN_POINT('Origin',(0.4445,0.444500000000001,1.78181));
#1854=CARTESIAN_POINT('',(0.266699999999999,0.444500000000001,1.78181));
#1855=CARTESIAN_POINT('Origin',(0.4445,0.444500000000001,1.78181));
#1856=CARTESIAN_POINT('Origin',(8.4455,11.303,1.78181));
#1857=CARTESIAN_POINT('',(8.09625,11.303,2.36375));
#1858=CARTESIAN_POINT('Origin',(8.4455,11.303,2.36375));
#1859=CARTESIAN_POINT('',(8.09625,11.303,1.78181));
#1860=CARTESIAN_POINT('Origin',(8.4455,11.303,1.78181));
#1861=CARTESIAN_POINT('Origin',(8.4455,11.303,1.78181));
#1862=CARTESIAN_POINT('',(8.2677,11.303,1.78181));
#1863=CARTESIAN_POINT('Origin',(8.4455,11.303,1.78181));
#1864=CARTESIAN_POINT('Origin',(8.4455,11.303,1.27381));
#1865=CARTESIAN_POINT('',(8.9535,11.811,1.27381));
#1866=CARTESIAN_POINT('',(7.83560241638453,11.811,1.27381));
#1867=CARTESIAN_POINT('',(4.191,11.811,1.27381));
#1868=CARTESIAN_POINT('',(8.9535,10.6931024163845,1.27381));
#1869=CARTESIAN_POINT('',(8.9535,11.557,1.27381));
#1870=CARTESIAN_POINT('Origin',(8.4455,11.303,1.27381));
#1871=CARTESIAN_POINT('',(8.2677,11.303,1.27381));
#1872=CARTESIAN_POINT('Origin',(8.4455,11.303,1.27381));
#1873=CARTESIAN_POINT('Origin',(8.4455,11.303,1.27381));
#1874=CARTESIAN_POINT('Origin',(8.4455,11.303,1.27381));
#1875=CARTESIAN_POINT('',(7.83560241638453,11.811,2.06375));
#1876=CARTESIAN_POINT('',(7.83560241638453,11.811,1.27381));
#1877=CARTESIAN_POINT('',(8.9535,10.6931024163845,2.06375));
#1878=CARTESIAN_POINT('',(8.9535,10.6931024163845,1.27381));
#1879=CARTESIAN_POINT('Origin',(8.4455,11.303,2.06375));
#1880=CARTESIAN_POINT('Origin',(-0.0634999999999996,11.811,-0.79375));
#1881=CARTESIAN_POINT('',(1.05439758361548,11.811,2.06375));
#1882=CARTESIAN_POINT('',(-0.0634999999999996,11.811,2.06375));
#1883=CARTESIAN_POINT('',(1.05439758361548,11.811,1.27381));
#1884=CARTESIAN_POINT('',(1.05439758361548,11.811,1.27381));
#1885=CARTESIAN_POINT('',(-0.0634999999999996,11.811,1.27381));
#1886=CARTESIAN_POINT('',(0.190500000000001,11.811,1.27381));
#1887=CARTESIAN_POINT('',(-0.0634999999999996,11.811,-0.79375));
#1888=CARTESIAN_POINT('',(-0.0634999999999996,11.811,-0.79375));
#1889=CARTESIAN_POINT('',(8.9535,11.811,-0.79375));
#1890=CARTESIAN_POINT('',(-0.0634999999999996,11.811,-0.79375));
#1891=CARTESIAN_POINT('',(8.9535,11.811,-0.79375));
#1892=CARTESIAN_POINT('Origin',(4.445,5.87375,2.06375));
#1893=CARTESIAN_POINT('',(8.9535,1.05439758361548,2.06375));
#1894=CARTESIAN_POINT('',(8.9535,11.811,2.06375));
#1895=CARTESIAN_POINT('',(7.83560241638452,-0.0635000000000013,2.06375));
#1896=CARTESIAN_POINT('Origin',(8.4455,0.444499999999999,2.06375));
#1897=CARTESIAN_POINT('',(1.05439758361548,-0.0635000000000017,2.06375));
#1898=CARTESIAN_POINT('',(8.9535,-0.0635000000000012,2.06375));
#1899=CARTESIAN_POINT('',(-0.0634999999999995,1.05439758361548,2.06375));
#1900=CARTESIAN_POINT('Origin',(0.4445,0.444500000000001,2.06375));
#1901=CARTESIAN_POINT('',(-0.0634999999999995,10.6931024163845,2.06375));
#1902=CARTESIAN_POINT('',(-0.0634999999999994,-0.0635000000000018,2.06375));
#1903=CARTESIAN_POINT('Origin',(0.444500000000001,11.303,2.06375));
#1904=CARTESIAN_POINT('',(1.445,5.545,2.06375));
#1905=CARTESIAN_POINT('',(1.572,5.672,2.06375));
#1906=CARTESIAN_POINT('Origin',(1.572,5.545,2.06375));
#1907=CARTESIAN_POINT('',(1.445,3.599,2.06375));
#1908=CARTESIAN_POINT('',(1.445,5.545,2.06375));
#1909=CARTESIAN_POINT('',(1.572,3.472,2.06375));
#1910=CARTESIAN_POINT('Origin',(1.572,3.599,2.06375));
#1911=CARTESIAN_POINT('',(7.318,3.472,2.06375));
#1912=CARTESIAN_POINT('',(1.572,3.472,2.06375));
#1913=CARTESIAN_POINT('',(7.445,3.599,2.06375));
#1914=CARTESIAN_POINT('Origin',(7.318,3.599,2.06375));
#1915=CARTESIAN_POINT('',(7.445,5.545,2.06375));
#1916=CARTESIAN_POINT('',(7.445,3.599,2.06375));
#1917=CARTESIAN_POINT('',(7.318,5.672,2.06375));
#1918=CARTESIAN_POINT('Origin',(7.318,5.545,2.06375));
#1919=CARTESIAN_POINT('',(7.318,5.672,2.06375));
#1920=CARTESIAN_POINT('Origin',(0.4445,0.444500000000001,1.27381));
#1921=CARTESIAN_POINT('',(-0.0634999999999995,1.05439758361548,1.27381));
#1922=CARTESIAN_POINT('',(-0.0634999999999995,1.05439758361548,1.27381));
#1923=CARTESIAN_POINT('',(1.05439758361548,-0.0635000000000017,1.3141));
#1924=CARTESIAN_POINT('',(1.05439758361548,-0.0635000000000017,1.27381));
#1925=CARTESIAN_POINT('',(1.01844872453905,-0.103790000000001,1.27381));
#1926=CARTESIAN_POINT('Origin',(0.4445,0.444500000000001,1.8221));
#1927=CARTESIAN_POINT('Origin',(0.4445,0.444500000000001,1.27381));
#1928=CARTESIAN_POINT('Origin',(0.4445,0.444500000000001,1.27381));
#1929=CARTESIAN_POINT('',(0.266699999999998,0.444500000000001,1.27381));
#1930=CARTESIAN_POINT('Origin',(0.4445,0.444500000000001,1.27381));
#1931=CARTESIAN_POINT('Origin',(0.4445,0.444500000000001,1.27381));
#1932=CARTESIAN_POINT('',(-0.0634999999999994,-0.0635000000000018,1.27381));
#1933=CARTESIAN_POINT('',(-0.0634999999999994,0.1905,1.27381));
#1934=CARTESIAN_POINT('',(0.924189999999996,-0.103790000000002,1.27381));
#1935=CARTESIAN_POINT('',(2.71335,-0.103790000000001,1.27381));
#1936=CARTESIAN_POINT('',(0.883899999999996,-0.0635000000000017,1.27381));
#1937=CARTESIAN_POINT('',(0.678799999999997,0.141599999999998,1.27381));
#1938=CARTESIAN_POINT('',(4.699,-0.0635000000000015,1.27381));
#1939=CARTESIAN_POINT('Origin',(0.947399999999996,-0.127000000000002,-0.393925));
#1940=CARTESIAN_POINT('',(1.0109,-0.190500000000002,1.1871));
#1941=CARTESIAN_POINT('',(1.0109,-0.190500000000002,1.1871));
#1942=CARTESIAN_POINT('',(1.0109,-0.190500000000002,0.00590000000000001));
#1943=CARTESIAN_POINT('',(1.0109,-0.190500000000002,-0.393925));
#1944=CARTESIAN_POINT('',(0.883899999999996,-0.0635000000000017,-0.1211));
#1945=CARTESIAN_POINT('',(1.0109,-0.190500000000002,0.00590000000000001));
#1946=CARTESIAN_POINT('',(0.883899999999996,-0.0635000000000017,-0.393925));
#1947=CARTESIAN_POINT('Origin',(8.9535,-0.0635000000000012,-0.79375));
#1948=CARTESIAN_POINT('',(2.4181,-0.0635000000000016,-0.1211));
#1949=CARTESIAN_POINT('',(5.6223,-0.0635000000000014,-0.1211));
#1950=CARTESIAN_POINT('',(2.4181,-0.0635000000000016,1.3141));
#1951=CARTESIAN_POINT('',(2.4181,-0.0635000000000016,0.196675));
#1952=CARTESIAN_POINT('',(4.9822,-0.0635000000000015,1.3141));
#1953=CARTESIAN_POINT('',(7.83560241638452,-0.0635000000000013,1.27381));
#1954=CARTESIAN_POINT('',(7.83560241638452,-0.0635000000000013,1.27381));
#1955=CARTESIAN_POINT('',(8.9535,-0.0635000000000012,1.27381));
#1956=CARTESIAN_POINT('',(8.6995,-0.0635000000000012,1.27381));
#1957=CARTESIAN_POINT('',(8.9535,-0.0635000000000012,-0.79375));
#1958=CARTESIAN_POINT('',(8.9535,-0.0635000000000012,-0.79375));
#1959=CARTESIAN_POINT('',(-0.0634999999999994,-0.0635000000000018,-0.79375));
#1960=CARTESIAN_POINT('',(8.9535,-0.0635000000000012,-0.79375));
#1961=CARTESIAN_POINT('',(-0.0634999999999994,-0.0635000000000018,-0.79375));
#1962=CARTESIAN_POINT('',(8.2366,-0.0635000000000013,-0.1651));
#1963=CARTESIAN_POINT('',(2.6289,-0.0635000000000016,-0.1651));
#1964=CARTESIAN_POINT('',(7.5438,-0.0635000000000013,-0.1651));
#1965=CARTESIAN_POINT('',(8.2366,-0.0635000000000013,0.795100000000001));
#1966=CARTESIAN_POINT('',(8.2366,-0.0635000000000013,-0.0628249999999997));
#1967=CARTESIAN_POINT('',(6.2611,-0.0635000000000014,0.795100000000001));
#1968=CARTESIAN_POINT('',(7.66095,-0.0635000000000013,0.795100000000001));
#1969=CARTESIAN_POINT('',(6.2611,-0.0635000000000014,1.0795));
#1970=CARTESIAN_POINT('',(6.2611,-0.0635000000000014,0.0793750000000002));
#1971=CARTESIAN_POINT('',(2.6289,-0.0635000000000016,1.0795));
#1972=CARTESIAN_POINT('',(5.8547,-0.0635000000000014,1.0795));
#1973=CARTESIAN_POINT('',(2.6289,-0.0635000000000016,-0.415925));
#1974=CARTESIAN_POINT('Origin',(4.9822,-0.127000000000001,1.2506));
#1975=CARTESIAN_POINT('',(2.2911,-0.190500000000002,1.1871));
#1976=CARTESIAN_POINT('',(2.2911,-0.190500000000002,1.1871));
#1977=CARTESIAN_POINT('',(4.9822,-0.190500000000001,1.1871));
#1978=CARTESIAN_POINT('Origin',(0.444500000000001,11.303,1.27381));
#1979=CARTESIAN_POINT('',(-0.0634999999999995,10.6931024163845,1.27381));
#1980=CARTESIAN_POINT('',(-0.0634999999999995,10.6931024163845,1.27381));
#1981=CARTESIAN_POINT('Origin',(0.444500000000001,11.303,1.27381));
#1982=CARTESIAN_POINT('Origin',(0.444500000000001,11.303,1.27381));
#1983=CARTESIAN_POINT('',(0.266700000000002,11.303,1.27381));
#1984=CARTESIAN_POINT('Origin',(0.444500000000001,11.303,1.27381));
#1985=CARTESIAN_POINT('Origin',(0.444500000000001,11.303,1.27381));
#1986=CARTESIAN_POINT('',(-0.0634999999999995,5.61975,1.27381));
#1987=CARTESIAN_POINT('Origin',(-0.0634999999999994,-0.0635000000000018,
-0.79375));
#1988=CARTESIAN_POINT('',(-0.0634999999999994,-0.0635000000000018,-0.79375));
#1989=CARTESIAN_POINT('Origin',(8.4455,0.444499999999999,1.27381));
#1990=CARTESIAN_POINT('',(8.9535,1.05439758361548,1.27381));
#1991=CARTESIAN_POINT('',(8.9535,6.12775,1.27381));
#1992=CARTESIAN_POINT('Origin',(8.4455,0.444499999999999,1.27381));
#1993=CARTESIAN_POINT('',(8.2677,0.444499999999999,1.27381));
#1994=CARTESIAN_POINT('Origin',(8.4455,0.444499999999999,1.27381));
#1995=CARTESIAN_POINT('Origin',(8.4455,0.444499999999999,1.27381));
#1996=CARTESIAN_POINT('Origin',(8.4455,0.444499999999999,1.27381));
#1997=CARTESIAN_POINT('',(8.9535,1.05439758361548,1.27381));
#1998=CARTESIAN_POINT('Origin',(8.9535,11.811,-0.79375));
#1999=CARTESIAN_POINT('',(8.9535,11.811,-0.79375));
#2000=CARTESIAN_POINT('Origin',(2.3546,-0.127000000000002,0.196675));
#2001=CARTESIAN_POINT('',(2.2911,-0.190500000000002,0.00589999999999999));
#2002=CARTESIAN_POINT('',(2.2911,-0.190500000000002,0.196675));
#2003=CARTESIAN_POINT('',(2.4181,-0.0635000000000016,-0.1211));
#2004=CARTESIAN_POINT('Origin',(5.6223,-0.127000000000001,-0.0576000000000001));
#2005=CARTESIAN_POINT('',(5.6223,-0.190500000000001,0.00589999999999993));
#2006=CARTESIAN_POINT('Origin',(1.0109,-0.381000000000002,1.1871));
#2007=CARTESIAN_POINT('',(2.2911,-0.381000000000001,1.1871));
#2008=CARTESIAN_POINT('',(2.2911,-0.381000000000001,1.1871));
#2009=CARTESIAN_POINT('',(1.0109,-0.381000000000002,1.1871));
#2010=CARTESIAN_POINT('',(0.473699999999998,-0.381000000000002,1.1871));
#2011=CARTESIAN_POINT('',(1.0109,-0.381000000000002,1.1871));
#2012=CARTESIAN_POINT('Origin',(2.2911,-0.381000000000001,1.1871));
#2013=CARTESIAN_POINT('',(2.2911,-0.381000000000001,0.00589999999999999));
#2014=CARTESIAN_POINT('',(2.2911,-0.381000000000001,0.00589999999999999));
#2015=CARTESIAN_POINT('',(2.2911,-0.381000000000001,0.196675));
#2016=CARTESIAN_POINT('Origin',(6.1976,-0.127000000000001,0.0793750000000002));
#2017=CARTESIAN_POINT('',(6.25125,-0.0733500000000024,0.78525));
#2018=CARTESIAN_POINT('',(6.25125,-0.0733500000000024,-0.155249999999999));
#2019=CARTESIAN_POINT('',(6.25125,-0.0733500000000021,-0.168275));
#2020=CARTESIAN_POINT('',(6.1341,-0.190500000000001,-0.0380999999999999));
#2021=CARTESIAN_POINT('',(6.2611,-0.0635000000000014,-0.1651));
#2022=CARTESIAN_POINT('',(6.1341,-0.190500000000001,0.9525));
#2023=CARTESIAN_POINT('',(6.1341,-0.190500000000001,0.0793750000000002));
#2024=CARTESIAN_POINT('',(6.1341,-0.190500000000001,0.9525));
#2025=CARTESIAN_POINT('',(6.3327875,0.00818749999999904,0.866787500000001));
#2026=CARTESIAN_POINT('Origin',(5.8547,-0.127000000000001,1.016));
#2027=CARTESIAN_POINT('',(2.7559,-0.190500000000002,0.9525));
#2028=CARTESIAN_POINT('',(5.8547,-0.190500000000001,0.9525));
#2029=CARTESIAN_POINT('',(2.7559,-0.190500000000002,0.9525));
#2030=CARTESIAN_POINT('Origin',(2.6924,-0.127000000000002,-0.415925));
#2031=CARTESIAN_POINT('',(2.7559,-0.190500000000002,-0.0381));
#2032=CARTESIAN_POINT('',(2.7559,-0.190500000000002,-0.415925));
#2033=CARTESIAN_POINT('',(2.7559,-0.190500000000002,-0.0381));
#2034=CARTESIAN_POINT('Origin',(8.53155,-0.127000000000001,-0.1016));
#2035=CARTESIAN_POINT('',(6.3684,-0.190500000000001,-0.0381));
#2036=CARTESIAN_POINT('',(6.3684,-0.190500000000001,-0.0381));
#2037=CARTESIAN_POINT('',(8.1096,-0.190500000000001,-0.0381));
#2038=CARTESIAN_POINT('',(8.53155,-0.190500000000001,-0.0381));
#2039=CARTESIAN_POINT('',(8.2366,-0.0635000000000013,-0.1651));
#2040=CARTESIAN_POINT('',(7.5438,-0.190500000000001,-0.0380999999999999));
#2041=CARTESIAN_POINT('Origin',(6.3049,-0.127000000000001,-0.415925));
#2042=CARTESIAN_POINT('',(6.3684,-0.190500000000001,0.6681));
#2043=CARTESIAN_POINT('',(6.3684,-0.190500000000001,0.6681));
#2044=CARTESIAN_POINT('',(6.3684,-0.190500000000001,-0.415925));
#2045=CARTESIAN_POINT('Origin',(7.66095,-0.127000000000001,0.7316));
#2046=CARTESIAN_POINT('',(8.1096,-0.190500000000001,0.6681));
#2047=CARTESIAN_POINT('',(8.1096,-0.190500000000001,0.6681));
#2048=CARTESIAN_POINT('',(7.66095,-0.190500000000001,0.6681));
#2049=CARTESIAN_POINT('Origin',(2.7559,-0.381000000000001,0.9525));
#2050=CARTESIAN_POINT('',(6.1341,-0.381000000000001,0.9525));
#2051=CARTESIAN_POINT('',(6.1341,-0.381000000000001,0.9525));
#2052=CARTESIAN_POINT('',(2.7559,-0.381000000000001,0.9525));
#2053=CARTESIAN_POINT('',(1.3462,-0.381000000000002,0.9525));
#2054=CARTESIAN_POINT('',(2.7559,-0.381000000000001,0.9525));
#2055=CARTESIAN_POINT('Origin',(6.1341,-0.381000000000001,0.9525));
#2056=CARTESIAN_POINT('',(6.1341,-0.381000000000001,-0.0380999999999999));
#2057=CARTESIAN_POINT('',(6.1341,-0.381000000000001,-0.0380999999999999));
#2058=CARTESIAN_POINT('',(6.1341,-0.381000000000001,0.0793750000000002));
#2059=CARTESIAN_POINT('Origin',(8.1731,-0.127000000000001,-0.0628249999999997));
#2060=CARTESIAN_POINT('',(8.1096,-0.190500000000001,-0.0628249999999997));
#2061=CARTESIAN_POINT('Origin',(6.3684,-0.381000000000001,0.6681));
#2062=CARTESIAN_POINT('',(8.1096,-0.381000000000001,0.6681));
#2063=CARTESIAN_POINT('',(8.1096,-0.381000000000001,0.6681));
#2064=CARTESIAN_POINT('',(6.3684,-0.381000000000001,0.6681));
#2065=CARTESIAN_POINT('',(3.15245,-0.381000000000001,0.668100000000001));
#2066=CARTESIAN_POINT('',(6.3684,-0.381000000000001,0.6681));
#2067=CARTESIAN_POINT('Origin',(8.1096,-0.381000000000001,0.6681));
#2068=CARTESIAN_POINT('',(8.1096,-0.381000000000001,-0.0381));
#2069=CARTESIAN_POINT('',(8.1096,-0.381000000000001,-0.0381));
#2070=CARTESIAN_POINT('',(8.1096,-0.381000000000001,-0.0628249999999997));
#2071=CARTESIAN_POINT('Origin',(1.0109,-0.381000000000002,0.00590000000000001));
#2072=CARTESIAN_POINT('',(1.0109,-0.381000000000002,0.00590000000000001));
#2073=CARTESIAN_POINT('',(1.0109,-0.381000000000002,-0.393925));
#2074=CARTESIAN_POINT('',(1.0109,-0.381000000000002,0.00590000000000001));
#2075=CARTESIAN_POINT('Origin',(2.2911,-0.381000000000001,0.00589999999999999));
#2076=CARTESIAN_POINT('',(1.1138,-0.381000000000002,0.00590000000000002));
#2077=CARTESIAN_POINT('Origin',(2.7559,-0.381000000000001,-0.0381));
#2078=CARTESIAN_POINT('',(2.7559,-0.381000000000001,-0.0381));
#2079=CARTESIAN_POINT('',(2.7559,-0.381000000000001,-0.415925));
#2080=CARTESIAN_POINT('',(2.7559,-0.381000000000001,-0.0381));
#2081=CARTESIAN_POINT('Origin',(6.1341,-0.381000000000001,-0.0380999999999999));
#2082=CARTESIAN_POINT('',(3.0353,-0.381000000000001,-0.0381));
#2083=CARTESIAN_POINT('Origin',(6.3684,-0.381000000000001,-0.0381));
#2084=CARTESIAN_POINT('',(6.3684,-0.381000000000001,-0.0381));
#2085=CARTESIAN_POINT('',(6.3684,-0.381000000000001,-0.415925));
#2086=CARTESIAN_POINT('',(6.3684,-0.381000000000001,-0.0381));
#2087=CARTESIAN_POINT('Origin',(8.1096,-0.381000000000001,-0.0381));
#2088=CARTESIAN_POINT('',(4.02305,-0.381000000000001,-0.0381));
#2089=CARTESIAN_POINT('Origin',(7.545,5.709375,2.26375));
#2090=CARTESIAN_POINT('',(7.445,3.599,2.16375));
#2091=CARTESIAN_POINT('',(7.645,3.599,2.36375));
#2092=CARTESIAN_POINT('',(7.445,3.599,2.16375));
#2093=CARTESIAN_POINT('',(7.645,5.545,2.36375));
#2094=CARTESIAN_POINT('',(7.645,5.709375,2.36375));
#2095=CARTESIAN_POINT('',(7.445,5.545,2.16375));
#2096=CARTESIAN_POINT('',(7.645,5.545,2.36375));
#2097=CARTESIAN_POINT('',(7.445,5.709375,2.16375));
#2098=CARTESIAN_POINT('Origin',(7.318,3.599,2.26375));
#2099=CARTESIAN_POINT('',(7.318,3.472,2.16375));
#2100=CARTESIAN_POINT('',(7.318,3.272,2.36375));
#2101=CARTESIAN_POINT('',(7.318,3.472,2.16375));
#2102=CARTESIAN_POINT('Origin',(7.318,3.599,2.36375));
#2103=CARTESIAN_POINT('Origin',(7.318,3.599,2.16375));
#2104=CARTESIAN_POINT('Origin',(5.8815,3.372,2.26375));
#2105=CARTESIAN_POINT('',(1.572,3.472,2.16375));
#2106=CARTESIAN_POINT('',(1.572,3.272,2.36375));
#2107=CARTESIAN_POINT('',(1.572,3.472,2.16375));
#2108=CARTESIAN_POINT('',(5.8815,3.272,2.36375));
#2109=CARTESIAN_POINT('',(5.8815,3.472,2.16375));
#2110=CARTESIAN_POINT('Origin',(1.572,3.599,2.26375));
#2111=CARTESIAN_POINT('',(1.445,3.599,2.16375));
#2112=CARTESIAN_POINT('',(1.245,3.599,2.36375));
#2113=CARTESIAN_POINT('',(1.445,3.599,2.16375));
#2114=CARTESIAN_POINT('Origin',(1.572,3.599,2.36375));
#2115=CARTESIAN_POINT('Origin',(1.572,3.599,2.16375));
#2116=CARTESIAN_POINT('Origin',(1.345,4.736375,2.26375));
#2117=CARTESIAN_POINT('',(1.445,5.545,2.16375));
#2118=CARTESIAN_POINT('',(1.245,5.545,2.36375));
#2119=CARTESIAN_POINT('',(1.445,5.545,2.16375));
#2120=CARTESIAN_POINT('',(1.245,4.736375,2.36375));
#2121=CARTESIAN_POINT('',(1.445,4.736375,2.16375));
#2122=CARTESIAN_POINT('Origin',(1.572,5.545,2.26375));
#2123=CARTESIAN_POINT('',(1.572,5.672,2.16375));
#2124=CARTESIAN_POINT('',(1.572,5.872,2.36375));
#2125=CARTESIAN_POINT('',(1.572,5.672,2.16375));
#2126=CARTESIAN_POINT('Origin',(1.572,5.545,2.36375));
#2127=CARTESIAN_POINT('Origin',(1.572,5.545,2.16375));
#2128=CARTESIAN_POINT('Origin',(3.0085,5.772,2.26375));
#2129=CARTESIAN_POINT('',(7.318,5.672,2.16375));
#2130=CARTESIAN_POINT('',(7.318,5.872,2.36375));
#2131=CARTESIAN_POINT('',(7.318,5.672,2.16375));
#2132=CARTESIAN_POINT('',(3.0085,5.872,2.36375));
#2133=CARTESIAN_POINT('',(3.0085,5.672,2.16375));
#2134=CARTESIAN_POINT('Origin',(7.318,5.545,2.26375));
#2135=CARTESIAN_POINT('Origin',(7.318,5.545,2.36375));
#2136=CARTESIAN_POINT('Origin',(7.318,5.545,2.16375));
#2137=CARTESIAN_POINT('Origin',(1.572,3.599,2.06375));
#2138=CARTESIAN_POINT('',(1.572,3.472,2.06375));
#2139=CARTESIAN_POINT('',(1.445,3.599,2.06375));
#2140=CARTESIAN_POINT('Origin',(7.318,3.472,2.06375));
#2141=CARTESIAN_POINT('',(7.318,3.472,2.06375));
#2142=CARTESIAN_POINT('Origin',(7.318,3.599,2.06375));
#2143=CARTESIAN_POINT('',(7.445,3.599,2.06375));
#2144=CARTESIAN_POINT('Origin',(7.445,5.545,2.06375));
#2145=CARTESIAN_POINT('',(7.445,5.545,2.06375));
#2146=CARTESIAN_POINT('Origin',(4.445,5.87375,2.36375));
#2147=CARTESIAN_POINT('',(-0.381,11.811,2.36375));
#2148=CARTESIAN_POINT('',(-0.381,-0.0635000000000012,2.36375));
#2149=CARTESIAN_POINT('',(-0.381,11.811,2.36375));
#2150=CARTESIAN_POINT('',(-0.0634999999999994,-0.381000000000002,2.36375));
#2151=CARTESIAN_POINT('Origin',(-0.0634999999999994,-0.0635000000000012,
2.36375));
#2152=CARTESIAN_POINT('',(8.9535,-0.381,2.36375));
#2153=CARTESIAN_POINT('',(-0.0634999999999994,-0.381000000000002,2.36375));
#2154=CARTESIAN_POINT('',(9.271,-0.063500000000003,2.36375));
#2155=CARTESIAN_POINT('Origin',(8.9535,-0.0635000000000012,2.36375));
#2156=CARTESIAN_POINT('',(9.271,11.811,2.36375));
#2157=CARTESIAN_POINT('',(9.271,-0.063500000000003,2.36375));
#2158=CARTESIAN_POINT('',(8.9535,12.1285,2.36375));
#2159=CARTESIAN_POINT('Origin',(8.9535,11.811,2.36375));
#2160=CARTESIAN_POINT('',(-0.0634999999999994,12.1285,2.36375));
#2161=CARTESIAN_POINT('',(8.9535,12.1285,2.36375));
#2162=CARTESIAN_POINT('Origin',(-0.0634999999999994,11.811,2.36375));
#2163=CARTESIAN_POINT('Origin',(1.445,3.599,2.06375));
#2164=CARTESIAN_POINT('',(1.445,5.545,2.06375));
#2165=CARTESIAN_POINT('Origin',(7.318,5.545,2.06375));
#2166=CARTESIAN_POINT('',(7.318,5.672,2.06375));
#2167=CARTESIAN_POINT('Origin',(1.572,5.672,2.06375));
#2168=CARTESIAN_POINT('',(1.572,5.672,2.06375));
#2169=CARTESIAN_POINT('Origin',(1.572,5.545,2.06375));
#2170=CARTESIAN_POINT('Origin',(-0.381,11.811,-0.79375));
#2171=CARTESIAN_POINT('',(-0.381,-0.0635000000000018,-0.79375));
#2172=CARTESIAN_POINT('',(-0.381,11.811,-0.79375));
#2173=CARTESIAN_POINT('',(-0.381,-0.0635000000000018,-0.79375));
#2174=CARTESIAN_POINT('',(-0.381,-0.0635000000000018,-0.79375));
#2175=CARTESIAN_POINT('',(-0.381,11.811,-0.79375));
#2176=CARTESIAN_POINT('Origin',(-0.0634999999999969,11.811,-0.79375));
#2177=CARTESIAN_POINT('',(-0.0634999999999996,12.1285,-0.79375));
#2178=CARTESIAN_POINT('Origin',(-0.0634999999999969,11.811,-0.79375));
#2179=CARTESIAN_POINT('',(-0.0634999999999996,12.1285,-0.79375));
#2180=CARTESIAN_POINT('Origin',(8.9535,12.1285,-0.79375));
#2181=CARTESIAN_POINT('',(8.9535,12.1285,-0.79375));
#2182=CARTESIAN_POINT('',(-0.0634999999999996,12.1285,-0.79375));
#2183=CARTESIAN_POINT('',(8.9535,12.1285,-0.79375));
#2184=CARTESIAN_POINT('Origin',(8.9535,11.811,-0.79375));
#2185=CARTESIAN_POINT('',(9.271,11.811,-0.79375));
#2186=CARTESIAN_POINT('Origin',(8.9535,11.811,-0.79375));
#2187=CARTESIAN_POINT('',(9.271,11.811,-0.79375));
#2188=CARTESIAN_POINT('Origin',(9.271,-0.063500000000003,-0.79375));
#2189=CARTESIAN_POINT('',(9.271,-0.063500000000003,-0.79375));
#2190=CARTESIAN_POINT('',(9.271,11.811,-0.79375));
#2191=CARTESIAN_POINT('',(9.271,-0.063500000000003,-0.79375));
#2192=CARTESIAN_POINT('Origin',(8.9535,-0.0634999999999998,-0.79375));
#2193=CARTESIAN_POINT('',(8.9535,-0.381000000000001,-0.79375));
#2194=CARTESIAN_POINT('Origin',(8.9535,-0.0634999999999998,-0.79375));
#2195=CARTESIAN_POINT('',(8.9535,-0.381000000000001,-0.79375));
#2196=CARTESIAN_POINT('Origin',(-0.0634999999999994,-0.381000000000002,
-0.79375));
#2197=CARTESIAN_POINT('',(-0.0634999999999994,-0.381000000000002,-0.79375));
#2198=CARTESIAN_POINT('',(8.9535,-0.381000000000001,-0.79375));
#2199=CARTESIAN_POINT('',(-0.0634999999999994,-0.381000000000002,-0.79375));
#2200=CARTESIAN_POINT('Origin',(-0.0635000000000006,-0.0635000000000021,
-0.79375));
#2201=CARTESIAN_POINT('Origin',(-0.0635000000000006,-0.0635000000000021,
-0.79375));
#2202=CARTESIAN_POINT('Origin',(4.445,5.87375,-0.79375));
#2203=UNCERTAINTY_MEASURE_WITH_UNIT(LENGTH_MEASURE(0.001),#2209,
'DISTANCE_ACCURACY_VALUE',
'Maximum model space distance between geometric entities at asserted c
onnectivities');
#2204=UNCERTAINTY_MEASURE_WITH_UNIT(LENGTH_MEASURE(1.E-6),#2210,
'DISTANCE_ACCURACY_VALUE',
'Maximum model space distance between geometric entities at asserted c
onnectivities');
#2205=(
GEOMETRIC_REPRESENTATION_CONTEXT(3)
GLOBAL_UNCERTAINTY_ASSIGNED_CONTEXT((#2203))
GLOBAL_UNIT_ASSIGNED_CONTEXT((#2209,#2208,#2207))
REPRESENTATION_CONTEXT('','3D')
);
#2206=(
GEOMETRIC_REPRESENTATION_CONTEXT(3)
GLOBAL_UNCERTAINTY_ASSIGNED_CONTEXT((#2204))
GLOBAL_UNIT_ASSIGNED_CONTEXT((#2210,#12,#2207))
REPRESENTATION_CONTEXT('','3D')
);
#2207=(
NAMED_UNIT(*)
SI_UNIT($,.STERADIAN.)
SOLID_ANGLE_UNIT()
);
#2208=(
NAMED_UNIT(*)
PLANE_ANGLE_UNIT()
SI_UNIT($,.RADIAN.)
);
#2209=(
LENGTH_UNIT()
NAMED_UNIT(*)
SI_UNIT(.CENTI.,.METRE.)
);
#2210=(
LENGTH_UNIT()
NAMED_UNIT(*)
SI_UNIT(.MILLI.,.METRE.)
);
#2211=SHAPE_DEFINITION_REPRESENTATION(#2212,#2213);
#2212=PRODUCT_DEFINITION_SHAPE('',$,#2215);
#2213=SHAPE_REPRESENTATION('',(#1337),#2205);
#2214=PRODUCT_DEFINITION_CONTEXT('part definition',#2219,'design');
#2215=PRODUCT_DEFINITION('Top Cover','Top Cover',#2216,#2214);
#2216=PRODUCT_DEFINITION_FORMATION('',$,#2221);
#2217=PRODUCT_RELATED_PRODUCT_CATEGORY('Top Cover','Top Cover',(#2221));
#2218=APPLICATION_PROTOCOL_DEFINITION('international standard',
'automotive_design',2009,#2219);
#2219=APPLICATION_CONTEXT(
'Core Data for Automotive Mechanical Design Process');
#2220=PRODUCT_CONTEXT('part definition',#2219,'mechanical');
#2221=PRODUCT('Top Cover','Top Cover',$,(#2220));
#2222=PRESENTATION_STYLE_ASSIGNMENT((#2224));
#2223=PRESENTATION_STYLE_ASSIGNMENT((#2225));
#2224=SURFACE_STYLE_USAGE(.BOTH.,#2226);
#2225=SURFACE_STYLE_USAGE(.BOTH.,#2227);
#2226=SURFACE_SIDE_STYLE('',(#2228));
#2227=SURFACE_SIDE_STYLE('',(#2229));
#2228=SURFACE_STYLE_FILL_AREA(#2230);
#2229=SURFACE_STYLE_FILL_AREA(#2231);
#2230=FILL_AREA_STYLE('Acetal Resin (White)',(#2232));
#2231=FILL_AREA_STYLE('Plastic - Matte (Red)',(#2233));
#2232=FILL_AREA_STYLE_COLOUR('Acetal Resin (White)',#2234);
#2233=FILL_AREA_STYLE_COLOUR('Plastic - Matte (Red)',#2235);
#2234=COLOUR_RGB('Acetal Resin (White)',0.972549019607843,0.968627450980392,
0.929411764705882);
#2235=COLOUR_RGB('Plastic - Matte (Red)',0.768627450980392,0.207843137254902,
0.152941176470588);
ENDSEC;
END-ISO-10303-21;
