EESchema Schematic File Version 2
LIBS:Audio
LIBS:Battery
LIBS:Connectors
LIBS:Displays
LIBS:ESD
LIBS:Interface
LIBS:LEDs
LIBS:LightBlueBean
LIBS:Logic
LIBS:Memory
LIBS:PIC12F
LIBS:PIC16F
LIBS:PIC18F
LIBS:Potentiometers
LIBS:Power
LIBS:PMIC
LIBS:RLC
LIBS:RTC
LIBS:STM32F
LIBS:Switches
LIBS:Tag-Connect
LIBS:Transistors
LIBS:Xilinx
LIBS:power
LIBS:device
LIBS:transistors
LIBS:conn
LIBS:linear
LIBS:regul
LIBS:74xx
LIBS:cmos4000
LIBS:adc-dac
LIBS:memory
LIBS:xilinx
LIBS:microcontrollers
LIBS:dsp
LIBS:microchip
LIBS:analog_switches
LIBS:motorola
LIBS:texas
LIBS:intel
LIBS:audio
LIBS:interface
LIBS:digital-audio
LIBS:philips
LIBS:display
LIBS:cypress
LIBS:siliconi
LIBS:opto
LIBS:atmel
LIBS:contrib
LIBS:valves
LIBS:RL02-USB-terminator-cache
EELAYER 25 0
EELAYER END
$Descr A 11000 8500
encoding utf-8
Sheet 1 1
Title "RL02-USB Drive Bus Terminator"
Date "2016-10-29"
Rev "v1.0"
Comp "Mark J. Blair <nf6x@nf6x.net>"
Comment1 "https://github.com/NF6X-RL02-USB"
Comment2 ""
Comment3 ""
Comment4 ""
$EndDescr
$Comp
L TE_5102321-9 J1
U 1 1 5814C71A
P 5550 3650
F 0 "J1" H 5550 4800 60  0000 C CNN
F 1 "TE_5102321-9" H 5550 4700 60  0000 C CNN
F 2 "NF6X_Connectors:TE_5102321-9" H 5550 2400 60  0001 C CNN
F 3 "" H 5550 4450 60  0001 C CNN
F 4 "TE" H 5550 2600 60  0001 C CNN "manf"
F 5 "5102321-9" H 5550 2500 60  0001 C CNN "manf#"
	1    5550 3650
	1    0    0    -1  
$EndComp
$Comp
L GND #PWR1
U 1 1 5814C7E9
P 5150 4700
F 0 "#PWR1" H 5150 4450 50  0001 C CNN
F 1 "GND" H 5150 4550 50  0000 C CNN
F 2 "" H 5150 4700 50  0000 C CNN
F 3 "" H 5150 4700 50  0000 C CNN
	1    5150 4700
	1    0    0    -1  
$EndComp
$Comp
L GND #PWR2
U 1 1 5814C7FE
P 5950 4700
F 0 "#PWR2" H 5950 4450 50  0001 C CNN
F 1 "GND" H 5950 4550 50  0000 C CNN
F 2 "" H 5950 4700 50  0000 C CNN
F 3 "" H 5950 4700 50  0000 C CNN
	1    5950 4700
	1    0    0    -1  
$EndComp
Wire Wire Line
	5150 4700 5150 2700
Wire Wire Line
	5150 2700 5250 2700
Wire Wire Line
	5250 3100 5150 3100
Connection ~ 5150 3100
Wire Wire Line
	5250 3300 5150 3300
Connection ~ 5150 3300
Wire Wire Line
	5250 3500 5150 3500
Connection ~ 5150 3500
Wire Wire Line
	5250 3800 5150 3800
Connection ~ 5150 3800
Wire Wire Line
	5250 4000 5150 4000
Connection ~ 5150 4000
Wire Wire Line
	5250 4200 5150 4200
Connection ~ 5150 4200
Wire Wire Line
	5250 4600 5150 4600
Connection ~ 5150 4600
Wire Wire Line
	5850 3100 5950 3100
Wire Wire Line
	5950 3100 5950 4700
Wire Wire Line
	5850 3300 5950 3300
Connection ~ 5950 3300
Wire Wire Line
	5850 3500 5950 3500
Connection ~ 5950 3500
Wire Wire Line
	5850 3800 5950 3800
Connection ~ 5950 3800
Wire Wire Line
	5850 4000 5950 4000
Connection ~ 5950 4000
Wire Wire Line
	5850 4200 5950 4200
Connection ~ 5950 4200
Wire Wire Line
	5850 4600 5950 4600
Connection ~ 5950 4600
$Comp
L R R2
U 1 1 5814CA45
P 4500 2500
F 0 "R2" V 4580 2500 50  0000 C CNN
F 1 "82" V 4500 2500 50  0000 C CNN
F 2 "Resistors_SMD:R_0805" V 4430 2500 50  0001 C CNN
F 3 "" H 4500 2500 50  0000 C CNN
F 4 "Panasonic" V 4500 2500 60  0001 C CNN "manf"
F 5 "ERJ-P06J820V" V 4500 2500 60  0001 C CNN "manf#"
	1    4500 2500
	0    1    1    0   
$EndComp
$Comp
L R R4
U 1 1 5814E8FB
P 4500 2700
F 0 "R4" V 4580 2700 50  0000 C CNN
F 1 "82" V 4500 2700 50  0000 C CNN
F 2 "Resistors_SMD:R_0805" V 4430 2700 50  0001 C CNN
F 3 "" H 4500 2700 50  0000 C CNN
F 4 "Panasonic" V 4500 2700 60  0001 C CNN "manf"
F 5 "ERJ-P06J820V" V 4500 2700 60  0001 C CNN "manf#"
	1    4500 2700
	0    1    1    0   
$EndComp
$Comp
L R R6
U 1 1 5814E963
P 4500 2900
F 0 "R6" V 4580 2900 50  0000 C CNN
F 1 "82" V 4500 2900 50  0000 C CNN
F 2 "Resistors_SMD:R_0805" V 4430 2900 50  0001 C CNN
F 3 "" H 4500 2900 50  0000 C CNN
F 4 "Panasonic" V 4500 2900 60  0001 C CNN "manf"
F 5 "ERJ-P06J820V" V 4500 2900 60  0001 C CNN "manf#"
	1    4500 2900
	0    1    1    0   
$EndComp
$Comp
L R R8
U 1 1 5814E9AF
P 4500 3100
F 0 "R8" V 4580 3100 50  0000 C CNN
F 1 "82" V 4500 3100 50  0000 C CNN
F 2 "Resistors_SMD:R_0805" V 4430 3100 50  0001 C CNN
F 3 "" H 4500 3100 50  0000 C CNN
F 4 "Panasonic" V 4500 3100 60  0001 C CNN "manf"
F 5 "ERJ-P06J820V" V 4500 3100 60  0001 C CNN "manf#"
	1    4500 3100
	0    1    1    0   
$EndComp
$Comp
L R R10
U 1 1 5814E9B7
P 4500 3300
F 0 "R10" V 4580 3300 50  0000 C CNN
F 1 "82" V 4500 3300 50  0000 C CNN
F 2 "Resistors_SMD:R_0805" V 4430 3300 50  0001 C CNN
F 3 "" H 4500 3300 50  0000 C CNN
F 4 "Panasonic" V 4500 3300 60  0001 C CNN "manf"
F 5 "ERJ-P06J820V" V 4500 3300 60  0001 C CNN "manf#"
	1    4500 3300
	0    1    1    0   
$EndComp
$Comp
L R R12
U 1 1 5814E9BF
P 4500 3500
F 0 "R12" V 4580 3500 50  0000 C CNN
F 1 "82" V 4500 3500 50  0000 C CNN
F 2 "Resistors_SMD:R_0805" V 4430 3500 50  0001 C CNN
F 3 "" H 4500 3500 50  0000 C CNN
F 4 "Panasonic" V 4500 3500 60  0001 C CNN "manf"
F 5 "ERJ-P06J820V" V 4500 3500 60  0001 C CNN "manf#"
	1    4500 3500
	0    1    1    0   
$EndComp
$Comp
L R R14
U 1 1 5814EA91
P 4500 3700
F 0 "R14" V 4580 3700 50  0000 C CNN
F 1 "82" V 4500 3700 50  0000 C CNN
F 2 "Resistors_SMD:R_0805" V 4430 3700 50  0001 C CNN
F 3 "" H 4500 3700 50  0000 C CNN
F 4 "Panasonic" V 4500 3700 60  0001 C CNN "manf"
F 5 "ERJ-P06J820V" V 4500 3700 60  0001 C CNN "manf#"
	1    4500 3700
	0    1    1    0   
$EndComp
$Comp
L R R16
U 1 1 5814EA99
P 4500 3900
F 0 "R16" V 4580 3900 50  0000 C CNN
F 1 "82" V 4500 3900 50  0000 C CNN
F 2 "Resistors_SMD:R_0805" V 4430 3900 50  0001 C CNN
F 3 "" H 4500 3900 50  0000 C CNN
F 4 "Panasonic" V 4500 3900 60  0001 C CNN "manf"
F 5 "ERJ-P06J820V" V 4500 3900 60  0001 C CNN "manf#"
	1    4500 3900
	0    1    1    0   
$EndComp
$Comp
L R R18
U 1 1 5814EAA1
P 4500 4100
F 0 "R18" V 4580 4100 50  0000 C CNN
F 1 "82" V 4500 4100 50  0000 C CNN
F 2 "Resistors_SMD:R_0805" V 4430 4100 50  0001 C CNN
F 3 "" H 4500 4100 50  0000 C CNN
F 4 "Panasonic" V 4500 4100 60  0001 C CNN "manf"
F 5 "ERJ-P06J820V" V 4500 4100 60  0001 C CNN "manf#"
	1    4500 4100
	0    1    1    0   
$EndComp
$Comp
L R R20
U 1 1 5814EAA9
P 4500 4300
F 0 "R20" V 4580 4300 50  0000 C CNN
F 1 "82" V 4500 4300 50  0000 C CNN
F 2 "Resistors_SMD:R_0805" V 4430 4300 50  0001 C CNN
F 3 "" H 4500 4300 50  0000 C CNN
F 4 "Panasonic" V 4500 4300 60  0001 C CNN "manf"
F 5 "ERJ-P06J820V" V 4500 4300 60  0001 C CNN "manf#"
	1    4500 4300
	0    1    1    0   
$EndComp
$Comp
L R R22
U 1 1 5814EAB1
P 4500 4500
F 0 "R22" V 4580 4500 50  0000 C CNN
F 1 "82" V 4500 4500 50  0000 C CNN
F 2 "Resistors_SMD:R_0805" V 4430 4500 50  0001 C CNN
F 3 "" H 4500 4500 50  0000 C CNN
F 4 "Panasonic" V 4500 4500 60  0001 C CNN "manf"
F 5 "ERJ-P06J820V" V 4500 4500 60  0001 C CNN "manf#"
	1    4500 4500
	0    1    1    0   
$EndComp
$Comp
L R R24
U 1 1 5814EAB9
P 4500 4700
F 0 "R24" V 4580 4700 50  0000 C CNN
F 1 "82" V 4500 4700 50  0000 C CNN
F 2 "Resistors_SMD:R_0805" V 4430 4700 50  0001 C CNN
F 3 "" H 4500 4700 50  0000 C CNN
F 4 "Panasonic" V 4500 4700 60  0001 C CNN "manf"
F 5 "ERJ-P06J820V" V 4500 4700 60  0001 C CNN "manf#"
	1    4500 4700
	0    1    1    0   
$EndComp
$Comp
L R R3
U 1 1 5814EE25
P 6650 2500
F 0 "R3" V 6730 2500 50  0000 C CNN
F 1 "82" V 6650 2500 50  0000 C CNN
F 2 "Resistors_SMD:R_0805" V 6580 2500 50  0001 C CNN
F 3 "" H 6650 2500 50  0000 C CNN
F 4 "Panasonic" V 6650 2500 60  0001 C CNN "manf"
F 5 "ERJ-P06J820V" V 6650 2500 60  0001 C CNN "manf#"
	1    6650 2500
	0    1    1    0   
$EndComp
$Comp
L R R5
U 1 1 5814EE2D
P 6650 2700
F 0 "R5" V 6730 2700 50  0000 C CNN
F 1 "82" V 6650 2700 50  0000 C CNN
F 2 "Resistors_SMD:R_0805" V 6580 2700 50  0001 C CNN
F 3 "" H 6650 2700 50  0000 C CNN
F 4 "Panasonic" V 6650 2700 60  0001 C CNN "manf"
F 5 "ERJ-P06J820V" V 6650 2700 60  0001 C CNN "manf#"
	1    6650 2700
	0    1    1    0   
$EndComp
$Comp
L R R7
U 1 1 5814EE35
P 6650 2900
F 0 "R7" V 6730 2900 50  0000 C CNN
F 1 "82" V 6650 2900 50  0000 C CNN
F 2 "Resistors_SMD:R_0805" V 6580 2900 50  0001 C CNN
F 3 "" H 6650 2900 50  0000 C CNN
F 4 "Panasonic" V 6650 2900 60  0001 C CNN "manf"
F 5 "ERJ-P06J820V" V 6650 2900 60  0001 C CNN "manf#"
	1    6650 2900
	0    1    1    0   
$EndComp
$Comp
L R R9
U 1 1 5814EE3D
P 6650 3100
F 0 "R9" V 6730 3100 50  0000 C CNN
F 1 "82" V 6650 3100 50  0000 C CNN
F 2 "Resistors_SMD:R_0805" V 6580 3100 50  0001 C CNN
F 3 "" H 6650 3100 50  0000 C CNN
F 4 "Panasonic" V 6650 3100 60  0001 C CNN "manf"
F 5 "ERJ-P06J820V" V 6650 3100 60  0001 C CNN "manf#"
	1    6650 3100
	0    1    1    0   
$EndComp
$Comp
L R R11
U 1 1 5814EE45
P 6650 3300
F 0 "R11" V 6730 3300 50  0000 C CNN
F 1 "82" V 6650 3300 50  0000 C CNN
F 2 "Resistors_SMD:R_0805" V 6580 3300 50  0001 C CNN
F 3 "" H 6650 3300 50  0000 C CNN
F 4 "Panasonic" V 6650 3300 60  0001 C CNN "manf"
F 5 "ERJ-P06J820V" V 6650 3300 60  0001 C CNN "manf#"
	1    6650 3300
	0    1    1    0   
$EndComp
$Comp
L R R13
U 1 1 5814EE4D
P 6650 3500
F 0 "R13" V 6730 3500 50  0000 C CNN
F 1 "82" V 6650 3500 50  0000 C CNN
F 2 "Resistors_SMD:R_0805" V 6580 3500 50  0001 C CNN
F 3 "" H 6650 3500 50  0000 C CNN
F 4 "Panasonic" V 6650 3500 60  0001 C CNN "manf"
F 5 "ERJ-P06J820V" V 6650 3500 60  0001 C CNN "manf#"
	1    6650 3500
	0    1    1    0   
$EndComp
$Comp
L R R15
U 1 1 5814EE55
P 6650 3700
F 0 "R15" V 6730 3700 50  0000 C CNN
F 1 "82" V 6650 3700 50  0000 C CNN
F 2 "Resistors_SMD:R_0805" V 6580 3700 50  0001 C CNN
F 3 "" H 6650 3700 50  0000 C CNN
F 4 "Panasonic" V 6650 3700 60  0001 C CNN "manf"
F 5 "ERJ-P06J820V" V 6650 3700 60  0001 C CNN "manf#"
	1    6650 3700
	0    1    1    0   
$EndComp
$Comp
L R R17
U 1 1 5814EE5D
P 6650 3900
F 0 "R17" V 6730 3900 50  0000 C CNN
F 1 "82" V 6650 3900 50  0000 C CNN
F 2 "Resistors_SMD:R_0805" V 6580 3900 50  0001 C CNN
F 3 "" H 6650 3900 50  0000 C CNN
F 4 "Panasonic" V 6650 3900 60  0001 C CNN "manf"
F 5 "ERJ-P06J820V" V 6650 3900 60  0001 C CNN "manf#"
	1    6650 3900
	0    1    1    0   
$EndComp
$Comp
L R R19
U 1 1 5814EE65
P 6650 4100
F 0 "R19" V 6730 4100 50  0000 C CNN
F 1 "82" V 6650 4100 50  0000 C CNN
F 2 "Resistors_SMD:R_0805" V 6580 4100 50  0001 C CNN
F 3 "" H 6650 4100 50  0000 C CNN
F 4 "Panasonic" V 6650 4100 60  0001 C CNN "manf"
F 5 "ERJ-P06J820V" V 6650 4100 60  0001 C CNN "manf#"
	1    6650 4100
	0    1    1    0   
$EndComp
$Comp
L R R21
U 1 1 5814EE6D
P 6650 4300
F 0 "R21" V 6730 4300 50  0000 C CNN
F 1 "82" V 6650 4300 50  0000 C CNN
F 2 "Resistors_SMD:R_0805" V 6580 4300 50  0001 C CNN
F 3 "" H 6650 4300 50  0000 C CNN
F 4 "Panasonic" V 6650 4300 60  0001 C CNN "manf"
F 5 "ERJ-P06J820V" V 6650 4300 60  0001 C CNN "manf#"
	1    6650 4300
	0    1    1    0   
$EndComp
$Comp
L R R23
U 1 1 5814EE75
P 6650 4500
F 0 "R23" V 6730 4500 50  0000 C CNN
F 1 "82" V 6650 4500 50  0000 C CNN
F 2 "Resistors_SMD:R_0805" V 6580 4500 50  0001 C CNN
F 3 "" H 6650 4500 50  0000 C CNN
F 4 "Panasonic" V 6650 4500 60  0001 C CNN "manf"
F 5 "ERJ-P06J820V" V 6650 4500 60  0001 C CNN "manf#"
	1    6650 4500
	0    1    1    0   
$EndComp
$Comp
L R R25
U 1 1 5814EE7D
P 6650 4700
F 0 "R25" V 6730 4700 50  0000 C CNN
F 1 "82" V 6650 4700 50  0000 C CNN
F 2 "Resistors_SMD:R_0805" V 6580 4700 50  0001 C CNN
F 3 "" H 6650 4700 50  0000 C CNN
F 4 "Panasonic" V 6650 4700 60  0001 C CNN "manf"
F 5 "ERJ-P06J820V" V 6650 4700 60  0001 C CNN "manf#"
	1    6650 4700
	0    1    1    0   
$EndComp
Wire Wire Line
	5250 3700 4650 3700
Wire Wire Line
	5850 3700 6500 3700
Wire Wire Line
	5250 3600 4750 3600
Wire Wire Line
	4750 3600 4750 3500
Wire Wire Line
	4750 3500 4650 3500
Wire Wire Line
	5250 3400 4750 3400
Wire Wire Line
	4750 3400 4750 3300
Wire Wire Line
	4750 3300 4650 3300
Wire Wire Line
	5250 3200 4750 3200
Wire Wire Line
	4750 3200 4750 3100
Wire Wire Line
	4750 3100 4650 3100
Wire Wire Line
	5250 3000 4750 3000
Wire Wire Line
	4750 3000 4750 2900
Wire Wire Line
	4750 2900 4650 2900
Wire Wire Line
	5250 2900 4800 2900
Wire Wire Line
	4800 2900 4800 2700
Wire Wire Line
	4800 2700 4650 2700
Wire Wire Line
	5250 2800 4850 2800
Wire Wire Line
	4850 2800 4850 2500
Wire Wire Line
	4850 2500 4650 2500
Wire Wire Line
	5250 3900 4650 3900
Wire Wire Line
	5250 4100 4650 4100
Wire Wire Line
	5250 4300 4650 4300
Wire Wire Line
	5250 4400 4750 4400
Wire Wire Line
	4750 4400 4750 4500
Wire Wire Line
	4750 4500 4650 4500
Wire Wire Line
	5250 4500 4800 4500
Wire Wire Line
	4800 4500 4800 4700
Wire Wire Line
	4800 4700 4650 4700
$Comp
L R R1
U 1 1 5814F24E
P 6650 2300
F 0 "R1" V 6730 2300 50  0000 C CNN
F 1 "82" V 6650 2300 50  0000 C CNN
F 2 "Resistors_SMD:R_0805" V 6580 2300 50  0001 C CNN
F 3 "" H 6650 2300 50  0000 C CNN
F 4 "Panasonic" V 6650 2300 60  0001 C CNN "manf"
F 5 "ERJ-P06J820V" V 6650 2300 60  0001 C CNN "manf#"
	1    6650 2300
	0    1    1    0   
$EndComp
Wire Wire Line
	5850 3600 6350 3600
Wire Wire Line
	6350 3600 6350 3500
Wire Wire Line
	6350 3500 6500 3500
Wire Wire Line
	5850 3900 6500 3900
Wire Wire Line
	5850 4100 6500 4100
Wire Wire Line
	5850 4300 6500 4300
Wire Wire Line
	5850 4400 6350 4400
Wire Wire Line
	6350 4400 6350 4500
Wire Wire Line
	6350 4500 6500 4500
Wire Wire Line
	5850 4500 6300 4500
Wire Wire Line
	6300 4500 6300 4700
Wire Wire Line
	6300 4700 6500 4700
Wire Wire Line
	5850 3400 6350 3400
Wire Wire Line
	6350 3400 6350 3300
Wire Wire Line
	6350 3300 6500 3300
Wire Wire Line
	5850 3200 6350 3200
Wire Wire Line
	6350 3200 6350 3100
Wire Wire Line
	6350 3100 6500 3100
Wire Wire Line
	5850 3000 6350 3000
Wire Wire Line
	6350 3000 6350 2900
Wire Wire Line
	6350 2900 6500 2900
Wire Wire Line
	5850 2900 6300 2900
Wire Wire Line
	6300 2900 6300 2700
Wire Wire Line
	6300 2700 6500 2700
Wire Wire Line
	5850 2800 6250 2800
Wire Wire Line
	6250 2800 6250 2500
Wire Wire Line
	6250 2500 6500 2500
Wire Wire Line
	5850 2700 6200 2700
Wire Wire Line
	6200 2700 6200 2300
Wire Wire Line
	6200 2300 6500 2300
$Comp
L GND #PWR4
U 1 1 5814F7F7
P 6900 4800
F 0 "#PWR4" H 6900 4550 50  0001 C CNN
F 1 "GND" H 6900 4650 50  0000 C CNN
F 2 "" H 6900 4800 50  0000 C CNN
F 3 "" H 6900 4800 50  0000 C CNN
	1    6900 4800
	1    0    0    -1  
$EndComp
$Comp
L GND #PWR3
U 1 1 5814F850
P 4250 4800
F 0 "#PWR3" H 4250 4550 50  0001 C CNN
F 1 "GND" H 4250 4650 50  0000 C CNN
F 2 "" H 4250 4800 50  0000 C CNN
F 3 "" H 4250 4800 50  0000 C CNN
	1    4250 4800
	1    0    0    -1  
$EndComp
Wire Wire Line
	4250 4800 4250 2500
Wire Wire Line
	4250 2500 4350 2500
Wire Wire Line
	4350 2700 4250 2700
Connection ~ 4250 2700
Wire Wire Line
	4350 2900 4250 2900
Connection ~ 4250 2900
Wire Wire Line
	4350 3100 4250 3100
Connection ~ 4250 3100
Wire Wire Line
	4350 3300 4250 3300
Connection ~ 4250 3300
Wire Wire Line
	4350 3500 4250 3500
Connection ~ 4250 3500
Wire Wire Line
	4350 3700 4250 3700
Connection ~ 4250 3700
Wire Wire Line
	4350 3900 4250 3900
Connection ~ 4250 3900
Wire Wire Line
	4350 4100 4250 4100
Connection ~ 4250 4100
Wire Wire Line
	4350 4300 4250 4300
Connection ~ 4250 4300
Wire Wire Line
	4350 4500 4250 4500
Connection ~ 4250 4500
Wire Wire Line
	4350 4700 4250 4700
Connection ~ 4250 4700
Wire Wire Line
	6800 2300 6900 2300
Wire Wire Line
	6900 2300 6900 4800
Wire Wire Line
	6800 4700 6900 4700
Connection ~ 6900 4700
Wire Wire Line
	6800 4500 6900 4500
Connection ~ 6900 4500
Wire Wire Line
	6800 4300 6900 4300
Connection ~ 6900 4300
Wire Wire Line
	6800 4100 6900 4100
Connection ~ 6900 4100
Wire Wire Line
	6800 3900 6900 3900
Connection ~ 6900 3900
Wire Wire Line
	6800 3700 6900 3700
Connection ~ 6900 3700
Wire Wire Line
	6800 3500 6900 3500
Connection ~ 6900 3500
Wire Wire Line
	6800 3300 6900 3300
Connection ~ 6900 3300
Wire Wire Line
	6800 3100 6900 3100
Connection ~ 6900 3100
Wire Wire Line
	6800 2900 6900 2900
Connection ~ 6900 2900
Wire Wire Line
	6800 2700 6900 2700
Connection ~ 6900 2700
Wire Wire Line
	6800 2500 6900 2500
Connection ~ 6900 2500
$EndSCHEMATC
