M48
;DRILL file {KiCad 4.0.3-stable} date Monday, October 31, 2016 'AMt' 08:46:05 AM
;FORMAT={-:-/ absolute / inch / decimal}
FMAT,2
INCH,TZ
T1C0.013
T2C0.035
T3C0.035
T4C0.036
T5C0.040
T6C0.055
T7C0.063
T8C0.091
T9C0.106
T10C0.130
T11C0.157
%
G90
G05
M72
T1
X0.235Y0.735
X0.28Y1.72
X0.28Y1.62
X0.285Y0.8
X0.285Y0.67
X0.29Y0.62
X0.32Y2.045
X0.32Y1.83
X0.32Y1.525
X0.395Y0.8
X0.395Y0.76
X0.4Y0.725
X0.4Y0.67
X0.43Y2.045
X0.43Y1.83
X0.43Y1.525
X0.48Y0.71
X0.495Y0.575
X0.52Y0.51
X0.53Y0.76
X0.53Y0.71
X0.53Y0.66
X0.54Y1.85
X0.54Y1.555
X0.545Y0.575
X0.565Y2.38
X0.565Y2.27
X0.575Y1.44
X0.58Y0.71
X0.595Y1.33
X0.595Y1.22
X0.6Y2.855
X0.615Y4.22
X0.615Y4.11
X0.62Y1.71
X0.62Y1.67
X0.62Y1.63
X0.62Y1.59
X0.625Y3.825
X0.625Y3.725
X0.625Y0.815
X0.645Y4.22
X0.645Y4.11
X0.66Y0.78
X0.675Y2.16
X0.675Y1.045
X0.69Y0.665
X0.7Y0.585
X0.73Y2.135
X0.73Y0.8925
X0.735Y0.665
X0.76Y3.65
X0.76Y3.5
X0.77Y0.845
X0.775Y2.135
X0.775Y0.8925
X0.78Y0.665
X0.81Y2.38
X0.81Y2.27
X0.82Y0.78
X0.825Y0.665
X0.83Y2.16
X0.83Y1.44
X0.85Y1.33
X0.85Y1.22
X0.87Y0.775
X0.875Y4.525
X0.875Y4.425
X0.88Y0.535
X0.91Y1.995
X0.935Y1.135
X0.945Y0.465
X0.96Y1.11
X0.985Y1.085
X0.99Y0.85
X1.Y0.57
X1.01Y4.35
X1.01Y4.275
X1.01Y4.2
X1.01Y2.38
X1.01Y2.27
X1.01Y1.06
X1.025Y3.05
X1.025Y3.
X1.025Y2.95
X1.03Y2.135
X1.03Y1.44
X1.045Y1.33
X1.045Y1.22
X1.06Y1.035
X1.0842Y1.01
X1.11Y0.985
X1.12Y1.975
X1.14Y3.85
X1.14Y3.55
X1.145Y3.8
X1.175Y1.6275
X1.18Y1.975
X1.18Y1.9308
X1.18Y0.85
X1.215Y2.05
X1.215Y1.905
X1.215Y1.84
X1.22Y1.605
X1.22Y1.54
X1.225Y1.165
X1.25Y3.5
X1.25Y2.835
X1.25Y2.8
X1.25Y2.765
X1.255Y3.85
X1.255Y3.8
X1.255Y2.025
X1.26Y1.815
X1.26Y1.65
X1.26Y1.58
X1.26Y1.515
X1.265Y2.125
X1.265Y1.87
X1.275Y3.725
X1.275Y3.625
X1.28Y3.825
X1.29Y1.33
X1.29Y1.22
X1.31Y3.675
X1.37Y2.17
X1.37Y2.05
X1.37Y1.89
X1.37Y1.67
X1.38Y1.815
X1.39Y4.55
X1.395Y4.5
X1.395Y4.25
X1.395Y4.2
X1.41Y3.65
X1.41Y3.5
X1.415Y1.84
X1.42Y2.025
X1.425Y3.2
X1.425Y2.9
X1.455Y1.9975
X1.475Y3.2
X1.475Y2.9
X1.475Y1.6275
X1.48Y2.17
X1.48Y1.89
X1.48Y1.67
X1.49Y1.975
X1.5Y4.2
X1.505Y1.605
X1.51Y4.55
X1.51Y4.5
X1.525Y4.425
X1.525Y4.325
X1.525Y3.2
X1.525Y2.9
X1.5325Y1.9125
X1.535Y2.105
X1.535Y1.58
X1.535Y1.515
X1.57Y4.475
X1.57Y4.375
X1.57Y1.135
X1.57Y1.085
X1.57Y1.035
X1.57Y0.985
X1.575Y3.2
X1.575Y2.9
X1.575Y1.935
X1.575Y1.54
X1.61Y1.11
X1.61Y1.06
X1.61Y1.01
X1.625Y3.2
X1.625Y2.9
X1.67Y4.175
X1.675Y3.2
X1.675Y2.9
X1.71Y4.325
X1.71Y4.175
X1.725Y3.2
X1.725Y2.9
X1.75Y2.09
X1.79Y3.85
X1.79Y3.55
X1.795Y3.8
X1.85Y2.065
X1.9Y3.5
X1.9Y3.01
X1.91Y3.85
X1.91Y3.8
X1.925Y3.725
X1.925Y3.625
X1.97Y3.14
X1.97Y2.835
X1.975Y3.775
X1.975Y3.675
X1.99Y3.115
X1.99Y3.05
X1.99Y2.995
X1.99Y2.94
X1.99Y2.86
X2.01Y3.14
X2.01Y2.835
X2.02Y2.085
X2.02Y1.89
X2.02Y1.83
X2.02Y1.555
X2.03Y2.48
X2.055Y3.14
X2.055Y3.11
X2.055Y3.08
X2.06Y1.455
X2.06Y0.47
X2.09Y4.275
X2.095Y4.525
X2.095Y4.15
X2.095Y2.31
X2.1Y2.555
X2.1Y2.365
X2.11Y3.625
X2.11Y3.475
X2.11Y1.455
X2.11Y0.52
X2.125Y2.335
X2.13Y2.46
X2.13Y2.085
X2.13Y1.89
X2.13Y1.795
X2.13Y1.555
X2.175Y2.96
X2.175Y2.89
X2.195Y2.99
X2.195Y2.86
X2.2Y4.175
X2.205Y4.525
X2.215Y2.96
X2.215Y2.89
X2.215Y2.385
X2.225Y4.475
X2.225Y4.425
X2.225Y4.375
X2.225Y4.325
X2.225Y1.315
X2.225Y0.495
X2.235Y1.455
X2.24Y2.15
X2.24Y2.11
X2.24Y2.07
X2.24Y1.965
X2.24Y1.785
X2.24Y1.69
X2.25Y1.625
X2.275Y1.315
X2.275Y0.445
X2.285Y1.655
X2.3Y1.455
X2.305Y2.025
X2.31Y3.225
X2.31Y3.115
X2.31Y2.885
X2.31Y2.775
X2.32Y2.065
X2.325Y4.19
X2.335Y3.3
X2.335Y2.31
X2.335Y1.455
X2.36Y4.325
X2.36Y4.175
X2.36Y1.49
X2.365Y3.33
X2.385Y1.53
X2.39Y2.985
X2.39Y2.295
X2.41Y1.49
X2.43Y2.165
X2.44Y1.22
X2.46Y3.225
X2.46Y3.115
X2.46Y2.885
X2.46Y2.775
X2.46Y2.465
X2.485Y3.365
X2.485Y2.565
X2.49Y3.575
X2.49Y2.165
X2.495Y3.825
X2.51Y2.28
X2.51Y1.33
X2.51Y1.22
X2.515Y3.39
X2.52Y2.325
X2.54Y2.985
X2.6Y3.475
X2.605Y3.825
X2.61Y3.225
X2.61Y3.115
X2.61Y2.885
X2.61Y2.775
X2.61Y2.165
X2.615Y2.38
X2.615Y2.27
X2.625Y3.725
X2.625Y3.625
X2.63Y1.22
X2.635Y3.415
X2.66Y2.38
X2.665Y3.44
X2.67Y1.435
X2.67Y1.33
X2.69Y2.985
X2.71Y2.165
X2.74Y4.275
X2.745Y4.525
X2.745Y4.15
X2.76Y3.225
X2.76Y3.115
X2.76Y2.885
X2.76Y2.775
X2.77Y1.33
X2.77Y1.22
X2.785Y3.44
X2.79Y1.435
X2.815Y3.415
X2.825Y3.51
X2.84Y2.985
X2.845Y2.38
X2.845Y2.27
X2.85Y4.175
X2.855Y4.525
X2.875Y4.425
X2.875Y4.325
X2.905Y3.795
X2.905Y2.38
X2.91Y3.225
X2.91Y3.115
X2.91Y2.885
X2.91Y2.775
X2.9311Y2.2861
X2.94Y3.44
X2.945Y1.435
X2.96Y2.38
X2.96Y1.925
X2.965Y3.415
X2.965Y1.69
X2.965Y1.495
X2.99Y2.985
X3.06Y3.225
X3.06Y3.115
X3.06Y2.885
X3.06Y2.775
X3.07Y2.045
X3.07Y1.855
X3.07Y1.775
X3.07Y1.515
X3.085Y3.445
X3.085Y2.41
X3.085Y2.38
X3.085Y2.35
X3.115Y3.42
X3.115Y2.2
X3.115Y2.16
X3.14Y2.985
X3.14Y2.18
X3.18Y2.18
X3.18Y2.045
X3.18Y1.985
X3.18Y1.855
X3.18Y1.81
X3.18Y1.515
X3.235Y2.18
X3.255Y2.39
X3.285Y2.41
X3.285Y2.37
X3.29Y2.18
X3.385Y2.18
X3.41Y2.2
X3.41Y2.16
T2
X0.8Y4.05
X0.8Y3.95
X0.9Y4.05
X0.9Y3.95
X1.Y4.05
X1.Y3.95
X1.1Y4.05
X1.1Y3.95
X1.2Y4.05
X1.2Y3.95
X1.3Y4.05
X1.3Y3.95
X1.3Y0.35
X1.3Y0.25
X1.4Y4.05
X1.4Y3.95
X1.4Y0.35
X1.4Y0.25
X1.5Y4.05
X1.5Y3.95
X1.5Y0.35
X1.5Y0.25
X1.6Y4.05
X1.6Y3.95
X1.6Y0.35
X1.6Y0.25
X1.7Y4.05
X1.7Y3.95
X1.7Y0.35
X1.7Y0.25
X1.8Y4.05
X1.8Y3.95
X1.8Y0.35
X1.8Y0.25
X1.9Y4.05
X1.9Y3.95
X1.9Y0.35
X1.9Y0.25
X2.Y4.05
X2.Y3.95
X2.Y0.35
X2.Y0.25
X2.1Y4.05
X2.1Y3.95
X2.1Y0.35
X2.1Y0.25
X2.2Y4.05
X2.2Y3.95
X2.2Y0.35
X2.2Y0.25
X2.3Y4.05
X2.3Y3.95
X2.4Y4.05
X2.4Y3.95
X2.5Y4.05
X2.5Y3.95
X2.6Y4.05
X2.6Y3.95
X2.7Y4.05
X2.7Y3.95
T3
X2.6138Y0.1894
X2.6138Y0.1106
X2.6925Y0.1894
X2.6925Y0.1106
X2.7713Y0.1894
X2.7713Y0.1106
X2.85Y0.1894
X2.85Y0.1106
X2.9287Y0.1894
X2.9287Y0.1106
X3.0075Y0.1894
X3.0075Y0.1106
X3.0862Y0.1894
X3.0862Y0.1106
T4
X0.6008Y0.4402
X0.6008Y0.3614
X0.6992Y0.4402
X0.6992Y0.3614
T5
X0.628Y2.6268
X0.728Y2.6268
X0.828Y2.6268
X0.928Y2.6268
X1.028Y2.6268
X1.128Y2.6268
X1.228Y2.6268
X1.3Y0.7
X1.3Y0.6
X1.328Y2.6268
X1.4Y0.7
X1.4Y0.6
X1.428Y2.6268
X1.5Y0.7
X1.5Y0.6
X1.528Y2.6268
X1.6Y0.7
X1.6Y0.6
X1.628Y2.6268
X1.7Y0.7
X1.7Y0.6
X1.728Y2.6268
X1.8Y0.7
X1.8Y0.6
X1.828Y2.6268
X1.9Y0.7
X1.9Y0.6
X1.928Y2.6268
X2.Y0.7
X2.Y0.6
X2.028Y2.6268
X2.128Y2.6268
X2.5Y0.7
X2.5Y0.6
X2.6Y0.7
X2.6Y0.6
X2.7Y0.7
X2.7Y0.6
X2.8Y0.7
X2.8Y0.6
X2.9Y0.7
X2.9Y0.6
X3.Y0.7
X3.Y0.6
X3.1Y0.7
X3.1Y0.6
X3.2Y0.7
X3.2Y0.6
T6
X0.65Y3.
X0.85Y3.
T7
X0.125Y2.55
X0.125Y1.15
X0.25Y3.5
X0.5Y4.325
X0.5Y3.5
X3.25Y3.5
X3.375Y2.55
X3.375Y1.15
T8
X0.413Y0.2547
X0.887Y0.2547
T9
X0.45Y3.99
X3.05Y3.99
T10
X0.171Y4.
X0.171Y3.
X0.175Y4.45
X0.175Y0.175
X3.325Y4.45
X3.325Y0.175
X3.329Y4.
X3.329Y3.
T11
X0.372Y2.5874
X0.372Y1.0126
X3.128Y2.5874
X3.128Y1.0126
T0
M30
